EESchema Schematic File Version 4
EELAYER 30 0
EELAYER END
$Descr A4 11693 8268
encoding utf-8
Sheet 15 20
Title ""
Date ""
Rev ""
Comp ""
Comment1 ""
Comment2 ""
Comment3 ""
Comment4 ""
$EndDescr
$Comp
L power:GND #PWR?
U 1 1 60E00FC4
P 1300 2550
AR Path="/6076EF3D/60E00FC4" Ref="#PWR?"  Part="1" 
AR Path="/607970C6/6079911F/60E00FC4" Ref="#PWR?"  Part="1" 
AR Path="/60809DB0/60E00FC4" Ref="#PWR0182"  Part="1" 
F 0 "#PWR0182" H 1300 2300 50  0001 C CNN
F 1 "GND" H 1305 2377 50  0000 C CNN
F 2 "" H 1300 2550 50  0001 C CNN
F 3 "" H 1300 2550 50  0001 C CNN
	1    1300 2550
	1    0    0    -1  
$EndComp
Wire Wire Line
	2000 2450 2000 2750
$Comp
L power:+3V3 #PWR?
U 1 1 608451D5
P 2000 900
AR Path="/6076EF3D/608451D5" Ref="#PWR?"  Part="1" 
AR Path="/607970C6/6079911F/608451D5" Ref="#PWR?"  Part="1" 
AR Path="/60809DB0/608451D5" Ref="#PWR0167"  Part="1" 
F 0 "#PWR0167" H 2000 750 50  0001 C CNN
F 1 "+3V3" H 2015 1073 50  0000 C CNN
F 2 "" H 2000 900 50  0001 C CNN
F 3 "" H 2000 900 50  0001 C CNN
	1    2000 900 
	1    0    0    -1  
$EndComp
$Comp
L power:+3V3 #PWR?
U 1 1 608443D3
P 900 1200
AR Path="/6076EF3D/608443D3" Ref="#PWR?"  Part="1" 
AR Path="/607970C6/6079911F/608443D3" Ref="#PWR?"  Part="1" 
AR Path="/60809DB0/608443D3" Ref="#PWR0175"  Part="1" 
F 0 "#PWR0175" H 900 1050 50  0001 C CNN
F 1 "+3V3" H 915 1373 50  0000 C CNN
F 2 "" H 900 1200 50  0001 C CNN
F 3 "" H 900 1200 50  0001 C CNN
	1    900  1200
	1    0    0    -1  
$EndComp
Text HLabel 2850 1350 2    50   Output ~ 0
A0_1V4_g1
Text HLabel 2850 1450 2    50   Output ~ 0
A1_1V4_g1
Text HLabel 2850 1550 2    50   Output ~ 0
A2_1V4_g1
Text HLabel 2850 1650 2    50   Output ~ 0
A3_1V4_g1
Text HLabel 2850 1750 2    50   Output ~ 0
A4_1V4_g1
Wire Wire Line
	2850 1750 2700 1750
Wire Wire Line
	2850 1650 2700 1650
Wire Wire Line
	2850 1550 2700 1550
Wire Wire Line
	2700 1450 2850 1450
Wire Wire Line
	2700 1350 2850 1350
Wire Wire Line
	2600 950  2600 1050
Wire Wire Line
	2450 950  2600 950 
Wire Wire Line
	2000 950  2000 900 
Connection ~ 2000 950 
Wire Wire Line
	2150 950  2000 950 
$Comp
L power:GND #PWR?
U 1 1 607ADFF9
P 2600 1050
AR Path="/6076EF3D/607ADFF9" Ref="#PWR?"  Part="1" 
AR Path="/607970C6/6079911F/607ADFF9" Ref="#PWR?"  Part="1" 
AR Path="/60809DB0/607ADFF9" Ref="#PWR0171"  Part="1" 
F 0 "#PWR0171" H 2600 800 50  0001 C CNN
F 1 "GND" H 2605 877 50  0000 C CNN
F 2 "" H 2600 1050 50  0001 C CNN
F 3 "" H 2600 1050 50  0001 C CNN
	1    2600 1050
	1    0    0    -1  
$EndComp
$Comp
L Device:C C?
U 1 1 607AD7CB
P 2300 950
AR Path="/6076EF3D/607AD7CB" Ref="C?"  Part="1" 
AR Path="/607970C6/6079911F/607AD7CB" Ref="C?"  Part="1" 
AR Path="/60809DB0/607AD7CB" Ref="C399"  Part="1" 
F 0 "C399" V 2250 850 50  0000 C CNN
F 1 "0.1uF" V 2250 1100 50  0000 C CNN
F 2 "Capacitor_SMD:C_0805_2012Metric" H 2338 800 50  0001 C CNN
F 3 "~" H 2300 950 50  0001 C CNN
	1    2300 950 
	0    1    1    0   
$EndComp
NoConn ~ 1300 1650
Wire Wire Line
	900  1600 900  1750
Wire Wire Line
	900  1200 900  1300
$Comp
L Device:R R?
U 1 1 607A967F
P 900 1450
AR Path="/6076EF3D/607A967F" Ref="R?"  Part="1" 
AR Path="/607970C6/6079911F/607A967F" Ref="R?"  Part="1" 
AR Path="/60809DB0/607A967F" Ref="R784"  Part="1" 
F 0 "R784" V 1000 1400 50  0000 L CNN
F 1 "10k" V 900 1400 50  0000 L CNN
F 2 "Resistor_SMD:R_0805_2012Metric" V 830 1450 50  0001 C CNN
F 3 "~" H 900 1450 50  0001 C CNN
	1    900  1450
	1    0    0    -1  
$EndComp
Wire Wire Line
	2000 1050 2000 950 
Connection ~ 1300 2150
Wire Wire Line
	1300 2150 1300 2550
Connection ~ 1300 2050
Wire Wire Line
	1300 2050 1300 2150
Wire Wire Line
	1300 1950 1300 2050
$Comp
L power:GND #PWR?
U 1 1 607A4FAB
P 2000 2750
AR Path="/6076EF3D/607A4FAB" Ref="#PWR?"  Part="1" 
AR Path="/607970C6/6079911F/607A4FAB" Ref="#PWR?"  Part="1" 
AR Path="/60809DB0/607A4FAB" Ref="#PWR0186"  Part="1" 
F 0 "#PWR0186" H 2000 2500 50  0001 C CNN
F 1 "GND" H 2005 2577 50  0000 C CNN
F 2 "" H 2000 2750 50  0001 C CNN
F 3 "" H 2000 2750 50  0001 C CNN
	1    2000 2750
	1    0    0    -1  
$EndComp
$Comp
L linpol:MCP23008 U?
U 1 1 60798CD9
P 2000 2150
AR Path="/6076EF3D/60798CD9" Ref="U?"  Part="1" 
AR Path="/607970C6/6079911F/60798CD9" Ref="U?"  Part="1" 
AR Path="/60809DB0/60798CD9" Ref="U137"  Part="1" 
F 0 "U137" H 1600 2000 50  0000 C CNN
F 1 "MCP23008" H 2250 2000 50  0000 C CNN
F 2 "linpol:SSOP-20_5.3x7.2mm_P0.65mm" H 2100 1950 50  0001 L CNN
F 3 "" H 2200 1050 50  0001 L CNN
	1    2000 2150
	1    0    0    -1  
$EndComp
Wire Wire Line
	900  1750 1300 1750
$Comp
L power:GND #PWR?
U 1 1 60E2B236
P 3750 2550
AR Path="/6076EF3D/60E2B236" Ref="#PWR?"  Part="1" 
AR Path="/607970C6/6079911F/60E2B236" Ref="#PWR?"  Part="1" 
AR Path="/60809DB0/60E2B236" Ref="#PWR0183"  Part="1" 
F 0 "#PWR0183" H 3750 2300 50  0001 C CNN
F 1 "GND" H 3755 2377 50  0000 C CNN
F 2 "" H 3750 2550 50  0001 C CNN
F 3 "" H 3750 2550 50  0001 C CNN
	1    3750 2550
	1    0    0    -1  
$EndComp
Wire Wire Line
	4500 2450 4500 2750
$Comp
L power:+3V3 #PWR?
U 1 1 60E2B23D
P 4500 900
AR Path="/6076EF3D/60E2B23D" Ref="#PWR?"  Part="1" 
AR Path="/607970C6/6079911F/60E2B23D" Ref="#PWR?"  Part="1" 
AR Path="/60809DB0/60E2B23D" Ref="#PWR0168"  Part="1" 
F 0 "#PWR0168" H 4500 750 50  0001 C CNN
F 1 "+3V3" H 4515 1073 50  0000 C CNN
F 2 "" H 4500 900 50  0001 C CNN
F 3 "" H 4500 900 50  0001 C CNN
	1    4500 900 
	1    0    0    -1  
$EndComp
$Comp
L power:+3V3 #PWR?
U 1 1 60E2B243
P 3400 1200
AR Path="/6076EF3D/60E2B243" Ref="#PWR?"  Part="1" 
AR Path="/607970C6/6079911F/60E2B243" Ref="#PWR?"  Part="1" 
AR Path="/60809DB0/60E2B243" Ref="#PWR0176"  Part="1" 
F 0 "#PWR0176" H 3400 1050 50  0001 C CNN
F 1 "+3V3" H 3415 1373 50  0000 C CNN
F 2 "" H 3400 1200 50  0001 C CNN
F 3 "" H 3400 1200 50  0001 C CNN
	1    3400 1200
	1    0    0    -1  
$EndComp
Text HLabel 5350 1350 2    50   Output ~ 0
A0_1V4_g2
Text HLabel 5350 1450 2    50   Output ~ 0
A1_1V4_g2
Text HLabel 5350 1550 2    50   Output ~ 0
A2_1V4_g2
Text HLabel 5350 1650 2    50   Output ~ 0
A3_1V4_g2
Text HLabel 5350 1750 2    50   Output ~ 0
A4_1V4_g2
Wire Wire Line
	5350 1750 5200 1750
Wire Wire Line
	5350 1650 5200 1650
Wire Wire Line
	5350 1550 5200 1550
Wire Wire Line
	5200 1450 5350 1450
Wire Wire Line
	5200 1350 5350 1350
Wire Wire Line
	5100 950  5100 1050
Wire Wire Line
	4950 950  5100 950 
Wire Wire Line
	4500 950  4500 900 
Connection ~ 4500 950 
Wire Wire Line
	4650 950  4500 950 
$Comp
L power:GND #PWR?
U 1 1 60E2B25A
P 5100 1050
AR Path="/6076EF3D/60E2B25A" Ref="#PWR?"  Part="1" 
AR Path="/607970C6/6079911F/60E2B25A" Ref="#PWR?"  Part="1" 
AR Path="/60809DB0/60E2B25A" Ref="#PWR0172"  Part="1" 
F 0 "#PWR0172" H 5100 800 50  0001 C CNN
F 1 "GND" H 5105 877 50  0000 C CNN
F 2 "" H 5100 1050 50  0001 C CNN
F 3 "" H 5100 1050 50  0001 C CNN
	1    5100 1050
	1    0    0    -1  
$EndComp
$Comp
L Device:C C?
U 1 1 60E2B260
P 4800 950
AR Path="/6076EF3D/60E2B260" Ref="C?"  Part="1" 
AR Path="/607970C6/6079911F/60E2B260" Ref="C?"  Part="1" 
AR Path="/60809DB0/60E2B260" Ref="C400"  Part="1" 
F 0 "C400" V 4750 850 50  0000 C CNN
F 1 "0.1uF" V 4750 1100 50  0000 C CNN
F 2 "Capacitor_SMD:C_0805_2012Metric" H 4838 800 50  0001 C CNN
F 3 "~" H 4800 950 50  0001 C CNN
	1    4800 950 
	0    1    1    0   
$EndComp
NoConn ~ 3800 1650
Wire Wire Line
	3400 1600 3400 1750
Wire Wire Line
	3400 1200 3400 1300
$Comp
L Device:R R?
U 1 1 60E2B269
P 3400 1450
AR Path="/6076EF3D/60E2B269" Ref="R?"  Part="1" 
AR Path="/607970C6/6079911F/60E2B269" Ref="R?"  Part="1" 
AR Path="/60809DB0/60E2B269" Ref="R785"  Part="1" 
F 0 "R785" V 3500 1400 50  0000 L CNN
F 1 "10k" V 3400 1400 50  0000 L CNN
F 2 "Resistor_SMD:R_0805_2012Metric" V 3330 1450 50  0001 C CNN
F 3 "~" H 3400 1450 50  0001 C CNN
	1    3400 1450
	1    0    0    -1  
$EndComp
Wire Wire Line
	4500 1050 4500 950 
Wire Wire Line
	3800 1950 3800 2000
$Comp
L power:GND #PWR?
U 1 1 60E2B275
P 4500 2750
AR Path="/6076EF3D/60E2B275" Ref="#PWR?"  Part="1" 
AR Path="/607970C6/6079911F/60E2B275" Ref="#PWR?"  Part="1" 
AR Path="/60809DB0/60E2B275" Ref="#PWR0187"  Part="1" 
F 0 "#PWR0187" H 4500 2500 50  0001 C CNN
F 1 "GND" H 4505 2577 50  0000 C CNN
F 2 "" H 4500 2750 50  0001 C CNN
F 3 "" H 4500 2750 50  0001 C CNN
	1    4500 2750
	1    0    0    -1  
$EndComp
$Comp
L linpol:MCP23008 U?
U 1 1 60E2B27B
P 4500 2150
AR Path="/6076EF3D/60E2B27B" Ref="U?"  Part="1" 
AR Path="/607970C6/6079911F/60E2B27B" Ref="U?"  Part="1" 
AR Path="/60809DB0/60E2B27B" Ref="U138"  Part="1" 
F 0 "U138" H 4100 2000 50  0000 C CNN
F 1 "MCP23008" H 4750 2000 50  0000 C CNN
F 2 "linpol:SSOP-20_5.3x7.2mm_P0.65mm" H 4600 1950 50  0001 L CNN
F 3 "" H 4700 1050 50  0001 L CNN
	1    4500 2150
	1    0    0    -1  
$EndComp
Wire Wire Line
	3400 1750 3800 1750
$Comp
L power:GND #PWR?
U 1 1 60E30171
P 6300 2550
AR Path="/6076EF3D/60E30171" Ref="#PWR?"  Part="1" 
AR Path="/607970C6/6079911F/60E30171" Ref="#PWR?"  Part="1" 
AR Path="/60809DB0/60E30171" Ref="#PWR0184"  Part="1" 
F 0 "#PWR0184" H 6300 2300 50  0001 C CNN
F 1 "GND" H 6305 2377 50  0000 C CNN
F 2 "" H 6300 2550 50  0001 C CNN
F 3 "" H 6300 2550 50  0001 C CNN
	1    6300 2550
	1    0    0    -1  
$EndComp
Wire Wire Line
	7000 2450 7000 2750
$Comp
L power:+3V3 #PWR?
U 1 1 60E30178
P 7000 900
AR Path="/6076EF3D/60E30178" Ref="#PWR?"  Part="1" 
AR Path="/607970C6/6079911F/60E30178" Ref="#PWR?"  Part="1" 
AR Path="/60809DB0/60E30178" Ref="#PWR0169"  Part="1" 
F 0 "#PWR0169" H 7000 750 50  0001 C CNN
F 1 "+3V3" H 7015 1073 50  0000 C CNN
F 2 "" H 7000 900 50  0001 C CNN
F 3 "" H 7000 900 50  0001 C CNN
	1    7000 900 
	1    0    0    -1  
$EndComp
$Comp
L power:+3V3 #PWR?
U 1 1 60E3017E
P 5900 1200
AR Path="/6076EF3D/60E3017E" Ref="#PWR?"  Part="1" 
AR Path="/607970C6/6079911F/60E3017E" Ref="#PWR?"  Part="1" 
AR Path="/60809DB0/60E3017E" Ref="#PWR0177"  Part="1" 
F 0 "#PWR0177" H 5900 1050 50  0001 C CNN
F 1 "+3V3" H 5915 1373 50  0000 C CNN
F 2 "" H 5900 1200 50  0001 C CNN
F 3 "" H 5900 1200 50  0001 C CNN
	1    5900 1200
	1    0    0    -1  
$EndComp
Text HLabel 7850 1350 2    50   Output ~ 0
A0_1V4_g3
Text HLabel 7850 1450 2    50   Output ~ 0
A1_1V4_g3
Text HLabel 7850 1550 2    50   Output ~ 0
A2_1V4_g3
Text HLabel 7850 1650 2    50   Output ~ 0
A3_1V4_g3
Text HLabel 7850 1750 2    50   Output ~ 0
A4_1V4_g3
Wire Wire Line
	7850 1750 7700 1750
Wire Wire Line
	7850 1650 7700 1650
Wire Wire Line
	7850 1550 7700 1550
Wire Wire Line
	7700 1450 7850 1450
Wire Wire Line
	7700 1350 7850 1350
Wire Wire Line
	7600 950  7600 1050
Wire Wire Line
	7450 950  7600 950 
Wire Wire Line
	7000 950  7000 900 
Connection ~ 7000 950 
Wire Wire Line
	7150 950  7000 950 
$Comp
L power:GND #PWR?
U 1 1 60E30195
P 7600 1050
AR Path="/6076EF3D/60E30195" Ref="#PWR?"  Part="1" 
AR Path="/607970C6/6079911F/60E30195" Ref="#PWR?"  Part="1" 
AR Path="/60809DB0/60E30195" Ref="#PWR0173"  Part="1" 
F 0 "#PWR0173" H 7600 800 50  0001 C CNN
F 1 "GND" H 7605 877 50  0000 C CNN
F 2 "" H 7600 1050 50  0001 C CNN
F 3 "" H 7600 1050 50  0001 C CNN
	1    7600 1050
	1    0    0    -1  
$EndComp
$Comp
L Device:C C?
U 1 1 60E3019B
P 7300 950
AR Path="/6076EF3D/60E3019B" Ref="C?"  Part="1" 
AR Path="/607970C6/6079911F/60E3019B" Ref="C?"  Part="1" 
AR Path="/60809DB0/60E3019B" Ref="C401"  Part="1" 
F 0 "C401" V 7250 850 50  0000 C CNN
F 1 "0.1uF" V 7250 1100 50  0000 C CNN
F 2 "Capacitor_SMD:C_0805_2012Metric" H 7338 800 50  0001 C CNN
F 3 "~" H 7300 950 50  0001 C CNN
	1    7300 950 
	0    1    1    0   
$EndComp
NoConn ~ 6300 1650
Wire Wire Line
	5900 1600 5900 1750
Wire Wire Line
	5900 1200 5900 1300
$Comp
L Device:R R?
U 1 1 60E301A4
P 5900 1450
AR Path="/6076EF3D/60E301A4" Ref="R?"  Part="1" 
AR Path="/607970C6/6079911F/60E301A4" Ref="R?"  Part="1" 
AR Path="/60809DB0/60E301A4" Ref="R786"  Part="1" 
F 0 "R786" V 6000 1400 50  0000 L CNN
F 1 "10k" V 5900 1400 50  0000 L CNN
F 2 "Resistor_SMD:R_0805_2012Metric" V 5830 1450 50  0001 C CNN
F 3 "~" H 5900 1450 50  0001 C CNN
	1    5900 1450
	1    0    0    -1  
$EndComp
Wire Wire Line
	7000 1050 7000 950 
Wire Wire Line
	6300 2150 6300 2550
$Comp
L power:GND #PWR?
U 1 1 60E301B0
P 7000 2750
AR Path="/6076EF3D/60E301B0" Ref="#PWR?"  Part="1" 
AR Path="/607970C6/6079911F/60E301B0" Ref="#PWR?"  Part="1" 
AR Path="/60809DB0/60E301B0" Ref="#PWR0188"  Part="1" 
F 0 "#PWR0188" H 7000 2500 50  0001 C CNN
F 1 "GND" H 7005 2577 50  0000 C CNN
F 2 "" H 7000 2750 50  0001 C CNN
F 3 "" H 7000 2750 50  0001 C CNN
	1    7000 2750
	1    0    0    -1  
$EndComp
$Comp
L linpol:MCP23008 U?
U 1 1 60E301B6
P 7000 2150
AR Path="/6076EF3D/60E301B6" Ref="U?"  Part="1" 
AR Path="/607970C6/6079911F/60E301B6" Ref="U?"  Part="1" 
AR Path="/60809DB0/60E301B6" Ref="U139"  Part="1" 
F 0 "U139" H 6600 2000 50  0000 C CNN
F 1 "MCP23008" H 7250 2000 50  0000 C CNN
F 2 "linpol:SSOP-20_5.3x7.2mm_P0.65mm" H 7100 1950 50  0001 L CNN
F 3 "" H 7200 1050 50  0001 L CNN
	1    7000 2150
	1    0    0    -1  
$EndComp
Wire Wire Line
	5900 1750 6300 1750
$Comp
L power:GND #PWR?
U 1 1 60E352C4
P 8650 2550
AR Path="/6076EF3D/60E352C4" Ref="#PWR?"  Part="1" 
AR Path="/607970C6/6079911F/60E352C4" Ref="#PWR?"  Part="1" 
AR Path="/60809DB0/60E352C4" Ref="#PWR0185"  Part="1" 
F 0 "#PWR0185" H 8650 2300 50  0001 C CNN
F 1 "GND" H 8655 2377 50  0000 C CNN
F 2 "" H 8650 2550 50  0001 C CNN
F 3 "" H 8650 2550 50  0001 C CNN
	1    8650 2550
	1    0    0    -1  
$EndComp
Wire Wire Line
	9500 2450 9500 2750
$Comp
L power:+3V3 #PWR?
U 1 1 60E352CB
P 9500 900
AR Path="/6076EF3D/60E352CB" Ref="#PWR?"  Part="1" 
AR Path="/607970C6/6079911F/60E352CB" Ref="#PWR?"  Part="1" 
AR Path="/60809DB0/60E352CB" Ref="#PWR0170"  Part="1" 
F 0 "#PWR0170" H 9500 750 50  0001 C CNN
F 1 "+3V3" H 9515 1073 50  0000 C CNN
F 2 "" H 9500 900 50  0001 C CNN
F 3 "" H 9500 900 50  0001 C CNN
	1    9500 900 
	1    0    0    -1  
$EndComp
$Comp
L power:+3V3 #PWR?
U 1 1 60E352D1
P 8400 1200
AR Path="/6076EF3D/60E352D1" Ref="#PWR?"  Part="1" 
AR Path="/607970C6/6079911F/60E352D1" Ref="#PWR?"  Part="1" 
AR Path="/60809DB0/60E352D1" Ref="#PWR0178"  Part="1" 
F 0 "#PWR0178" H 8400 1050 50  0001 C CNN
F 1 "+3V3" H 8415 1373 50  0000 C CNN
F 2 "" H 8400 1200 50  0001 C CNN
F 3 "" H 8400 1200 50  0001 C CNN
	1    8400 1200
	1    0    0    -1  
$EndComp
Text HLabel 10350 1350 2    50   Output ~ 0
A0_1V4_g4
Text HLabel 10350 1450 2    50   Output ~ 0
A1_1V4_g4
Text HLabel 10350 1550 2    50   Output ~ 0
A2_1V4_g4
Text HLabel 10350 1650 2    50   Output ~ 0
A3_1V4_g4
Text HLabel 10350 1750 2    50   Output ~ 0
A4_1V4_g4
Wire Wire Line
	10350 1750 10200 1750
Wire Wire Line
	10350 1650 10200 1650
Wire Wire Line
	10350 1550 10200 1550
Wire Wire Line
	10200 1450 10350 1450
Wire Wire Line
	10200 1350 10350 1350
Wire Wire Line
	10100 950  10100 1050
Wire Wire Line
	9950 950  10100 950 
Wire Wire Line
	9500 950  9500 900 
Connection ~ 9500 950 
Wire Wire Line
	9650 950  9500 950 
$Comp
L power:GND #PWR?
U 1 1 60E352E8
P 10100 1050
AR Path="/6076EF3D/60E352E8" Ref="#PWR?"  Part="1" 
AR Path="/607970C6/6079911F/60E352E8" Ref="#PWR?"  Part="1" 
AR Path="/60809DB0/60E352E8" Ref="#PWR0174"  Part="1" 
F 0 "#PWR0174" H 10100 800 50  0001 C CNN
F 1 "GND" H 10105 877 50  0000 C CNN
F 2 "" H 10100 1050 50  0001 C CNN
F 3 "" H 10100 1050 50  0001 C CNN
	1    10100 1050
	1    0    0    -1  
$EndComp
$Comp
L Device:C C?
U 1 1 60E352EE
P 9800 950
AR Path="/6076EF3D/60E352EE" Ref="C?"  Part="1" 
AR Path="/607970C6/6079911F/60E352EE" Ref="C?"  Part="1" 
AR Path="/60809DB0/60E352EE" Ref="C402"  Part="1" 
F 0 "C402" V 9750 850 50  0000 C CNN
F 1 "0.1uF" V 9750 1100 50  0000 C CNN
F 2 "Capacitor_SMD:C_0805_2012Metric" H 9838 800 50  0001 C CNN
F 3 "~" H 9800 950 50  0001 C CNN
	1    9800 950 
	0    1    1    0   
$EndComp
NoConn ~ 8800 1650
Wire Wire Line
	8400 1600 8400 1750
Wire Wire Line
	8400 1200 8400 1300
$Comp
L Device:R R?
U 1 1 60E352F7
P 8400 1450
AR Path="/6076EF3D/60E352F7" Ref="R?"  Part="1" 
AR Path="/607970C6/6079911F/60E352F7" Ref="R?"  Part="1" 
AR Path="/60809DB0/60E352F7" Ref="R787"  Part="1" 
F 0 "R787" V 8500 1400 50  0000 L CNN
F 1 "10k" V 8400 1400 50  0000 L CNN
F 2 "Resistor_SMD:R_0805_2012Metric" V 8330 1450 50  0001 C CNN
F 3 "~" H 8400 1450 50  0001 C CNN
	1    8400 1450
	1    0    0    -1  
$EndComp
Wire Wire Line
	9500 1050 9500 950 
Wire Wire Line
	8800 2050 8800 2100
$Comp
L power:GND #PWR?
U 1 1 60E35303
P 9500 2750
AR Path="/6076EF3D/60E35303" Ref="#PWR?"  Part="1" 
AR Path="/607970C6/6079911F/60E35303" Ref="#PWR?"  Part="1" 
AR Path="/60809DB0/60E35303" Ref="#PWR0189"  Part="1" 
F 0 "#PWR0189" H 9500 2500 50  0001 C CNN
F 1 "GND" H 9505 2577 50  0000 C CNN
F 2 "" H 9500 2750 50  0001 C CNN
F 3 "" H 9500 2750 50  0001 C CNN
	1    9500 2750
	1    0    0    -1  
$EndComp
$Comp
L linpol:MCP23008 U?
U 1 1 60E35309
P 9500 2150
AR Path="/6076EF3D/60E35309" Ref="U?"  Part="1" 
AR Path="/607970C6/6079911F/60E35309" Ref="U?"  Part="1" 
AR Path="/60809DB0/60E35309" Ref="U140"  Part="1" 
F 0 "U140" H 9100 2000 50  0000 C CNN
F 1 "MCP23008" H 9750 2000 50  0000 C CNN
F 2 "linpol:SSOP-20_5.3x7.2mm_P0.65mm" H 9600 1950 50  0001 L CNN
F 3 "" H 9700 1050 50  0001 L CNN
	1    9500 2150
	1    0    0    -1  
$EndComp
Wire Wire Line
	8400 1750 8800 1750
$Comp
L power:GND #PWR?
U 1 1 60E6F8BC
P 1300 4950
AR Path="/6076EF3D/60E6F8BC" Ref="#PWR?"  Part="1" 
AR Path="/607970C6/6079911F/60E6F8BC" Ref="#PWR?"  Part="1" 
AR Path="/60809DB0/60E6F8BC" Ref="#PWR0206"  Part="1" 
F 0 "#PWR0206" H 1300 4700 50  0001 C CNN
F 1 "GND" H 1305 4777 50  0000 C CNN
F 2 "" H 1300 4950 50  0001 C CNN
F 3 "" H 1300 4950 50  0001 C CNN
	1    1300 4950
	1    0    0    -1  
$EndComp
Wire Wire Line
	2000 4850 2000 5150
$Comp
L power:+3V3 #PWR?
U 1 1 60E6F8C3
P 2000 3300
AR Path="/6076EF3D/60E6F8C3" Ref="#PWR?"  Part="1" 
AR Path="/607970C6/6079911F/60E6F8C3" Ref="#PWR?"  Part="1" 
AR Path="/60809DB0/60E6F8C3" Ref="#PWR0190"  Part="1" 
F 0 "#PWR0190" H 2000 3150 50  0001 C CNN
F 1 "+3V3" H 2015 3473 50  0000 C CNN
F 2 "" H 2000 3300 50  0001 C CNN
F 3 "" H 2000 3300 50  0001 C CNN
	1    2000 3300
	1    0    0    -1  
$EndComp
$Comp
L power:+3V3 #PWR?
U 1 1 60E6F8C9
P 900 3600
AR Path="/6076EF3D/60E6F8C9" Ref="#PWR?"  Part="1" 
AR Path="/607970C6/6079911F/60E6F8C9" Ref="#PWR?"  Part="1" 
AR Path="/60809DB0/60E6F8C9" Ref="#PWR0198"  Part="1" 
F 0 "#PWR0198" H 900 3450 50  0001 C CNN
F 1 "+3V3" H 915 3773 50  0000 C CNN
F 2 "" H 900 3600 50  0001 C CNN
F 3 "" H 900 3600 50  0001 C CNN
	1    900  3600
	1    0    0    -1  
$EndComp
Text HLabel 2850 3750 2    50   Output ~ 0
A0_3V3_g1
Text HLabel 2850 3850 2    50   Output ~ 0
A1_3V3_g1
Text HLabel 2850 3950 2    50   Output ~ 0
A2_3V3_g1
Text HLabel 2850 4050 2    50   Output ~ 0
A3_3V3_g1
Text HLabel 2850 4150 2    50   Output ~ 0
A4_3V3_g1
Wire Wire Line
	2700 3750 2850 3750
Wire Wire Line
	2600 3350 2600 3450
Wire Wire Line
	2450 3350 2600 3350
Wire Wire Line
	2000 3350 2000 3300
Connection ~ 2000 3350
Wire Wire Line
	2150 3350 2000 3350
$Comp
L power:GND #PWR?
U 1 1 60E6F8E0
P 2600 3450
AR Path="/6076EF3D/60E6F8E0" Ref="#PWR?"  Part="1" 
AR Path="/607970C6/6079911F/60E6F8E0" Ref="#PWR?"  Part="1" 
AR Path="/60809DB0/60E6F8E0" Ref="#PWR0194"  Part="1" 
F 0 "#PWR0194" H 2600 3200 50  0001 C CNN
F 1 "GND" H 2605 3277 50  0000 C CNN
F 2 "" H 2600 3450 50  0001 C CNN
F 3 "" H 2600 3450 50  0001 C CNN
	1    2600 3450
	1    0    0    -1  
$EndComp
$Comp
L Device:C C?
U 1 1 60E6F8E6
P 2300 3350
AR Path="/6076EF3D/60E6F8E6" Ref="C?"  Part="1" 
AR Path="/607970C6/6079911F/60E6F8E6" Ref="C?"  Part="1" 
AR Path="/60809DB0/60E6F8E6" Ref="C403"  Part="1" 
F 0 "C403" V 2250 3250 50  0000 C CNN
F 1 "0.1uF" V 2250 3500 50  0000 C CNN
F 2 "Capacitor_SMD:C_0805_2012Metric" H 2338 3200 50  0001 C CNN
F 3 "~" H 2300 3350 50  0001 C CNN
	1    2300 3350
	0    1    1    0   
$EndComp
NoConn ~ 1300 4050
Wire Wire Line
	900  4000 900  4150
Wire Wire Line
	900  3600 900  3700
$Comp
L Device:R R?
U 1 1 60E6F8EF
P 900 3850
AR Path="/6076EF3D/60E6F8EF" Ref="R?"  Part="1" 
AR Path="/607970C6/6079911F/60E6F8EF" Ref="R?"  Part="1" 
AR Path="/60809DB0/60E6F8EF" Ref="R791"  Part="1" 
F 0 "R791" V 1000 3800 50  0000 L CNN
F 1 "10k" V 900 3800 50  0000 L CNN
F 2 "Resistor_SMD:R_0805_2012Metric" V 830 3850 50  0001 C CNN
F 3 "~" H 900 3850 50  0001 C CNN
	1    900  3850
	1    0    0    -1  
$EndComp
Wire Wire Line
	2000 3450 2000 3350
$Comp
L power:GND #PWR?
U 1 1 60E6F8FB
P 2000 5150
AR Path="/6076EF3D/60E6F8FB" Ref="#PWR?"  Part="1" 
AR Path="/607970C6/6079911F/60E6F8FB" Ref="#PWR?"  Part="1" 
AR Path="/60809DB0/60E6F8FB" Ref="#PWR0209"  Part="1" 
F 0 "#PWR0209" H 2000 4900 50  0001 C CNN
F 1 "GND" H 2005 4977 50  0000 C CNN
F 2 "" H 2000 5150 50  0001 C CNN
F 3 "" H 2000 5150 50  0001 C CNN
	1    2000 5150
	1    0    0    -1  
$EndComp
Wire Wire Line
	900  4150 1300 4150
$Comp
L power:GND #PWR?
U 1 1 60E6F90A
P 3600 4950
AR Path="/6076EF3D/60E6F90A" Ref="#PWR?"  Part="1" 
AR Path="/607970C6/6079911F/60E6F90A" Ref="#PWR?"  Part="1" 
AR Path="/60809DB0/60E6F90A" Ref="#PWR0207"  Part="1" 
F 0 "#PWR0207" H 3600 4700 50  0001 C CNN
F 1 "GND" H 3605 4777 50  0000 C CNN
F 2 "" H 3600 4950 50  0001 C CNN
F 3 "" H 3600 4950 50  0001 C CNN
	1    3600 4950
	1    0    0    -1  
$EndComp
Wire Wire Line
	4500 4850 4500 5150
$Comp
L power:+3V3 #PWR?
U 1 1 60E6F911
P 4500 3300
AR Path="/6076EF3D/60E6F911" Ref="#PWR?"  Part="1" 
AR Path="/607970C6/6079911F/60E6F911" Ref="#PWR?"  Part="1" 
AR Path="/60809DB0/60E6F911" Ref="#PWR0191"  Part="1" 
F 0 "#PWR0191" H 4500 3150 50  0001 C CNN
F 1 "+3V3" H 4515 3473 50  0000 C CNN
F 2 "" H 4500 3300 50  0001 C CNN
F 3 "" H 4500 3300 50  0001 C CNN
	1    4500 3300
	1    0    0    -1  
$EndComp
$Comp
L power:+3V3 #PWR?
U 1 1 60E6F917
P 3400 3600
AR Path="/6076EF3D/60E6F917" Ref="#PWR?"  Part="1" 
AR Path="/607970C6/6079911F/60E6F917" Ref="#PWR?"  Part="1" 
AR Path="/60809DB0/60E6F917" Ref="#PWR0199"  Part="1" 
F 0 "#PWR0199" H 3400 3450 50  0001 C CNN
F 1 "+3V3" H 3415 3773 50  0000 C CNN
F 2 "" H 3400 3600 50  0001 C CNN
F 3 "" H 3400 3600 50  0001 C CNN
	1    3400 3600
	1    0    0    -1  
$EndComp
Text HLabel 5350 3750 2    50   Output ~ 0
A0_3V3_g2
Text HLabel 5350 3850 2    50   Output ~ 0
A1_3V3_g2
Text HLabel 5350 3950 2    50   Output ~ 0
A2_3V3_g2
Text HLabel 5350 4050 2    50   Output ~ 0
A3_3V3_g2
Text HLabel 5350 4150 2    50   Output ~ 0
A4_3V3_g2
Wire Wire Line
	5350 4150 5200 4150
Wire Wire Line
	5350 4050 5200 4050
Wire Wire Line
	5350 3950 5200 3950
Wire Wire Line
	5200 3850 5350 3850
Wire Wire Line
	5200 3750 5350 3750
Wire Wire Line
	5100 3350 5100 3450
Wire Wire Line
	4950 3350 5100 3350
Wire Wire Line
	4500 3350 4500 3300
Connection ~ 4500 3350
Wire Wire Line
	4650 3350 4500 3350
$Comp
L power:GND #PWR?
U 1 1 60E6F92E
P 5100 3450
AR Path="/6076EF3D/60E6F92E" Ref="#PWR?"  Part="1" 
AR Path="/607970C6/6079911F/60E6F92E" Ref="#PWR?"  Part="1" 
AR Path="/60809DB0/60E6F92E" Ref="#PWR0195"  Part="1" 
F 0 "#PWR0195" H 5100 3200 50  0001 C CNN
F 1 "GND" H 5105 3277 50  0000 C CNN
F 2 "" H 5100 3450 50  0001 C CNN
F 3 "" H 5100 3450 50  0001 C CNN
	1    5100 3450
	1    0    0    -1  
$EndComp
$Comp
L Device:C C?
U 1 1 60E6F934
P 4800 3350
AR Path="/6076EF3D/60E6F934" Ref="C?"  Part="1" 
AR Path="/607970C6/6079911F/60E6F934" Ref="C?"  Part="1" 
AR Path="/60809DB0/60E6F934" Ref="C404"  Part="1" 
F 0 "C404" V 4750 3250 50  0000 C CNN
F 1 "0.1uF" V 4750 3500 50  0000 C CNN
F 2 "Capacitor_SMD:C_0805_2012Metric" H 4838 3200 50  0001 C CNN
F 3 "~" H 4800 3350 50  0001 C CNN
	1    4800 3350
	0    1    1    0   
$EndComp
NoConn ~ 3800 4050
Wire Wire Line
	3400 4000 3400 4150
Wire Wire Line
	3400 3600 3400 3700
$Comp
L Device:R R?
U 1 1 60E6F93D
P 3400 3850
AR Path="/6076EF3D/60E6F93D" Ref="R?"  Part="1" 
AR Path="/607970C6/6079911F/60E6F93D" Ref="R?"  Part="1" 
AR Path="/60809DB0/60E6F93D" Ref="R792"  Part="1" 
F 0 "R792" V 3500 3800 50  0000 L CNN
F 1 "10k" V 3400 3800 50  0000 L CNN
F 2 "Resistor_SMD:R_0805_2012Metric" V 3330 3850 50  0001 C CNN
F 3 "~" H 3400 3850 50  0001 C CNN
	1    3400 3850
	1    0    0    -1  
$EndComp
Wire Wire Line
	4500 3450 4500 3350
$Comp
L power:GND #PWR?
U 1 1 60E6F949
P 4500 5150
AR Path="/6076EF3D/60E6F949" Ref="#PWR?"  Part="1" 
AR Path="/607970C6/6079911F/60E6F949" Ref="#PWR?"  Part="1" 
AR Path="/60809DB0/60E6F949" Ref="#PWR0210"  Part="1" 
F 0 "#PWR0210" H 4500 4900 50  0001 C CNN
F 1 "GND" H 4505 4977 50  0000 C CNN
F 2 "" H 4500 5150 50  0001 C CNN
F 3 "" H 4500 5150 50  0001 C CNN
	1    4500 5150
	1    0    0    -1  
$EndComp
$Comp
L linpol:MCP23008 U?
U 1 1 60E6F94F
P 4500 4550
AR Path="/6076EF3D/60E6F94F" Ref="U?"  Part="1" 
AR Path="/607970C6/6079911F/60E6F94F" Ref="U?"  Part="1" 
AR Path="/60809DB0/60E6F94F" Ref="U142"  Part="1" 
F 0 "U142" H 4100 4400 50  0000 C CNN
F 1 "MCP23008" H 4750 4400 50  0000 C CNN
F 2 "linpol:SSOP-20_5.3x7.2mm_P0.65mm" H 4600 4350 50  0001 L CNN
F 3 "" H 4700 3450 50  0001 L CNN
	1    4500 4550
	1    0    0    -1  
$EndComp
Wire Wire Line
	3400 4150 3800 4150
$Comp
L power:GND #PWR?
U 1 1 60E6F958
P 6300 4950
AR Path="/6076EF3D/60E6F958" Ref="#PWR?"  Part="1" 
AR Path="/607970C6/6079911F/60E6F958" Ref="#PWR?"  Part="1" 
AR Path="/60809DB0/60E6F958" Ref="#PWR0208"  Part="1" 
F 0 "#PWR0208" H 6300 4700 50  0001 C CNN
F 1 "GND" H 6305 4777 50  0000 C CNN
F 2 "" H 6300 4950 50  0001 C CNN
F 3 "" H 6300 4950 50  0001 C CNN
	1    6300 4950
	1    0    0    -1  
$EndComp
Wire Wire Line
	7000 4850 7000 5150
$Comp
L power:+3V3 #PWR?
U 1 1 60E6F95F
P 7000 3300
AR Path="/6076EF3D/60E6F95F" Ref="#PWR?"  Part="1" 
AR Path="/607970C6/6079911F/60E6F95F" Ref="#PWR?"  Part="1" 
AR Path="/60809DB0/60E6F95F" Ref="#PWR0192"  Part="1" 
F 0 "#PWR0192" H 7000 3150 50  0001 C CNN
F 1 "+3V3" H 7015 3473 50  0000 C CNN
F 2 "" H 7000 3300 50  0001 C CNN
F 3 "" H 7000 3300 50  0001 C CNN
	1    7000 3300
	1    0    0    -1  
$EndComp
$Comp
L power:+3V3 #PWR?
U 1 1 60E6F965
P 5900 3600
AR Path="/6076EF3D/60E6F965" Ref="#PWR?"  Part="1" 
AR Path="/607970C6/6079911F/60E6F965" Ref="#PWR?"  Part="1" 
AR Path="/60809DB0/60E6F965" Ref="#PWR0200"  Part="1" 
F 0 "#PWR0200" H 5900 3450 50  0001 C CNN
F 1 "+3V3" H 5915 3773 50  0000 C CNN
F 2 "" H 5900 3600 50  0001 C CNN
F 3 "" H 5900 3600 50  0001 C CNN
	1    5900 3600
	1    0    0    -1  
$EndComp
Text HLabel 7850 3750 2    50   Output ~ 0
A0_3V3_g3
Text HLabel 7850 3850 2    50   Output ~ 0
A1_3V3_g3
Text HLabel 7850 3950 2    50   Output ~ 0
A2_3V3_g3
Text HLabel 7850 4050 2    50   Output ~ 0
A3_3V3_g3
Text HLabel 7850 4150 2    50   Output ~ 0
A4_3V3_g3
Wire Wire Line
	7850 4150 7700 4150
Wire Wire Line
	7850 4050 7700 4050
Wire Wire Line
	7850 3950 7700 3950
Wire Wire Line
	7700 3850 7850 3850
Wire Wire Line
	7700 3750 7850 3750
Wire Wire Line
	7600 3350 7600 3450
Wire Wire Line
	7450 3350 7600 3350
Wire Wire Line
	7000 3350 7000 3300
Connection ~ 7000 3350
Wire Wire Line
	7150 3350 7000 3350
$Comp
L power:GND #PWR?
U 1 1 60E6F97C
P 7600 3450
AR Path="/6076EF3D/60E6F97C" Ref="#PWR?"  Part="1" 
AR Path="/607970C6/6079911F/60E6F97C" Ref="#PWR?"  Part="1" 
AR Path="/60809DB0/60E6F97C" Ref="#PWR0196"  Part="1" 
F 0 "#PWR0196" H 7600 3200 50  0001 C CNN
F 1 "GND" H 7605 3277 50  0000 C CNN
F 2 "" H 7600 3450 50  0001 C CNN
F 3 "" H 7600 3450 50  0001 C CNN
	1    7600 3450
	1    0    0    -1  
$EndComp
$Comp
L Device:C C?
U 1 1 60E6F982
P 7300 3350
AR Path="/6076EF3D/60E6F982" Ref="C?"  Part="1" 
AR Path="/607970C6/6079911F/60E6F982" Ref="C?"  Part="1" 
AR Path="/60809DB0/60E6F982" Ref="C405"  Part="1" 
F 0 "C405" V 7250 3250 50  0000 C CNN
F 1 "0.1uF" V 7250 3500 50  0000 C CNN
F 2 "Capacitor_SMD:C_0805_2012Metric" H 7338 3200 50  0001 C CNN
F 3 "~" H 7300 3350 50  0001 C CNN
	1    7300 3350
	0    1    1    0   
$EndComp
NoConn ~ 6300 4050
Wire Wire Line
	5900 4000 5900 4150
Wire Wire Line
	5900 3600 5900 3700
$Comp
L Device:R R?
U 1 1 60E6F98B
P 5900 3850
AR Path="/6076EF3D/60E6F98B" Ref="R?"  Part="1" 
AR Path="/607970C6/6079911F/60E6F98B" Ref="R?"  Part="1" 
AR Path="/60809DB0/60E6F98B" Ref="R793"  Part="1" 
F 0 "R793" V 6000 3800 50  0000 L CNN
F 1 "10k" V 5900 3800 50  0000 L CNN
F 2 "Resistor_SMD:R_0805_2012Metric" V 5830 3850 50  0001 C CNN
F 3 "~" H 5900 3850 50  0001 C CNN
	1    5900 3850
	1    0    0    -1  
$EndComp
Wire Wire Line
	7000 3450 7000 3350
Wire Wire Line
	6300 4550 6300 4950
Wire Wire Line
	6300 4350 6300 4450
$Comp
L power:GND #PWR?
U 1 1 60E6F997
P 7000 5150
AR Path="/6076EF3D/60E6F997" Ref="#PWR?"  Part="1" 
AR Path="/607970C6/6079911F/60E6F997" Ref="#PWR?"  Part="1" 
AR Path="/60809DB0/60E6F997" Ref="#PWR0211"  Part="1" 
F 0 "#PWR0211" H 7000 4900 50  0001 C CNN
F 1 "GND" H 7005 4977 50  0000 C CNN
F 2 "" H 7000 5150 50  0001 C CNN
F 3 "" H 7000 5150 50  0001 C CNN
	1    7000 5150
	1    0    0    -1  
$EndComp
$Comp
L linpol:MCP23008 U?
U 1 1 60E6F99D
P 7000 4550
AR Path="/6076EF3D/60E6F99D" Ref="U?"  Part="1" 
AR Path="/607970C6/6079911F/60E6F99D" Ref="U?"  Part="1" 
AR Path="/60809DB0/60E6F99D" Ref="U143"  Part="1" 
F 0 "U143" H 6600 4400 50  0000 C CNN
F 1 "MCP23008" H 7250 4400 50  0000 C CNN
F 2 "linpol:SSOP-20_5.3x7.2mm_P0.65mm" H 7100 4350 50  0001 L CNN
F 3 "" H 7200 3450 50  0001 L CNN
	1    7000 4550
	1    0    0    -1  
$EndComp
Wire Wire Line
	5900 4150 6300 4150
Wire Wire Line
	9500 4850 9500 5150
$Comp
L power:+3V3 #PWR?
U 1 1 60E6F9AD
P 9500 3300
AR Path="/6076EF3D/60E6F9AD" Ref="#PWR?"  Part="1" 
AR Path="/607970C6/6079911F/60E6F9AD" Ref="#PWR?"  Part="1" 
AR Path="/60809DB0/60E6F9AD" Ref="#PWR0193"  Part="1" 
F 0 "#PWR0193" H 9500 3150 50  0001 C CNN
F 1 "+3V3" H 9515 3473 50  0000 C CNN
F 2 "" H 9500 3300 50  0001 C CNN
F 3 "" H 9500 3300 50  0001 C CNN
	1    9500 3300
	1    0    0    -1  
$EndComp
$Comp
L power:+3V3 #PWR?
U 1 1 60E6F9B3
P 8400 3600
AR Path="/6076EF3D/60E6F9B3" Ref="#PWR?"  Part="1" 
AR Path="/607970C6/6079911F/60E6F9B3" Ref="#PWR?"  Part="1" 
AR Path="/60809DB0/60E6F9B3" Ref="#PWR0201"  Part="1" 
F 0 "#PWR0201" H 8400 3450 50  0001 C CNN
F 1 "+3V3" H 8415 3773 50  0000 C CNN
F 2 "" H 8400 3600 50  0001 C CNN
F 3 "" H 8400 3600 50  0001 C CNN
	1    8400 3600
	1    0    0    -1  
$EndComp
Text HLabel 10350 3750 2    50   Output ~ 0
A0_3V3_g4
Text HLabel 10350 3850 2    50   Output ~ 0
A1_3V3_g4
Text HLabel 10350 3950 2    50   Output ~ 0
A2_3V3_g4
Text HLabel 10350 4050 2    50   Output ~ 0
A3_3V3_g4
Text HLabel 10350 4150 2    50   Output ~ 0
A4_3V3_g4
Wire Wire Line
	10350 4150 10200 4150
Wire Wire Line
	10350 4050 10200 4050
Wire Wire Line
	10350 3950 10200 3950
Wire Wire Line
	10200 3850 10350 3850
Wire Wire Line
	10200 3750 10350 3750
Wire Wire Line
	10100 3350 10100 3450
Wire Wire Line
	9950 3350 10100 3350
Wire Wire Line
	9500 3350 9500 3300
Connection ~ 9500 3350
Wire Wire Line
	9650 3350 9500 3350
$Comp
L power:GND #PWR?
U 1 1 60E6F9CA
P 10100 3450
AR Path="/6076EF3D/60E6F9CA" Ref="#PWR?"  Part="1" 
AR Path="/607970C6/6079911F/60E6F9CA" Ref="#PWR?"  Part="1" 
AR Path="/60809DB0/60E6F9CA" Ref="#PWR0197"  Part="1" 
F 0 "#PWR0197" H 10100 3200 50  0001 C CNN
F 1 "GND" H 10105 3277 50  0000 C CNN
F 2 "" H 10100 3450 50  0001 C CNN
F 3 "" H 10100 3450 50  0001 C CNN
	1    10100 3450
	1    0    0    -1  
$EndComp
$Comp
L Device:C C?
U 1 1 60E6F9D0
P 9800 3350
AR Path="/6076EF3D/60E6F9D0" Ref="C?"  Part="1" 
AR Path="/607970C6/6079911F/60E6F9D0" Ref="C?"  Part="1" 
AR Path="/60809DB0/60E6F9D0" Ref="C406"  Part="1" 
F 0 "C406" V 9750 3250 50  0000 C CNN
F 1 "0.1uF" V 9750 3500 50  0000 C CNN
F 2 "Capacitor_SMD:C_0805_2012Metric" H 9838 3200 50  0001 C CNN
F 3 "~" H 9800 3350 50  0001 C CNN
	1    9800 3350
	0    1    1    0   
$EndComp
NoConn ~ 8800 4050
Wire Wire Line
	8400 4000 8400 4150
Wire Wire Line
	8400 3600 8400 3700
$Comp
L Device:R R?
U 1 1 60E6F9D9
P 8400 3850
AR Path="/6076EF3D/60E6F9D9" Ref="R?"  Part="1" 
AR Path="/607970C6/6079911F/60E6F9D9" Ref="R?"  Part="1" 
AR Path="/60809DB0/60E6F9D9" Ref="R794"  Part="1" 
F 0 "R794" V 8500 3800 50  0000 L CNN
F 1 "10k" V 8400 3800 50  0000 L CNN
F 2 "Resistor_SMD:R_0805_2012Metric" V 8330 3850 50  0001 C CNN
F 3 "~" H 8400 3850 50  0001 C CNN
	1    8400 3850
	1    0    0    -1  
$EndComp
Wire Wire Line
	9500 3450 9500 3350
Connection ~ 8800 4450
Wire Wire Line
	8800 4450 8800 4550
Wire Wire Line
	8800 4350 8800 4450
$Comp
L power:GND #PWR?
U 1 1 60E6F9E5
P 9500 5150
AR Path="/6076EF3D/60E6F9E5" Ref="#PWR?"  Part="1" 
AR Path="/607970C6/6079911F/60E6F9E5" Ref="#PWR?"  Part="1" 
AR Path="/60809DB0/60E6F9E5" Ref="#PWR0212"  Part="1" 
F 0 "#PWR0212" H 9500 4900 50  0001 C CNN
F 1 "GND" H 9505 4977 50  0000 C CNN
F 2 "" H 9500 5150 50  0001 C CNN
F 3 "" H 9500 5150 50  0001 C CNN
	1    9500 5150
	1    0    0    -1  
$EndComp
$Comp
L linpol:MCP23008 U?
U 1 1 60E6F9EB
P 9500 4550
AR Path="/6076EF3D/60E6F9EB" Ref="U?"  Part="1" 
AR Path="/607970C6/6079911F/60E6F9EB" Ref="U?"  Part="1" 
AR Path="/60809DB0/60E6F9EB" Ref="U144"  Part="1" 
F 0 "U144" H 9100 4400 50  0000 C CNN
F 1 "MCP23008" H 9750 4400 50  0000 C CNN
F 2 "linpol:SSOP-20_5.3x7.2mm_P0.65mm" H 9600 4350 50  0001 L CNN
F 3 "" H 9700 3450 50  0001 L CNN
	1    9500 4550
	1    0    0    -1  
$EndComp
Wire Wire Line
	8400 4150 8800 4150
$Comp
L Device:R R?
U 1 1 60E8F0FE
P 3500 2150
AR Path="/6076EF3D/60E8F0FE" Ref="R?"  Part="1" 
AR Path="/607970C6/6079911F/60E8F0FE" Ref="R?"  Part="1" 
AR Path="/60809DB0/60E8F0FE" Ref="R790"  Part="1" 
F 0 "R790" V 3600 2100 50  0000 L CNN
F 1 "10k" V 3500 2100 50  0000 L CNN
F 2 "Resistor_SMD:R_0805_2012Metric" V 3430 2150 50  0001 C CNN
F 3 "~" H 3500 2150 50  0001 C CNN
	1    3500 2150
	0    1    1    0   
$EndComp
Wire Wire Line
	3650 2150 3800 2150
Wire Wire Line
	3750 2550 3750 2000
Wire Wire Line
	3750 2000 3800 2000
Connection ~ 3800 2000
Wire Wire Line
	3800 2000 3800 2050
$Comp
L power:+3V3 #PWR?
U 1 1 60EB6536
P 3350 2050
AR Path="/6076EF3D/60EB6536" Ref="#PWR?"  Part="1" 
AR Path="/607970C6/6079911F/60EB6536" Ref="#PWR?"  Part="1" 
AR Path="/60809DB0/60EB6536" Ref="#PWR0181"  Part="1" 
F 0 "#PWR0181" H 3350 1900 50  0001 C CNN
F 1 "+3V3" H 3365 2223 50  0000 C CNN
F 2 "" H 3350 2050 50  0001 C CNN
F 3 "" H 3350 2050 50  0001 C CNN
	1    3350 2050
	1    0    0    -1  
$EndComp
Wire Wire Line
	3350 2150 3350 2050
Wire Wire Line
	6300 1950 6200 1950
Wire Wire Line
	6200 1950 6200 2150
Wire Wire Line
	6200 2150 6300 2150
Connection ~ 6300 2150
$Comp
L Device:R R?
U 1 1 60ED31B3
P 6000 2050
AR Path="/6076EF3D/60ED31B3" Ref="R?"  Part="1" 
AR Path="/607970C6/6079911F/60ED31B3" Ref="R?"  Part="1" 
AR Path="/60809DB0/60ED31B3" Ref="R788"  Part="1" 
F 0 "R788" V 6100 2000 50  0000 L CNN
F 1 "10k" V 6000 2000 50  0000 L CNN
F 2 "Resistor_SMD:R_0805_2012Metric" V 5930 2050 50  0001 C CNN
F 3 "~" H 6000 2050 50  0001 C CNN
	1    6000 2050
	0    1    1    0   
$EndComp
Wire Wire Line
	6150 2050 6300 2050
$Comp
L power:+3V3 #PWR?
U 1 1 60ED31BA
P 5850 1950
AR Path="/6076EF3D/60ED31BA" Ref="#PWR?"  Part="1" 
AR Path="/607970C6/6079911F/60ED31BA" Ref="#PWR?"  Part="1" 
AR Path="/60809DB0/60ED31BA" Ref="#PWR0179"  Part="1" 
F 0 "#PWR0179" H 5850 1800 50  0001 C CNN
F 1 "+3V3" H 5865 2123 50  0000 C CNN
F 2 "" H 5850 1950 50  0001 C CNN
F 3 "" H 5850 1950 50  0001 C CNN
	1    5850 1950
	1    0    0    -1  
$EndComp
Wire Wire Line
	5850 2050 5850 1950
Wire Wire Line
	8650 2550 8650 1950
Wire Wire Line
	8650 1950 8800 1950
$Comp
L Device:R R?
U 1 1 60EF41E2
P 8450 2100
AR Path="/6076EF3D/60EF41E2" Ref="R?"  Part="1" 
AR Path="/607970C6/6079911F/60EF41E2" Ref="R?"  Part="1" 
AR Path="/60809DB0/60EF41E2" Ref="R789"  Part="1" 
F 0 "R789" V 8550 2050 50  0000 L CNN
F 1 "10k" V 8450 2050 50  0000 L CNN
F 2 "Resistor_SMD:R_0805_2012Metric" V 8380 2100 50  0001 C CNN
F 3 "~" H 8450 2100 50  0001 C CNN
	1    8450 2100
	0    1    1    0   
$EndComp
$Comp
L power:+3V3 #PWR?
U 1 1 60EF41E9
P 8300 2000
AR Path="/6076EF3D/60EF41E9" Ref="#PWR?"  Part="1" 
AR Path="/607970C6/6079911F/60EF41E9" Ref="#PWR?"  Part="1" 
AR Path="/60809DB0/60EF41E9" Ref="#PWR0180"  Part="1" 
F 0 "#PWR0180" H 8300 1850 50  0001 C CNN
F 1 "+3V3" H 8315 2173 50  0000 C CNN
F 2 "" H 8300 2000 50  0001 C CNN
F 3 "" H 8300 2000 50  0001 C CNN
	1    8300 2000
	1    0    0    -1  
$EndComp
Wire Wire Line
	8300 2100 8300 2000
Wire Wire Line
	8600 2100 8800 2100
Connection ~ 8800 2100
Wire Wire Line
	8800 2100 8800 2150
$Comp
L Device:R R?
U 1 1 60F040C6
P 1000 4350
AR Path="/6076EF3D/60F040C6" Ref="R?"  Part="1" 
AR Path="/607970C6/6079911F/60F040C6" Ref="R?"  Part="1" 
AR Path="/60809DB0/60F040C6" Ref="R795"  Part="1" 
F 0 "R795" V 1100 4300 50  0000 L CNN
F 1 "10k" V 1000 4300 50  0000 L CNN
F 2 "Resistor_SMD:R_0805_2012Metric" V 930 4350 50  0001 C CNN
F 3 "~" H 1000 4350 50  0001 C CNN
	1    1000 4350
	0    1    1    0   
$EndComp
Wire Wire Line
	1150 4350 1300 4350
$Comp
L power:+3V3 #PWR?
U 1 1 60F040CD
P 850 4250
AR Path="/6076EF3D/60F040CD" Ref="#PWR?"  Part="1" 
AR Path="/607970C6/6079911F/60F040CD" Ref="#PWR?"  Part="1" 
AR Path="/60809DB0/60F040CD" Ref="#PWR0202"  Part="1" 
F 0 "#PWR0202" H 850 4100 50  0001 C CNN
F 1 "+3V3" H 865 4423 50  0000 C CNN
F 2 "" H 850 4250 50  0001 C CNN
F 3 "" H 850 4250 50  0001 C CNN
	1    850  4250
	1    0    0    -1  
$EndComp
Wire Wire Line
	850  4350 850  4250
Wire Wire Line
	3600 4450 3800 4450
Wire Wire Line
	3600 4450 3600 4950
$Comp
L Device:R R?
U 1 1 60F389CC
P 3400 4550
AR Path="/6076EF3D/60F389CC" Ref="R?"  Part="1" 
AR Path="/607970C6/6079911F/60F389CC" Ref="R?"  Part="1" 
AR Path="/60809DB0/60F389CC" Ref="R798"  Part="1" 
F 0 "R798" V 3500 4500 50  0000 L CNN
F 1 "10k" V 3400 4500 50  0000 L CNN
F 2 "Resistor_SMD:R_0805_2012Metric" V 3330 4550 50  0001 C CNN
F 3 "~" H 3400 4550 50  0001 C CNN
	1    3400 4550
	0    1    1    0   
$EndComp
$Comp
L power:+3V3 #PWR?
U 1 1 60F389D3
P 3250 4450
AR Path="/6076EF3D/60F389D3" Ref="#PWR?"  Part="1" 
AR Path="/607970C6/6079911F/60F389D3" Ref="#PWR?"  Part="1" 
AR Path="/60809DB0/60F389D3" Ref="#PWR0205"  Part="1" 
F 0 "#PWR0205" H 3250 4300 50  0001 C CNN
F 1 "+3V3" H 3265 4623 50  0000 C CNN
F 2 "" H 3250 4450 50  0001 C CNN
F 3 "" H 3250 4450 50  0001 C CNN
	1    3250 4450
	1    0    0    -1  
$EndComp
Wire Wire Line
	3250 4550 3250 4450
Wire Wire Line
	3800 4350 3800 4550
Wire Wire Line
	3550 4550 3800 4550
Connection ~ 3800 4550
$Comp
L Device:R R?
U 1 1 60F6706B
P 6000 4450
AR Path="/6076EF3D/60F6706B" Ref="R?"  Part="1" 
AR Path="/607970C6/6079911F/60F6706B" Ref="R?"  Part="1" 
AR Path="/60809DB0/60F6706B" Ref="R796"  Part="1" 
F 0 "R796" V 6100 4400 50  0000 L CNN
F 1 "10k" V 6000 4400 50  0000 L CNN
F 2 "Resistor_SMD:R_0805_2012Metric" V 5930 4450 50  0001 C CNN
F 3 "~" H 6000 4450 50  0001 C CNN
	1    6000 4450
	0    1    1    0   
$EndComp
Wire Wire Line
	6150 4450 6300 4450
$Comp
L power:+3V3 #PWR?
U 1 1 60F67072
P 5850 4350
AR Path="/6076EF3D/60F67072" Ref="#PWR?"  Part="1" 
AR Path="/607970C6/6079911F/60F67072" Ref="#PWR?"  Part="1" 
AR Path="/60809DB0/60F67072" Ref="#PWR0203"  Part="1" 
F 0 "#PWR0203" H 5850 4200 50  0001 C CNN
F 1 "+3V3" H 5865 4523 50  0000 C CNN
F 2 "" H 5850 4350 50  0001 C CNN
F 3 "" H 5850 4350 50  0001 C CNN
	1    5850 4350
	1    0    0    -1  
$EndComp
Wire Wire Line
	5850 4450 5850 4350
$Comp
L Device:R R?
U 1 1 60F78113
P 8500 4450
AR Path="/6076EF3D/60F78113" Ref="R?"  Part="1" 
AR Path="/607970C6/6079911F/60F78113" Ref="R?"  Part="1" 
AR Path="/60809DB0/60F78113" Ref="R797"  Part="1" 
F 0 "R797" V 8600 4400 50  0000 L CNN
F 1 "10k" V 8500 4400 50  0000 L CNN
F 2 "Resistor_SMD:R_0805_2012Metric" V 8430 4450 50  0001 C CNN
F 3 "~" H 8500 4450 50  0001 C CNN
	1    8500 4450
	0    1    1    0   
$EndComp
Wire Wire Line
	8650 4450 8800 4450
$Comp
L power:+3V3 #PWR?
U 1 1 60F7811A
P 8350 4350
AR Path="/6076EF3D/60F7811A" Ref="#PWR?"  Part="1" 
AR Path="/607970C6/6079911F/60F7811A" Ref="#PWR?"  Part="1" 
AR Path="/60809DB0/60F7811A" Ref="#PWR0204"  Part="1" 
F 0 "#PWR0204" H 8350 4200 50  0001 C CNN
F 1 "+3V3" H 8365 4523 50  0000 C CNN
F 2 "" H 8350 4350 50  0001 C CNN
F 3 "" H 8350 4350 50  0001 C CNN
	1    8350 4350
	1    0    0    -1  
$EndComp
Wire Wire Line
	8350 4450 8350 4350
Text HLabel 1250 1350 0    50   BiDi ~ 0
SDA
Text HLabel 1250 1450 0    50   Input ~ 0
SCK
Wire Wire Line
	1300 1350 1250 1350
Wire Wire Line
	1300 1450 1250 1450
Text HLabel 3750 1350 0    50   BiDi ~ 0
SDA
Text HLabel 3750 1450 0    50   Input ~ 0
SCK
Wire Wire Line
	3800 1350 3750 1350
Wire Wire Line
	3800 1450 3750 1450
Text HLabel 6250 1350 0    50   BiDi ~ 0
SDA
Text HLabel 6250 1450 0    50   Input ~ 0
SCK
Wire Wire Line
	6300 1350 6250 1350
Wire Wire Line
	6300 1450 6250 1450
Text HLabel 8750 1350 0    50   BiDi ~ 0
SDA
Text HLabel 8750 1450 0    50   Input ~ 0
SCK
Wire Wire Line
	8800 1350 8750 1350
Wire Wire Line
	8800 1450 8750 1450
Text HLabel 1250 3750 0    50   BiDi ~ 0
SDA
Text HLabel 1250 3850 0    50   Input ~ 0
SCK
Wire Wire Line
	1300 3750 1250 3750
Wire Wire Line
	1300 3850 1250 3850
Text HLabel 3750 3750 0    50   BiDi ~ 0
SDA
Text HLabel 3750 3850 0    50   Input ~ 0
SCK
Wire Wire Line
	3800 3750 3750 3750
Wire Wire Line
	3800 3850 3750 3850
Text HLabel 6250 3750 0    50   BiDi ~ 0
SDA
Text HLabel 6250 3850 0    50   Input ~ 0
SCK
Wire Wire Line
	6300 3750 6250 3750
Wire Wire Line
	6300 3850 6250 3850
Text HLabel 8750 3750 0    50   BiDi ~ 0
SDA
Text HLabel 8750 3850 0    50   Input ~ 0
SCK
Wire Wire Line
	8800 3750 8750 3750
Wire Wire Line
	8800 3850 8750 3850
NoConn ~ 2700 1850
NoConn ~ 2700 1950
NoConn ~ 5200 1850
NoConn ~ 5200 1950
NoConn ~ 7700 1850
NoConn ~ 7700 1950
NoConn ~ 10200 1850
NoConn ~ 10200 1950
NoConn ~ 2700 4250
NoConn ~ 2700 4350
NoConn ~ 5200 4250
NoConn ~ 5200 4350
NoConn ~ 7700 4250
NoConn ~ 10200 4250
Text HLabel 4800 7050 0    50   Output ~ 0
LREGEN[1..10]
Wire Wire Line
	2700 2050 2750 2050
$Comp
L Device:R R814
U 1 1 6096C28C
P 2750 2350
F 0 "R814" V 2850 2300 50  0000 L CNN
F 1 "10k" V 2750 2250 50  0000 L CNN
F 2 "Resistor_SMD:R_0805_2012Metric" V 2680 2350 50  0001 C CNN
F 3 "~" H 2750 2350 50  0001 C CNN
	1    2750 2350
	1    0    0    -1  
$EndComp
$Comp
L Device:R R815
U 1 1 6097257F
P 2750 2750
F 0 "R815" V 2850 2700 50  0000 L CNN
F 1 "133k" V 2750 2650 50  0000 L CNN
F 2 "Resistor_SMD:R_0805_2012Metric" V 2680 2750 50  0001 C CNN
F 3 "~" H 2750 2750 50  0001 C CNN
	1    2750 2750
	1    0    0    -1  
$EndComp
Wire Wire Line
	2750 2200 2750 2050
$Comp
L power:GND #PWR?
U 1 1 60982D0C
P 2750 3050
AR Path="/6076EF3D/60982D0C" Ref="#PWR?"  Part="1" 
AR Path="/607970C6/6079911F/60982D0C" Ref="#PWR?"  Part="1" 
AR Path="/60809DB0/60982D0C" Ref="#PWR0250"  Part="1" 
F 0 "#PWR0250" H 2750 2800 50  0001 C CNN
F 1 "GND" H 2755 2877 50  0000 C CNN
F 2 "" H 2750 3050 50  0001 C CNN
F 3 "" H 2750 3050 50  0001 C CNN
	1    2750 3050
	1    0    0    -1  
$EndComp
Wire Wire Line
	2750 3050 2750 2900
Wire Wire Line
	2750 2500 2750 2550
Text Label 2950 2550 0    50   ~ 0
LREGEN1
Wire Wire Line
	2950 2550 2750 2550
Connection ~ 2750 2550
Wire Wire Line
	2750 2550 2750 2600
Wire Wire Line
	1300 4450 1300 4550
Wire Wire Line
	1300 4550 1300 4950
Connection ~ 1300 4550
Wire Wire Line
	2850 4150 2700 4150
Wire Wire Line
	2850 4050 2700 4050
Wire Wire Line
	2850 3950 2700 3950
Wire Wire Line
	2700 3850 2850 3850
$Comp
L linpol:MCP23008 U?
U 1 1 60E6F901
P 2000 4550
AR Path="/6076EF3D/60E6F901" Ref="U?"  Part="1" 
AR Path="/607970C6/6079911F/60E6F901" Ref="U?"  Part="1" 
AR Path="/60809DB0/60E6F901" Ref="U141"  Part="1" 
F 0 "U141" H 1600 4400 50  0000 C CNN
F 1 "MCP23008" H 2250 4400 50  0000 C CNN
F 2 "linpol:SSOP-20_5.3x7.2mm_P0.65mm" H 2100 4350 50  0001 L CNN
F 3 "" H 2200 3450 50  0001 L CNN
	1    2000 4550
	1    0    0    -1  
$EndComp
$Comp
L Device:R R816
U 1 1 60B0DAA0
P 5200 2350
F 0 "R816" V 5300 2300 50  0000 L CNN
F 1 "10k" V 5200 2250 50  0000 L CNN
F 2 "Resistor_SMD:R_0805_2012Metric" V 5130 2350 50  0001 C CNN
F 3 "~" H 5200 2350 50  0001 C CNN
	1    5200 2350
	1    0    0    -1  
$EndComp
$Comp
L Device:R R819
U 1 1 60B0DAA6
P 5200 2750
F 0 "R819" V 5300 2700 50  0000 L CNN
F 1 "133k" V 5200 2650 50  0000 L CNN
F 2 "Resistor_SMD:R_0805_2012Metric" V 5130 2750 50  0001 C CNN
F 3 "~" H 5200 2750 50  0001 C CNN
	1    5200 2750
	1    0    0    -1  
$EndComp
Wire Wire Line
	5200 2200 5200 2050
$Comp
L power:GND #PWR?
U 1 1 60B0DAAD
P 5200 3050
AR Path="/6076EF3D/60B0DAAD" Ref="#PWR?"  Part="1" 
AR Path="/607970C6/6079911F/60B0DAAD" Ref="#PWR?"  Part="1" 
AR Path="/60809DB0/60B0DAAD" Ref="#PWR0251"  Part="1" 
F 0 "#PWR0251" H 5200 2800 50  0001 C CNN
F 1 "GND" H 5205 2877 50  0000 C CNN
F 2 "" H 5200 3050 50  0001 C CNN
F 3 "" H 5200 3050 50  0001 C CNN
	1    5200 3050
	1    0    0    -1  
$EndComp
Wire Wire Line
	5200 3050 5200 2900
Wire Wire Line
	5200 2500 5200 2550
Text Label 5400 2550 0    50   ~ 0
LREGEN2
Wire Wire Line
	5400 2550 5200 2550
Connection ~ 5200 2550
Wire Wire Line
	5200 2550 5200 2600
$Comp
L Device:R R817
U 1 1 60B18E1D
P 7700 2350
F 0 "R817" V 7800 2300 50  0000 L CNN
F 1 "10k" V 7700 2250 50  0000 L CNN
F 2 "Resistor_SMD:R_0805_2012Metric" V 7630 2350 50  0001 C CNN
F 3 "~" H 7700 2350 50  0001 C CNN
	1    7700 2350
	1    0    0    -1  
$EndComp
$Comp
L Device:R R820
U 1 1 60B18E23
P 7700 2750
F 0 "R820" V 7800 2700 50  0000 L CNN
F 1 "133k" V 7700 2650 50  0000 L CNN
F 2 "Resistor_SMD:R_0805_2012Metric" V 7630 2750 50  0001 C CNN
F 3 "~" H 7700 2750 50  0001 C CNN
	1    7700 2750
	1    0    0    -1  
$EndComp
Wire Wire Line
	7700 2200 7700 2050
$Comp
L power:GND #PWR?
U 1 1 60B18E2A
P 7700 3050
AR Path="/6076EF3D/60B18E2A" Ref="#PWR?"  Part="1" 
AR Path="/607970C6/6079911F/60B18E2A" Ref="#PWR?"  Part="1" 
AR Path="/60809DB0/60B18E2A" Ref="#PWR0252"  Part="1" 
F 0 "#PWR0252" H 7700 2800 50  0001 C CNN
F 1 "GND" H 7705 2877 50  0000 C CNN
F 2 "" H 7700 3050 50  0001 C CNN
F 3 "" H 7700 3050 50  0001 C CNN
	1    7700 3050
	1    0    0    -1  
$EndComp
Wire Wire Line
	7700 3050 7700 2900
Wire Wire Line
	7700 2500 7700 2550
Text Label 7900 2550 0    50   ~ 0
LREGEN3
Wire Wire Line
	7900 2550 7700 2550
Connection ~ 7700 2550
Wire Wire Line
	7700 2550 7700 2600
$Comp
L Device:R R818
U 1 1 60B232D5
P 10200 2350
F 0 "R818" V 10300 2300 50  0000 L CNN
F 1 "10k" V 10200 2250 50  0000 L CNN
F 2 "Resistor_SMD:R_0805_2012Metric" V 10130 2350 50  0001 C CNN
F 3 "~" H 10200 2350 50  0001 C CNN
	1    10200 2350
	1    0    0    -1  
$EndComp
$Comp
L Device:R R821
U 1 1 60B232DB
P 10200 2750
F 0 "R821" V 10300 2700 50  0000 L CNN
F 1 "133k" V 10200 2650 50  0000 L CNN
F 2 "Resistor_SMD:R_0805_2012Metric" V 10130 2750 50  0001 C CNN
F 3 "~" H 10200 2750 50  0001 C CNN
	1    10200 2750
	1    0    0    -1  
$EndComp
Wire Wire Line
	10200 2200 10200 2050
$Comp
L power:GND #PWR?
U 1 1 60B232E2
P 10200 3050
AR Path="/6076EF3D/60B232E2" Ref="#PWR?"  Part="1" 
AR Path="/607970C6/6079911F/60B232E2" Ref="#PWR?"  Part="1" 
AR Path="/60809DB0/60B232E2" Ref="#PWR0253"  Part="1" 
F 0 "#PWR0253" H 10200 2800 50  0001 C CNN
F 1 "GND" H 10205 2877 50  0000 C CNN
F 2 "" H 10200 3050 50  0001 C CNN
F 3 "" H 10200 3050 50  0001 C CNN
	1    10200 3050
	1    0    0    -1  
$EndComp
Wire Wire Line
	10200 3050 10200 2900
Wire Wire Line
	10200 2500 10200 2550
Text Label 10400 2550 0    50   ~ 0
LREGEN4
Wire Wire Line
	10400 2550 10200 2550
Connection ~ 10200 2550
Wire Wire Line
	10200 2550 10200 2600
$Comp
L Device:R R822
U 1 1 60B30886
P 2700 4750
F 0 "R822" V 2800 4700 50  0000 L CNN
F 1 "10k" V 2700 4650 50  0000 L CNN
F 2 "Resistor_SMD:R_0805_2012Metric" V 2630 4750 50  0001 C CNN
F 3 "~" H 2700 4750 50  0001 C CNN
	1    2700 4750
	1    0    0    -1  
$EndComp
$Comp
L Device:R R828
U 1 1 60B3088C
P 2700 5150
F 0 "R828" V 2800 5100 50  0000 L CNN
F 1 "133k" V 2700 5050 50  0000 L CNN
F 2 "Resistor_SMD:R_0805_2012Metric" V 2630 5150 50  0001 C CNN
F 3 "~" H 2700 5150 50  0001 C CNN
	1    2700 5150
	1    0    0    -1  
$EndComp
Wire Wire Line
	2700 4600 2700 4450
$Comp
L power:GND #PWR?
U 1 1 60B30893
P 2700 5450
AR Path="/6076EF3D/60B30893" Ref="#PWR?"  Part="1" 
AR Path="/607970C6/6079911F/60B30893" Ref="#PWR?"  Part="1" 
AR Path="/60809DB0/60B30893" Ref="#PWR0254"  Part="1" 
F 0 "#PWR0254" H 2700 5200 50  0001 C CNN
F 1 "GND" H 2705 5277 50  0000 C CNN
F 2 "" H 2700 5450 50  0001 C CNN
F 3 "" H 2700 5450 50  0001 C CNN
	1    2700 5450
	1    0    0    -1  
$EndComp
Wire Wire Line
	2700 5450 2700 5300
Wire Wire Line
	2700 4900 2700 4950
Text Label 2900 4950 0    50   ~ 0
LREGEN5
Wire Wire Line
	2900 4950 2700 4950
Connection ~ 2700 4950
Wire Wire Line
	2700 4950 2700 5000
$Comp
L Device:R R823
U 1 1 60B3E925
P 5200 4750
F 0 "R823" V 5300 4700 50  0000 L CNN
F 1 "10k" V 5200 4650 50  0000 L CNN
F 2 "Resistor_SMD:R_0805_2012Metric" V 5130 4750 50  0001 C CNN
F 3 "~" H 5200 4750 50  0001 C CNN
	1    5200 4750
	1    0    0    -1  
$EndComp
$Comp
L Device:R R829
U 1 1 60B3E92B
P 5200 5150
F 0 "R829" V 5300 5100 50  0000 L CNN
F 1 "133k" V 5200 5050 50  0000 L CNN
F 2 "Resistor_SMD:R_0805_2012Metric" V 5130 5150 50  0001 C CNN
F 3 "~" H 5200 5150 50  0001 C CNN
	1    5200 5150
	1    0    0    -1  
$EndComp
Wire Wire Line
	5200 4600 5200 4450
$Comp
L power:GND #PWR?
U 1 1 60B3E932
P 5200 5450
AR Path="/6076EF3D/60B3E932" Ref="#PWR?"  Part="1" 
AR Path="/607970C6/6079911F/60B3E932" Ref="#PWR?"  Part="1" 
AR Path="/60809DB0/60B3E932" Ref="#PWR0255"  Part="1" 
F 0 "#PWR0255" H 5200 5200 50  0001 C CNN
F 1 "GND" H 5205 5277 50  0000 C CNN
F 2 "" H 5200 5450 50  0001 C CNN
F 3 "" H 5200 5450 50  0001 C CNN
	1    5200 5450
	1    0    0    -1  
$EndComp
Wire Wire Line
	5200 5450 5200 5300
Wire Wire Line
	5200 4900 5200 4950
Text Label 5400 4950 0    50   ~ 0
LREGEN6
Wire Wire Line
	5400 4950 5200 4950
Connection ~ 5200 4950
Wire Wire Line
	5200 4950 5200 5000
$Comp
L Device:R R824
U 1 1 60B4BE8B
P 7700 4750
F 0 "R824" V 7800 4700 50  0000 L CNN
F 1 "10k" V 7700 4650 50  0000 L CNN
F 2 "Resistor_SMD:R_0805_2012Metric" V 7630 4750 50  0001 C CNN
F 3 "~" H 7700 4750 50  0001 C CNN
	1    7700 4750
	1    0    0    -1  
$EndComp
$Comp
L Device:R R830
U 1 1 60B4BE91
P 7700 5150
F 0 "R830" V 7800 5100 50  0000 L CNN
F 1 "133k" V 7700 5050 50  0000 L CNN
F 2 "Resistor_SMD:R_0805_2012Metric" V 7630 5150 50  0001 C CNN
F 3 "~" H 7700 5150 50  0001 C CNN
	1    7700 5150
	1    0    0    -1  
$EndComp
Wire Wire Line
	7700 4600 7700 4450
$Comp
L power:GND #PWR?
U 1 1 60B4BE98
P 7700 5450
AR Path="/6076EF3D/60B4BE98" Ref="#PWR?"  Part="1" 
AR Path="/607970C6/6079911F/60B4BE98" Ref="#PWR?"  Part="1" 
AR Path="/60809DB0/60B4BE98" Ref="#PWR0256"  Part="1" 
F 0 "#PWR0256" H 7700 5200 50  0001 C CNN
F 1 "GND" H 7705 5277 50  0000 C CNN
F 2 "" H 7700 5450 50  0001 C CNN
F 3 "" H 7700 5450 50  0001 C CNN
	1    7700 5450
	1    0    0    -1  
$EndComp
Wire Wire Line
	7700 5450 7700 5300
Text Label 7550 4950 2    50   ~ 0
LREGEN7
$Comp
L Device:R R826
U 1 1 60B58BBD
P 10200 4750
F 0 "R826" V 10300 4700 50  0000 L CNN
F 1 "10k" V 10200 4650 50  0000 L CNN
F 2 "Resistor_SMD:R_0805_2012Metric" V 10130 4750 50  0001 C CNN
F 3 "~" H 10200 4750 50  0001 C CNN
	1    10200 4750
	1    0    0    -1  
$EndComp
$Comp
L Device:R R832
U 1 1 60B58BC3
P 10200 5150
F 0 "R832" V 10300 5100 50  0000 L CNN
F 1 "133k" V 10200 5050 50  0000 L CNN
F 2 "Resistor_SMD:R_0805_2012Metric" V 10130 5150 50  0001 C CNN
F 3 "~" H 10200 5150 50  0001 C CNN
	1    10200 5150
	1    0    0    -1  
$EndComp
Wire Wire Line
	10200 4600 10200 4450
$Comp
L power:GND #PWR?
U 1 1 60B58BCA
P 10200 5450
AR Path="/6076EF3D/60B58BCA" Ref="#PWR?"  Part="1" 
AR Path="/607970C6/6079911F/60B58BCA" Ref="#PWR?"  Part="1" 
AR Path="/60809DB0/60B58BCA" Ref="#PWR0258"  Part="1" 
F 0 "#PWR0258" H 10200 5200 50  0001 C CNN
F 1 "GND" H 10205 5277 50  0000 C CNN
F 2 "" H 10200 5450 50  0001 C CNN
F 3 "" H 10200 5450 50  0001 C CNN
	1    10200 5450
	1    0    0    -1  
$EndComp
Wire Wire Line
	10200 5450 10200 5300
Text Label 10050 4950 2    50   ~ 0
LREGEN9
$Comp
L Device:R R825
U 1 1 60B7107A
P 7950 4750
F 0 "R825" V 8050 4700 50  0000 L CNN
F 1 "10k" V 7950 4650 50  0000 L CNN
F 2 "Resistor_SMD:R_0805_2012Metric" V 7880 4750 50  0001 C CNN
F 3 "~" H 7950 4750 50  0001 C CNN
	1    7950 4750
	1    0    0    -1  
$EndComp
$Comp
L Device:R R831
U 1 1 60B71080
P 7950 5150
F 0 "R831" V 8050 5100 50  0000 L CNN
F 1 "133k" V 7950 5050 50  0000 L CNN
F 2 "Resistor_SMD:R_0805_2012Metric" V 7880 5150 50  0001 C CNN
F 3 "~" H 7950 5150 50  0001 C CNN
	1    7950 5150
	1    0    0    -1  
$EndComp
$Comp
L power:GND #PWR?
U 1 1 60B71087
P 7950 5450
AR Path="/6076EF3D/60B71087" Ref="#PWR?"  Part="1" 
AR Path="/607970C6/6079911F/60B71087" Ref="#PWR?"  Part="1" 
AR Path="/60809DB0/60B71087" Ref="#PWR0257"  Part="1" 
F 0 "#PWR0257" H 7950 5200 50  0001 C CNN
F 1 "GND" H 7955 5277 50  0000 C CNN
F 2 "" H 7950 5450 50  0001 C CNN
F 3 "" H 7950 5450 50  0001 C CNN
	1    7950 5450
	1    0    0    -1  
$EndComp
Wire Wire Line
	7950 5450 7950 5300
Wire Wire Line
	7950 4900 7950 4950
Text Label 8150 4950 0    50   ~ 0
LREGEN8
Wire Wire Line
	8150 4950 7950 4950
Connection ~ 7950 4950
Wire Wire Line
	7950 4950 7950 5000
Wire Wire Line
	7700 4900 7700 4950
Wire Wire Line
	7550 4950 7700 4950
Connection ~ 7700 4950
Wire Wire Line
	7700 4950 7700 5000
Wire Wire Line
	7700 4350 7950 4350
Wire Wire Line
	7950 4350 7950 4600
Wire Wire Line
	10200 4900 10200 4950
Wire Wire Line
	10050 4950 10200 4950
Connection ~ 10200 4950
Wire Wire Line
	10200 4950 10200 5000
$Comp
L Device:R R827
U 1 1 60BD18EF
P 10450 4750
F 0 "R827" V 10550 4700 50  0000 L CNN
F 1 "10k" V 10450 4650 50  0000 L CNN
F 2 "Resistor_SMD:R_0805_2012Metric" V 10380 4750 50  0001 C CNN
F 3 "~" H 10450 4750 50  0001 C CNN
	1    10450 4750
	1    0    0    -1  
$EndComp
$Comp
L Device:R R833
U 1 1 60BD18F5
P 10450 5150
F 0 "R833" V 10550 5100 50  0000 L CNN
F 1 "133k" V 10450 5050 50  0000 L CNN
F 2 "Resistor_SMD:R_0805_2012Metric" V 10380 5150 50  0001 C CNN
F 3 "~" H 10450 5150 50  0001 C CNN
	1    10450 5150
	1    0    0    -1  
$EndComp
$Comp
L power:GND #PWR?
U 1 1 60BD18FC
P 10450 5450
AR Path="/6076EF3D/60BD18FC" Ref="#PWR?"  Part="1" 
AR Path="/607970C6/6079911F/60BD18FC" Ref="#PWR?"  Part="1" 
AR Path="/60809DB0/60BD18FC" Ref="#PWR0259"  Part="1" 
F 0 "#PWR0259" H 10450 5200 50  0001 C CNN
F 1 "GND" H 10455 5277 50  0000 C CNN
F 2 "" H 10450 5450 50  0001 C CNN
F 3 "" H 10450 5450 50  0001 C CNN
	1    10450 5450
	1    0    0    -1  
$EndComp
Wire Wire Line
	10450 5450 10450 5300
Wire Wire Line
	10450 4900 10450 4950
Text Label 10650 4950 0    50   ~ 0
LREGEN10
Wire Wire Line
	10650 4950 10450 4950
Connection ~ 10450 4950
Wire Wire Line
	10450 4950 10450 5000
Wire Wire Line
	10450 4350 10200 4350
Wire Wire Line
	10450 4350 10450 4600
Entry Wire Line
	4800 5950 4900 6050
Entry Wire Line
	4800 6050 4900 6150
Entry Wire Line
	4800 6150 4900 6250
Entry Wire Line
	4800 6250 4900 6350
Entry Wire Line
	4800 6350 4900 6450
Entry Wire Line
	4800 6450 4900 6550
Entry Wire Line
	4800 6550 4900 6650
Entry Wire Line
	4800 6650 4900 6750
Entry Wire Line
	4800 6750 4900 6850
Entry Wire Line
	4800 6850 4900 6950
Wire Bus Line
	4800 7050 4900 7050
Text Label 4700 5950 2    50   ~ 0
LREGEN1
Wire Wire Line
	4700 5950 4800 5950
Text Label 4700 6050 2    50   ~ 0
LREGEN2
Wire Wire Line
	4700 6050 4800 6050
Text Label 4700 6150 2    50   ~ 0
LREGEN3
Wire Wire Line
	4700 6150 4800 6150
Text Label 4700 6250 2    50   ~ 0
LREGEN4
Wire Wire Line
	4700 6250 4800 6250
Text Label 4700 6350 2    50   ~ 0
LREGEN5
Wire Wire Line
	4700 6350 4800 6350
Text Label 4700 6450 2    50   ~ 0
LREGEN6
Wire Wire Line
	4700 6450 4800 6450
Text Label 4700 6550 2    50   ~ 0
LREGEN7
Wire Wire Line
	4700 6550 4800 6550
Text Label 4700 6650 2    50   ~ 0
LREGEN8
Wire Wire Line
	4700 6650 4800 6650
Text Label 4700 6750 2    50   ~ 0
LREGEN9
Wire Wire Line
	4700 6750 4800 6750
Text Label 4700 6850 2    50   ~ 0
LREGEN10
Wire Wire Line
	4700 6850 4800 6850
Wire Bus Line
	4900 5900 4900 7050
$EndSCHEMATC
