EESchema Schematic File Version 4
EELAYER 30 0
EELAYER END
$Descr A4 11693 8268
encoding utf-8
Sheet 20 20
Title ""
Date ""
Rev ""
Comp ""
Comment1 ""
Comment2 ""
Comment3 ""
Comment4 ""
$EndDescr
$Comp
L Interface_Expansion:PCA9548APW U152
U 1 1 609E7FAB
P 3550 3450
F 0 "U152" H 3650 4300 50  0000 C CNN
F 1 "PCA9548APW" H 3850 2500 50  0000 C CNN
F 2 "Package_SO:TSSOP-24_4.4x7.8mm_P0.65mm" H 3550 2450 50  0001 C CNN
F 3 "http://www.ti.com/lit/ds/symlink/pca9548a.pdf" H 3600 3700 50  0001 C CNN
	1    3550 3450
	1    0    0    -1  
$EndComp
Text HLabel 2200 2750 0    50   Input ~ 0
SCL
Text HLabel 2200 2850 0    50   Input ~ 0
SDA
Wire Wire Line
	3150 2750 2400 2750
Wire Wire Line
	3150 2850 2650 2850
Wire Wire Line
	3150 3750 3150 3850
Connection ~ 3150 3850
Wire Wire Line
	3150 3850 3150 3950
$Comp
L power:GND #PWR0278
U 1 1 6083B7E0
P 3150 4650
F 0 "#PWR0278" H 3150 4400 50  0001 C CNN
F 1 "GND" H 3155 4477 50  0000 C CNN
F 2 "" H 3150 4650 50  0001 C CNN
F 3 "" H 3150 4650 50  0001 C CNN
	1    3150 4650
	1    0    0    -1  
$EndComp
Wire Wire Line
	3150 3950 3150 4450
Connection ~ 3150 3950
Wire Wire Line
	3550 4450 3150 4450
Connection ~ 3150 4450
Wire Wire Line
	3150 4450 3150 4650
NoConn ~ 3950 3150
NoConn ~ 3950 3250
NoConn ~ 3950 3350
NoConn ~ 3950 3450
NoConn ~ 3950 3550
NoConn ~ 3950 3650
NoConn ~ 3950 3750
NoConn ~ 3950 3850
NoConn ~ 3950 3950
NoConn ~ 3950 4050
NoConn ~ 3950 4150
NoConn ~ 3950 4250
Text HLabel 4850 2750 2    50   Output ~ 0
SCL0
Text HLabel 4850 2950 2    50   Output ~ 0
SCL1
Text HLabel 4850 2850 2    50   Output ~ 0
SDA0
Text HLabel 4850 3050 2    50   Output ~ 0
SDA1
Wire Wire Line
	3950 2750 4100 2750
Wire Wire Line
	4850 2850 4250 2850
Wire Wire Line
	3950 2950 4450 2950
Wire Wire Line
	3950 3050 4650 3050
$Comp
L Device:R R838
U 1 1 608454B5
P 4100 2300
F 0 "R838" V 4200 2250 50  0000 L CNN
F 1 "2k" V 4100 2250 50  0000 L CNN
F 2 "Resistor_SMD:R_0805_2012Metric" V 4030 2300 50  0001 C CNN
F 3 "~" H 4100 2300 50  0001 C CNN
	1    4100 2300
	1    0    0    -1  
$EndComp
$Comp
L Device:R R840
U 1 1 608466A4
P 4250 2500
F 0 "R840" V 4350 2450 50  0000 L CNN
F 1 "2k" V 4250 2450 50  0000 L CNN
F 2 "Resistor_SMD:R_0805_2012Metric" V 4180 2500 50  0001 C CNN
F 3 "~" H 4250 2500 50  0001 C CNN
	1    4250 2500
	1    0    0    -1  
$EndComp
$Comp
L Device:R R839
U 1 1 60846BA2
P 4450 2300
F 0 "R839" V 4550 2250 50  0000 L CNN
F 1 "2k" V 4450 2250 50  0000 L CNN
F 2 "Resistor_SMD:R_0805_2012Metric" V 4380 2300 50  0001 C CNN
F 3 "~" H 4450 2300 50  0001 C CNN
	1    4450 2300
	1    0    0    -1  
$EndComp
$Comp
L Device:R R841
U 1 1 60847178
P 4650 2500
F 0 "R841" V 4750 2450 50  0000 L CNN
F 1 "2k" V 4650 2450 50  0000 L CNN
F 2 "Resistor_SMD:R_0805_2012Metric" V 4580 2500 50  0001 C CNN
F 3 "~" H 4650 2500 50  0001 C CNN
	1    4650 2500
	1    0    0    -1  
$EndComp
Wire Wire Line
	4100 2450 4100 2750
Connection ~ 4100 2750
Wire Wire Line
	4100 2750 4850 2750
Wire Wire Line
	4250 2650 4250 2850
Connection ~ 4250 2850
Wire Wire Line
	4250 2850 3950 2850
Wire Wire Line
	4450 2450 4450 2950
Connection ~ 4450 2950
Wire Wire Line
	4450 2950 4850 2950
Wire Wire Line
	4650 2650 4650 3050
Connection ~ 4650 3050
Wire Wire Line
	4650 3050 4850 3050
$Comp
L power:+3V3 #PWR0277
U 1 1 6084A9FF
P 4100 1900
F 0 "#PWR0277" H 4100 1750 50  0001 C CNN
F 1 "+3V3" H 4115 2073 50  0000 C CNN
F 2 "" H 4100 1900 50  0001 C CNN
F 3 "" H 4100 1900 50  0001 C CNN
	1    4100 1900
	1    0    0    -1  
$EndComp
Wire Wire Line
	4100 2150 4100 2050
Wire Wire Line
	4450 2150 4450 2050
Wire Wire Line
	4450 2050 4250 2050
Connection ~ 4100 2050
Wire Wire Line
	4100 2050 4100 1900
Wire Wire Line
	4250 2350 4250 2050
Connection ~ 4250 2050
Wire Wire Line
	4250 2050 4100 2050
Wire Wire Line
	4650 2350 4650 2050
Wire Wire Line
	4650 2050 4450 2050
Connection ~ 4450 2050
$Comp
L Device:R R835
U 1 1 6084EA18
P 2400 2300
F 0 "R835" V 2500 2250 50  0000 L CNN
F 1 "2k" V 2400 2250 50  0000 L CNN
F 2 "Resistor_SMD:R_0805_2012Metric" V 2330 2300 50  0001 C CNN
F 3 "~" H 2400 2300 50  0001 C CNN
	1    2400 2300
	1    0    0    -1  
$EndComp
$Comp
L Device:R R836
U 1 1 6084F295
P 2650 2300
F 0 "R836" V 2750 2250 50  0000 L CNN
F 1 "2k" V 2650 2250 50  0000 L CNN
F 2 "Resistor_SMD:R_0805_2012Metric" V 2580 2300 50  0001 C CNN
F 3 "~" H 2650 2300 50  0001 C CNN
	1    2650 2300
	1    0    0    -1  
$EndComp
$Comp
L Device:R R837
U 1 1 6084F726
P 2950 2300
F 0 "R837" V 3050 2250 50  0000 L CNN
F 1 "2k" V 2950 2250 50  0000 L CNN
F 2 "Resistor_SMD:R_0805_2012Metric" V 2880 2300 50  0001 C CNN
F 3 "~" H 2950 2300 50  0001 C CNN
	1    2950 2300
	1    0    0    -1  
$EndComp
Wire Wire Line
	2400 2450 2400 2750
Connection ~ 2400 2750
Wire Wire Line
	2400 2750 2200 2750
Wire Wire Line
	2650 2450 2650 2850
Connection ~ 2650 2850
Wire Wire Line
	2650 2850 2200 2850
Wire Wire Line
	2950 2450 2950 3250
Wire Wire Line
	2950 3250 3150 3250
Wire Wire Line
	2400 2150 2650 2150
Connection ~ 2650 2150
Wire Wire Line
	2650 2150 2950 2150
Wire Wire Line
	3550 2550 3550 2150
Wire Wire Line
	3550 2150 3250 2150
Connection ~ 2950 2150
Wire Wire Line
	4100 2050 2650 2050
Wire Wire Line
	2650 2050 2650 2150
$Comp
L Device:C C421
U 1 1 608EE7ED
P 3250 2300
F 0 "C421" H 3250 2400 50  0000 L CNN
F 1 "0.1uF" H 3250 2200 50  0000 L CNN
F 2 "Capacitor_SMD:C_0805_2012Metric" H 3288 2150 50  0001 C CNN
F 3 "~" H 3250 2300 50  0001 C CNN
	1    3250 2300
	1    0    0    -1  
$EndComp
Connection ~ 3250 2150
Wire Wire Line
	3250 2150 2950 2150
$Comp
L power:GND #PWR0279
U 1 1 608EFA3E
P 3100 2450
F 0 "#PWR0279" H 3100 2200 50  0001 C CNN
F 1 "GND" H 3105 2277 50  0000 C CNN
F 2 "" H 3100 2450 50  0001 C CNN
F 3 "" H 3100 2450 50  0001 C CNN
	1    3100 2450
	1    0    0    -1  
$EndComp
Wire Wire Line
	3250 2450 3100 2450
$EndSCHEMATC
