EESchema Schematic File Version 4
EELAYER 30 0
EELAYER END
$Descr A4 11693 8268
encoding utf-8
Sheet 1 20
Title "linPOL qualification board"
Date "2021-04-04"
Rev "v1"
Comp "LBNL"
Comment1 "Zhicai Zhang"
Comment2 ""
Comment3 ""
Comment4 ""
$EndDescr
Text Label 10850 3150 2    50   ~ 0
1V4_[1..10]
Text Label 10850 3200 2    50   ~ 0
1V4_[11..20]
Text Label 10850 3250 2    50   ~ 0
1V4_[21..30]
Text Label 10850 3300 2    50   ~ 0
1V4_[31..40]
Text Label 10850 3350 2    50   ~ 0
1V4_[41..50]
Text Label 10850 3400 2    50   ~ 0
1V4_[51..60]
Text Label 10850 3450 2    50   ~ 0
1V4_[61..70]
Text Label 10850 3500 2    50   ~ 0
1V4_[71..80]
Text Label 10850 3550 2    50   ~ 0
1V4_[81..90]
Text Label 10950 3900 2    50   ~ 0
1V4_[1..128]
Text Label 10850 3650 2    50   ~ 0
1V4_[101..110]
Text Label 10850 3700 2    50   ~ 0
1V4_[111..120]
Text Label 10850 3750 2    50   ~ 0
1V4_[121..128]
Text Label 10850 3600 2    50   ~ 0
1V4_[91..100]
Wire Bus Line
	11050 3900 10950 3900
Text Label 10850 4050 2    50   ~ 0
3V3_[1..10]
Text Label 10850 4100 2    50   ~ 0
3V3_[11..20]
Text Label 10850 4150 2    50   ~ 0
3V3_[21..30]
Text Label 10850 4200 2    50   ~ 0
3V3_[31..40]
Text Label 10850 4250 2    50   ~ 0
3V3_[41..50]
Text Label 10850 4300 2    50   ~ 0
3V3_[51..60]
Text Label 10850 4350 2    50   ~ 0
3V3_[61..70]
Text Label 10850 4400 2    50   ~ 0
3V3_[71..80]
Text Label 10850 4450 2    50   ~ 0
3V3_[81..90]
Text Label 10950 4800 2    50   ~ 0
3V3_[1..128]
Text Label 10850 4550 2    50   ~ 0
3V3_[101..110]
Text Label 10850 4600 2    50   ~ 0
3V3_[111..120]
Text Label 10850 4650 2    50   ~ 0
3V3_[121..128]
Text Label 10850 4500 2    50   ~ 0
3V3_[91..100]
Wire Bus Line
	11050 4800 10950 4800
Text Label 10800 1350 2    50   ~ 0
VIN_g1
Wire Wire Line
	10800 1350 10950 1350
Text Label 10800 1450 2    50   ~ 0
VIN_g2
Text Label 10800 1550 2    50   ~ 0
VIN_g3
Text Label 10800 1650 2    50   ~ 0
VIN_g4
Text Label 10800 1750 2    50   ~ 0
VIN_g5
Text Label 10800 1850 2    50   ~ 0
VIN_g6
Text Label 10800 1950 2    50   ~ 0
VIN_g7
Text Label 10800 2050 2    50   ~ 0
VIN_g8
Text Label 10800 2150 2    50   ~ 0
VIN_g9
Text Label 10800 2250 2    50   ~ 0
VIN_g10
Text Label 10800 2350 2    50   ~ 0
VIN_g11
Text Label 10800 2450 2    50   ~ 0
VIN_g12
Text Label 10800 2550 2    50   ~ 0
VIN_g13
Entry Wire Line
	10950 1450 11050 1550
Entry Wire Line
	10950 1350 11050 1450
Entry Wire Line
	10950 1550 11050 1650
Entry Wire Line
	10950 1650 11050 1750
Entry Wire Line
	10950 1750 11050 1850
Entry Wire Line
	10950 1850 11050 1950
Entry Wire Line
	10950 1950 11050 2050
Entry Wire Line
	10950 2050 11050 2150
Entry Wire Line
	10950 2150 11050 2250
Entry Wire Line
	10950 2250 11050 2350
Entry Wire Line
	10950 2350 11050 2450
Entry Wire Line
	10950 2450 11050 2550
Entry Wire Line
	10950 2550 11050 2650
Text Label 10800 2750 2    50   ~ 0
VIN_g[1..13]
Wire Bus Line
	11050 2750 10800 2750
Wire Wire Line
	10800 1450 10950 1450
Wire Wire Line
	10950 1550 10800 1550
Wire Wire Line
	10800 1650 10950 1650
Wire Wire Line
	10800 1750 10950 1750
Wire Wire Line
	10800 1850 10950 1850
Wire Wire Line
	10800 1950 10950 1950
Wire Wire Line
	10800 2050 10950 2050
Wire Wire Line
	10800 2150 10950 2150
Wire Wire Line
	10800 2250 10950 2250
Wire Wire Line
	10800 2350 10950 2350
Wire Wire Line
	10800 2450 10950 2450
Wire Wire Line
	10800 2550 10950 2550
Wire Wire Line
	1100 1250 1050 1250
Text Label 1050 1250 2    50   ~ 0
VIN_g1
Text Label 1050 1150 2    50   ~ 0
3V3_[1..10]
Text Label 1050 1050 2    50   ~ 0
1V4_[1..10]
Text Label 1050 1350 2    50   ~ 0
LREGEN[1..10]
Wire Wire Line
	2400 1250 2350 1250
Text Label 2350 1250 2    50   ~ 0
VIN_g2
Text Label 2350 1150 2    50   ~ 0
3V3_[11..20]
Text Label 2350 1050 2    50   ~ 0
1V4_[11..20]
Wire Wire Line
	3700 1250 3650 1250
Text Label 3650 1250 2    50   ~ 0
VIN_g3
Text Label 3650 1150 2    50   ~ 0
3V3_[21..30]
Text Label 3650 1050 2    50   ~ 0
1V4_[21..30]
$Sheet
S 3700 1000 700  450 
U 607E8A75
F0 "group3" 50
F1 "group3.sch" 50
F2 "VIN_g3" I L 3700 1250 50 
F3 "1V4_[21..30]" O L 3700 1050 50 
F4 "3V3_[21..30]" O L 3700 1150 50 
F5 "LREGEN[1..10]" I L 3700 1350 50 
$EndSheet
$Sheet
S 5050 1000 700  450 
U 607EAA67
F0 "group4" 50
F1 "group4.sch" 50
F2 "VIN_g4" I L 5050 1250 50 
F3 "1V4_[31..40]" O L 5050 1050 50 
F4 "3V3_[31..40]" O L 5050 1150 50 
F5 "LREGEN[1..10]" I L 5050 1350 50 
$EndSheet
Wire Wire Line
	5050 1250 5000 1250
Text Label 5000 1250 2    50   ~ 0
VIN_g4
Text Label 5000 1150 2    50   ~ 0
3V3_[31..40]
Text Label 5000 1050 2    50   ~ 0
1V4_[31..40]
$Sheet
S 6400 1000 700  450 
U 607ECD6D
F0 "group5" 50
F1 "group5.sch" 50
F2 "VIN_g5" I L 6400 1250 50 
F3 "1V4_[41..50]" O L 6400 1050 50 
F4 "3V3_[41..50]" O L 6400 1150 50 
F5 "LREGEN[1..10]" I L 6400 1350 50 
$EndSheet
Wire Wire Line
	6400 1250 6350 1250
Text Label 6350 1250 2    50   ~ 0
VIN_g5
Text Label 6350 1150 2    50   ~ 0
3V3_[41..50]
Text Label 6350 1050 2    50   ~ 0
1V4_[41..50]
$Sheet
S 7750 1000 700  450 
U 607EF4E9
F0 "group6" 50
F1 "group6.sch" 50
F2 "VIN_g6" I L 7750 1250 50 
F3 "1V4_[51..60]" O L 7750 1050 50 
F4 "3V3_[51..60]" O L 7750 1150 50 
F5 "LREGEN[1..10]" I L 7750 1350 50 
$EndSheet
Wire Wire Line
	7750 1250 7700 1250
Text Label 7700 1250 2    50   ~ 0
VIN_g6
Text Label 7700 1150 2    50   ~ 0
3V3_[51..60]
Text Label 7700 1050 2    50   ~ 0
1V4_[51..60]
$Sheet
S 9100 1000 700  450 
U 607F214C
F0 "group7" 50
F1 "group7.sch" 50
F2 "VIN_g7" I L 9100 1250 50 
F3 "1V4_[61..70]" O L 9100 1050 50 
F4 "3V3_[61..70]" O L 9100 1150 50 
F5 "LREGEN[1..10]" I L 9100 1350 50 
$EndSheet
Wire Wire Line
	9100 1250 9050 1250
Text Label 9050 1250 2    50   ~ 0
VIN_g7
Text Label 9050 1150 2    50   ~ 0
3V3_[61..70]
Text Label 9050 1050 2    50   ~ 0
1V4_[61..70]
$Sheet
S 1100 1800 700  450 
U 607F863A
F0 "group8" 50
F1 "group8.sch" 50
F2 "VIN_g8" I L 1100 2050 50 
F3 "1V4_[71..80]" O L 1100 1850 50 
F4 "3V3_[71..80]" O L 1100 1950 50 
F5 "LREGEN[1..10]" I L 1100 2150 50 
$EndSheet
Wire Wire Line
	1100 2050 1050 2050
Text Label 1050 2050 2    50   ~ 0
VIN_g8
Text Label 1050 1950 2    50   ~ 0
3V3_[71..80]
Text Label 1050 1850 2    50   ~ 0
1V4_[71..80]
$Sheet
S 2400 1800 700  450 
U 607F8646
F0 "group9" 50
F1 "group9.sch" 50
F2 "VIN_g9" I L 2400 2050 50 
F3 "1V4_[81..90]" O L 2400 1850 50 
F4 "3V3_[81..90]" O L 2400 1950 50 
F5 "LREGEN[1..10]" I L 2400 2150 50 
$EndSheet
Wire Wire Line
	2400 2050 2350 2050
Text Label 2350 2050 2    50   ~ 0
VIN_g9
Text Label 2350 1950 2    50   ~ 0
3V3_[81..90]
Text Label 2350 1850 2    50   ~ 0
1V4_[81..90]
Text Label 3650 1850 2    50   ~ 0
1V4_[91..100]
Text Label 3650 1950 2    50   ~ 0
3V3_[91..100]
Text Label 3650 2050 2    50   ~ 0
VIN_g10
Wire Wire Line
	3700 2050 3650 2050
$Sheet
S 3700 1800 700  450 
U 607F8658
F0 "group10" 50
F1 "group10.sch" 50
F2 "VIN_g10" I L 3700 2050 50 
F3 "1V4_[91..100]" O L 3700 1850 50 
F4 "3V3_[91..100]" O L 3700 1950 50 
F5 "LREGEN[1..10]" I L 3700 2150 50 
$EndSheet
Wire Wire Line
	5050 2050 5000 2050
Text Label 5000 2050 2    50   ~ 0
VIN_g11
Text Label 5000 1950 2    50   ~ 0
3V3_[101..110]
Text Label 5000 1850 2    50   ~ 0
1V4_[101..110]
$Sheet
S 5050 1800 700  450 
U 607F8664
F0 "group11" 50
F1 "group11.sch" 50
F2 "VIN_g11" I L 5050 2050 50 
F3 "1V4_[101..110]" O L 5050 1850 50 
F4 "3V3_[101..110]" O L 5050 1950 50 
F5 "LREGEN[1..10]" I L 5050 2150 50 
$EndSheet
Wire Wire Line
	6400 2050 6350 2050
Text Label 6350 2050 2    50   ~ 0
VIN_g12
Text Label 6350 1950 2    50   ~ 0
3V3_[111..120]
Text Label 6350 1850 2    50   ~ 0
1V4_[111..120]
$Sheet
S 6400 1800 700  450 
U 607F8670
F0 "group12" 50
F1 "group12.sch" 50
F2 "VIN_g12" I L 6400 2050 50 
F3 "1V4_[111..120]" O L 6400 1850 50 
F4 "3V3_[111..120]" O L 6400 1950 50 
F5 "LREGEN[1..10]" I L 6400 2150 50 
$EndSheet
Wire Wire Line
	7750 2050 7700 2050
Text Label 7700 2050 2    50   ~ 0
VIN_g13
Text Label 7700 1950 2    50   ~ 0
3V3_[121..128]
Text Label 7700 1850 2    50   ~ 0
1V4_[121..128]
$Sheet
S 7750 1800 700  450 
U 607F867C
F0 "group13" 50
F1 "group13.sch" 50
F2 "VIN_g13" I L 7750 2050 50 
F3 "1V4_[121..128]" O L 7750 1850 50 
F4 "3V3_[121..128]" O L 7750 1950 50 
F5 "LREGEN[1..10]" I L 7750 2150 50 
$EndSheet
Text Label 2400 6950 0    50   ~ 0
VIN_curr
Text Label 1250 6950 2    50   ~ 0
VIN_volt
Wire Wire Line
	1250 6950 1400 6950
Wire Wire Line
	2250 6950 2400 6950
$Sheet
S 1350 2900 650  2550
U 60809D73
F0 "Mux3V3" 50
F1 "Mux3V3.sch" 50
F2 "3V3_[1..128]" I L 1350 3150 50 
F3 "SCL" I L 1350 2950 50 
F4 "SDA" B L 1350 3050 50 
F5 "VIN_curr" I L 1350 3250 50 
F6 "VIN_volt" I L 1350 3350 50 
F7 "A0_3V3_g1" I L 1350 3450 50 
F8 "A1_3V3_g1" I L 1350 3550 50 
F9 "A2_3V3_g1" I L 1350 3650 50 
F10 "A3_3V3_g1" I L 1350 3750 50 
F11 "A4_3V3_g1" I L 1350 3850 50 
F12 "A0_3V3_g2" I L 1350 3950 50 
F13 "A1_3V3_g2" I L 1350 4050 50 
F14 "A2_3V3_g2" I L 1350 4150 50 
F15 "A3_3V3_g2" I L 1350 4250 50 
F16 "A4_3V3_g2" I L 1350 4350 50 
F17 "A0_3V3_g3" I L 1350 4450 50 
F18 "A1_3V3_g3" I L 1350 4550 50 
F19 "A2_3V3_g3" I L 1350 4650 50 
F20 "A3_3V3_g3" I L 1350 4750 50 
F21 "A4_3V3_g3" I L 1350 4850 50 
F22 "A0_3V3_g4" I L 1350 4950 50 
F23 "A1_3V3_g4" I L 1350 5050 50 
F24 "A2_3V3_g4" I L 1350 5150 50 
F25 "A3_3V3_g4" I L 1350 5250 50 
F26 "A4_3V3_g4" I L 1350 5350 50 
$EndSheet
Text Label 2400 7050 0    50   ~ 0
VIN_g[1..13]
Text Label 1150 3350 2    50   ~ 0
VIN_volt
Text Label 3900 3550 0    50   ~ 0
A4_1V4_g1
Wire Wire Line
	3750 3550 3900 3550
Text Label 3900 3450 0    50   ~ 0
A3_1V4_g1
Wire Wire Line
	3750 3450 3900 3450
Text Label 3900 3350 0    50   ~ 0
A2_1V4_g1
Wire Wire Line
	3750 3350 3900 3350
$Sheet
S 1400 6900 850  400 
U 60809D83
F0 "power" 50
F1 "power.sch" 50
F2 "VIN_volt" O L 1400 6950 50 
F3 "VIN_curr" O R 2250 6950 50 
F4 "VIN_g[1..13]" O R 2250 7050 50 
F5 "SCL" O R 2250 7200 50 
F6 "SDA" B L 1400 7200 50 
$EndSheet
$Sheet
S 2700 3050 1050 2300
U 60809DB0
F0 "Control" 50
F1 "Control.sch" 50
F2 "A0_1V4_g1" O R 3750 3150 50 
F3 "A1_1V4_g1" O R 3750 3250 50 
F4 "A2_1V4_g1" O R 3750 3350 50 
F5 "A3_1V4_g1" O R 3750 3450 50 
F6 "A4_1V4_g1" O R 3750 3550 50 
F7 "A0_1V4_g2" O R 3750 3650 50 
F8 "A1_1V4_g2" O R 3750 3750 50 
F9 "A2_1V4_g2" O R 3750 3850 50 
F10 "A3_1V4_g2" O R 3750 3950 50 
F11 "A4_1V4_g2" O R 3750 4050 50 
F12 "A0_1V4_g3" O R 3750 4150 50 
F13 "A1_1V4_g3" O R 3750 4250 50 
F14 "A2_1V4_g3" O R 3750 4350 50 
F15 "A3_1V4_g3" O R 3750 4450 50 
F16 "A4_1V4_g3" O R 3750 4550 50 
F17 "A0_1V4_g4" O R 3750 4650 50 
F18 "A1_1V4_g4" O R 3750 4750 50 
F19 "A2_1V4_g4" O R 3750 4850 50 
F20 "A3_1V4_g4" O R 3750 4950 50 
F21 "A4_1V4_g4" O R 3750 5050 50 
F22 "A0_3V3_g1" O L 2700 3150 50 
F23 "A1_3V3_g1" O L 2700 3250 50 
F24 "A2_3V3_g1" O L 2700 3350 50 
F25 "A3_3V3_g1" O L 2700 3450 50 
F26 "A4_3V3_g1" O L 2700 3550 50 
F27 "A0_3V3_g2" O L 2700 3650 50 
F28 "A1_3V3_g2" O L 2700 3750 50 
F29 "A2_3V3_g2" O L 2700 3850 50 
F30 "A3_3V3_g2" O L 2700 3950 50 
F31 "A4_3V3_g2" O L 2700 4050 50 
F32 "A0_3V3_g3" O L 2700 4150 50 
F33 "A1_3V3_g3" O L 2700 4250 50 
F34 "A2_3V3_g3" O L 2700 4350 50 
F35 "A3_3V3_g3" O L 2700 4450 50 
F36 "A4_3V3_g3" O L 2700 4550 50 
F37 "A0_3V3_g4" O L 2700 4650 50 
F38 "A1_3V3_g4" O L 2700 4750 50 
F39 "A2_3V3_g4" O L 2700 4850 50 
F40 "A3_3V3_g4" O L 2700 4950 50 
F41 "A4_3V3_g4" O L 2700 5050 50 
F42 "SDA" B R 3750 5150 50 
F43 "SCK" I L 2700 5150 50 
F44 "LREGEN[1..10]" O R 3750 5250 50 
$EndSheet
Text Label 3900 5150 0    50   ~ 0
SDA0
Wire Wire Line
	3900 5150 3750 5150
Text Label 2500 5150 2    50   ~ 0
SCL0
Wire Wire Line
	2700 5150 2500 5150
Text Label 3900 4050 0    50   ~ 0
A4_1V4_g2
Wire Wire Line
	3750 4050 3900 4050
Text Label 3900 3950 0    50   ~ 0
A3_1V4_g2
Wire Wire Line
	3750 3950 3900 3950
Text Label 3900 3850 0    50   ~ 0
A2_1V4_g2
Wire Wire Line
	3750 3850 3900 3850
Text Label 3900 3750 0    50   ~ 0
A1_1V4_g2
Wire Wire Line
	3750 3750 3900 3750
Text Label 3900 3650 0    50   ~ 0
A0_1V4_g2
Wire Wire Line
	3750 3650 3900 3650
Text Label 3900 4550 0    50   ~ 0
A4_1V4_g3
Wire Wire Line
	3750 4550 3900 4550
Text Label 3900 4450 0    50   ~ 0
A3_1V4_g3
Wire Wire Line
	3750 4450 3900 4450
Text Label 3900 4350 0    50   ~ 0
A2_1V4_g3
Wire Wire Line
	3750 4350 3900 4350
Text Label 3900 4250 0    50   ~ 0
A1_1V4_g3
Wire Wire Line
	3750 4250 3900 4250
Text Label 3900 4150 0    50   ~ 0
A0_1V4_g3
Wire Wire Line
	3750 4150 3900 4150
Text Label 3900 5050 0    50   ~ 0
A4_1V4_g4
Wire Wire Line
	3750 5050 3900 5050
Text Label 3900 4950 0    50   ~ 0
A3_1V4_g4
Wire Wire Line
	3750 4950 3900 4950
Text Label 3900 4850 0    50   ~ 0
A2_1V4_g4
Wire Wire Line
	3750 4850 3900 4850
Text Label 3900 4750 0    50   ~ 0
A1_1V4_g4
Wire Wire Line
	3750 4750 3900 4750
Text Label 3900 4650 0    50   ~ 0
A0_1V4_g4
Wire Wire Line
	3750 4650 3900 4650
Text Label 2500 3350 2    50   ~ 0
A2_3V3_g1
Wire Wire Line
	2700 3350 2500 3350
Text Label 2500 3450 2    50   ~ 0
A3_3V3_g1
Wire Wire Line
	2700 3450 2500 3450
Text Label 2500 3550 2    50   ~ 0
A4_3V3_g1
Wire Wire Line
	2700 3550 2500 3550
Text Label 2500 3650 2    50   ~ 0
A0_3V3_g2
Wire Wire Line
	2700 3650 2500 3650
Text Label 2500 3750 2    50   ~ 0
A1_3V3_g2
Wire Wire Line
	2700 3750 2500 3750
Text Label 2500 3850 2    50   ~ 0
A2_3V3_g2
Wire Wire Line
	2700 3850 2500 3850
Text Label 2500 3950 2    50   ~ 0
A3_3V3_g2
Wire Wire Line
	2700 3950 2500 3950
Text Label 2500 4050 2    50   ~ 0
A4_3V3_g2
Wire Wire Line
	2700 4050 2500 4050
Text Label 2500 4150 2    50   ~ 0
A0_3V3_g3
Wire Wire Line
	2700 4150 2500 4150
Text Label 2500 4250 2    50   ~ 0
A1_3V3_g3
Wire Wire Line
	2700 4250 2500 4250
Text Label 2500 4350 2    50   ~ 0
A2_3V3_g3
Wire Wire Line
	2700 4350 2500 4350
Text Label 2500 4450 2    50   ~ 0
A3_3V3_g3
Wire Wire Line
	2700 4450 2500 4450
Text Label 2500 4550 2    50   ~ 0
A4_3V3_g3
Wire Wire Line
	2700 4550 2500 4550
Text Label 2500 4650 2    50   ~ 0
A0_3V3_g4
Wire Wire Line
	2700 4650 2500 4650
Text Label 2500 4750 2    50   ~ 0
A1_3V3_g4
Wire Wire Line
	2700 4750 2500 4750
Text Label 2500 4850 2    50   ~ 0
A2_3V3_g4
Wire Wire Line
	2700 4850 2500 4850
Text Label 2500 4950 2    50   ~ 0
A3_3V3_g4
Wire Wire Line
	2700 4950 2500 4950
Text Label 2500 5050 2    50   ~ 0
A4_3V3_g4
Wire Wire Line
	2700 5050 2500 5050
Text Label 5200 3300 0    50   ~ 0
1V4_[1..128]
$Sheet
S 4400 3050 650  2350
U 60809E10
F0 "Mux1V4" 50
F1 "Mux1V4.sch" 50
F2 "1V4_[1..128]" I R 5050 3300 50 
F3 "SCL" I R 5050 3100 50 
F4 "SDA" B R 5050 3200 50 
F5 "A0_1V4_g1" I R 5050 3400 50 
F6 "A1_1V4_g1" I R 5050 3500 50 
F7 "A2_1V4_g1" I R 5050 3600 50 
F8 "A3_1V4_g1" I R 5050 3700 50 
F9 "A4_1V4_g1" I R 5050 3800 50 
F10 "A0_1V4_g2" I R 5050 3900 50 
F11 "A1_1V4_g2" I R 5050 4000 50 
F12 "A2_1V4_g2" I R 5050 4100 50 
F13 "A3_1V4_g2" I R 5050 4200 50 
F14 "A4_1V4_g2" I R 5050 4300 50 
F15 "A0_1V4_g3" I R 5050 4400 50 
F16 "A1_1V4_g3" I R 5050 4500 50 
F17 "A2_1V4_g3" I R 5050 4600 50 
F18 "A3_1V4_g3" I R 5050 4700 50 
F19 "A4_1V4_g3" I R 5050 4800 50 
F20 "A0_1V4_g4" I R 5050 4900 50 
F21 "A1_1V4_g4" I R 5050 5000 50 
F22 "A2_1V4_g4" I R 5050 5100 50 
F23 "A3_1V4_g4" I R 5050 5200 50 
F24 "A4_1V4_g4" I R 5050 5300 50 
$EndSheet
Text Label 5200 3800 0    50   ~ 0
A4_1V4_g1
Wire Wire Line
	5050 3800 5200 3800
Text Label 5200 3700 0    50   ~ 0
A3_1V4_g1
Wire Wire Line
	5050 3700 5200 3700
Text Label 5200 3600 0    50   ~ 0
A2_1V4_g1
Wire Wire Line
	5050 3600 5200 3600
Text Label 5200 3500 0    50   ~ 0
A1_1V4_g1
Wire Wire Line
	5050 3500 5200 3500
Text Label 5200 3400 0    50   ~ 0
A0_1V4_g1
Wire Wire Line
	5050 3400 5200 3400
Text Label 5200 4300 0    50   ~ 0
A4_1V4_g2
Wire Wire Line
	5050 4300 5200 4300
Text Label 5200 4200 0    50   ~ 0
A3_1V4_g2
Wire Wire Line
	5050 4200 5200 4200
Text Label 5200 4100 0    50   ~ 0
A2_1V4_g2
Wire Wire Line
	5050 4100 5200 4100
Text Label 5200 4000 0    50   ~ 0
A1_1V4_g2
Wire Wire Line
	5050 4000 5200 4000
Text Label 5200 3900 0    50   ~ 0
A0_1V4_g2
Wire Wire Line
	5050 3900 5200 3900
Text Label 5200 4800 0    50   ~ 0
A4_1V4_g3
Wire Wire Line
	5050 4800 5200 4800
Text Label 5200 4700 0    50   ~ 0
A3_1V4_g3
Wire Wire Line
	5050 4700 5200 4700
Text Label 5200 4600 0    50   ~ 0
A2_1V4_g3
Wire Wire Line
	5050 4600 5200 4600
Text Label 5200 4500 0    50   ~ 0
A1_1V4_g3
Wire Wire Line
	5050 4500 5200 4500
Text Label 5200 4400 0    50   ~ 0
A0_1V4_g3
Wire Wire Line
	5050 4400 5200 4400
Text Label 5200 5300 0    50   ~ 0
A4_1V4_g4
Wire Wire Line
	5050 5300 5200 5300
Text Label 5200 5200 0    50   ~ 0
A3_1V4_g4
Wire Wire Line
	5050 5200 5200 5200
Text Label 5200 5100 0    50   ~ 0
A2_1V4_g4
Wire Wire Line
	5050 5100 5200 5100
Text Label 5200 5000 0    50   ~ 0
A1_1V4_g4
Wire Wire Line
	5050 5000 5200 5000
Text Label 5200 4900 0    50   ~ 0
A0_1V4_g4
Wire Wire Line
	5050 4900 5200 4900
Text Label 1150 3450 2    50   ~ 0
A0_3V3_g1
Wire Wire Line
	1350 3450 1150 3450
Text Label 1150 3550 2    50   ~ 0
A1_3V3_g1
Wire Wire Line
	1350 3550 1150 3550
Text Label 1150 3650 2    50   ~ 0
A2_3V3_g1
Wire Wire Line
	1350 3650 1150 3650
Text Label 1150 3750 2    50   ~ 0
A3_3V3_g1
Wire Wire Line
	1350 3750 1150 3750
Text Label 1150 3850 2    50   ~ 0
A4_3V3_g1
Wire Wire Line
	1350 3850 1150 3850
Text Label 1150 3950 2    50   ~ 0
A0_3V3_g2
Wire Wire Line
	1350 3950 1150 3950
Text Label 1150 4050 2    50   ~ 0
A1_3V3_g2
Wire Wire Line
	1350 4050 1150 4050
Text Label 1150 4150 2    50   ~ 0
A2_3V3_g2
Wire Wire Line
	1350 4150 1150 4150
Text Label 1150 4250 2    50   ~ 0
A3_3V3_g2
Wire Wire Line
	1350 4250 1150 4250
Text Label 1150 4350 2    50   ~ 0
A4_3V3_g2
Wire Wire Line
	1350 4350 1150 4350
Text Label 1150 4450 2    50   ~ 0
A0_3V3_g3
Wire Wire Line
	1350 4450 1150 4450
Text Label 1150 4550 2    50   ~ 0
A1_3V3_g3
Wire Wire Line
	1350 4550 1150 4550
Text Label 1150 4650 2    50   ~ 0
A2_3V3_g3
Wire Wire Line
	1350 4650 1150 4650
Text Label 1150 4750 2    50   ~ 0
A3_3V3_g3
Wire Wire Line
	1350 4750 1150 4750
Text Label 1150 4850 2    50   ~ 0
A4_3V3_g3
Wire Wire Line
	1350 4850 1150 4850
Text Label 1150 4950 2    50   ~ 0
A0_3V3_g4
Wire Wire Line
	1350 4950 1150 4950
Text Label 1150 5050 2    50   ~ 0
A1_3V3_g4
Wire Wire Line
	1350 5050 1150 5050
Text Label 1150 5150 2    50   ~ 0
A2_3V3_g4
Wire Wire Line
	1350 5150 1150 5150
Text Label 1150 5250 2    50   ~ 0
A3_3V3_g4
Wire Wire Line
	1350 5250 1150 5250
Text Label 1150 5350 2    50   ~ 0
A4_3V3_g4
Wire Wire Line
	1350 5350 1150 5350
Wire Wire Line
	1350 3350 1150 3350
$Sheet
S 4100 7000 550  250 
U 60809E66
F0 "thermal" 50
F1 "thermal.sch" 50
F2 "SDA" B R 4650 7200 50 
F3 "SCL" I R 4650 7050 50 
$EndSheet
Text Label 4800 7050 0    50   ~ 0
SCL0
Text Label 4800 7200 0    50   ~ 0
SDA0
Wire Wire Line
	4800 7050 4650 7050
Wire Wire Line
	4800 7200 4650 7200
Text Label 2400 7200 0    50   ~ 0
SCL
Text Label 1250 7200 2    50   ~ 0
SDA
Wire Wire Line
	2400 7200 2250 7200
Wire Wire Line
	1400 7200 1250 7200
Text Label 3900 5250 0    50   ~ 0
LREGEN[1..10]
Text Label 1150 3250 2    50   ~ 0
VIN_curr
Wire Wire Line
	1150 3250 1350 3250
Text Label 1150 3150 2    50   ~ 0
3V3_[1..128]
Text Label 1150 3050 2    50   ~ 0
SDA1
Text Label 1150 2950 2    50   ~ 0
SCL1
Wire Wire Line
	1150 2950 1350 2950
Wire Wire Line
	1150 3050 1350 3050
Text Label 5200 3200 0    50   ~ 0
SDA1
Text Label 5200 3100 0    50   ~ 0
SCL1
Wire Wire Line
	5200 3100 5050 3100
Wire Wire Line
	5200 3200 5050 3200
Text Label 2500 3150 2    50   ~ 0
A0_3V3_g1
Wire Wire Line
	2700 3150 2500 3150
Text Label 2500 3250 2    50   ~ 0
A1_3V3_g1
Wire Wire Line
	2700 3250 2500 3250
Text Label 3900 3250 0    50   ~ 0
A1_1V4_g1
Wire Wire Line
	3750 3250 3900 3250
Text Label 3900 3150 0    50   ~ 0
A0_1V4_g1
Wire Wire Line
	3750 3150 3900 3150
Wire Bus Line
	2250 7050 2400 7050
Wire Bus Line
	1050 1050 1100 1050
Wire Bus Line
	1050 1150 1100 1150
Wire Bus Line
	2350 1050 2400 1050
Wire Bus Line
	2350 1150 2400 1150
Wire Bus Line
	3650 1050 3700 1050
Wire Bus Line
	3650 1150 3700 1150
Wire Bus Line
	6350 1050 6400 1050
Wire Bus Line
	6350 1150 6400 1150
Wire Bus Line
	5000 1050 5050 1050
Wire Bus Line
	5000 1150 5050 1150
Wire Bus Line
	7700 1050 7750 1050
Wire Bus Line
	7700 1150 7750 1150
Wire Bus Line
	9050 1050 9100 1050
Wire Bus Line
	9050 1150 9100 1150
Wire Bus Line
	1050 1850 1100 1850
Wire Bus Line
	1050 1950 1100 1950
Wire Bus Line
	2350 1850 2400 1850
Wire Bus Line
	2350 1950 2400 1950
Wire Bus Line
	3650 1850 3700 1850
Wire Bus Line
	3650 1950 3700 1950
Wire Bus Line
	5000 1850 5050 1850
Wire Bus Line
	5000 1950 5050 1950
Wire Bus Line
	6350 1850 6400 1850
Wire Bus Line
	6350 1950 6400 1950
Wire Bus Line
	7700 1850 7750 1850
Wire Bus Line
	7700 1950 7750 1950
Entry Bus Bus
	10950 3150 11050 3250
Entry Bus Bus
	10950 3200 11050 3300
Entry Bus Bus
	10950 3250 11050 3350
Entry Bus Bus
	10950 3300 11050 3400
Entry Bus Bus
	10950 3350 11050 3450
Entry Bus Bus
	10950 3400 11050 3500
Entry Bus Bus
	10950 3450 11050 3550
Entry Bus Bus
	10950 3500 11050 3600
Entry Bus Bus
	10950 3550 11050 3650
Entry Bus Bus
	10950 3600 11050 3700
Entry Bus Bus
	10950 3650 11050 3750
Entry Bus Bus
	10950 3700 11050 3800
Entry Bus Bus
	10950 3750 11050 3850
Wire Bus Line
	10850 3150 10950 3150
Wire Bus Line
	10950 3200 10850 3200
Wire Bus Line
	10850 3250 10950 3250
Wire Bus Line
	10850 3300 10950 3300
Wire Bus Line
	10850 3350 10950 3350
Wire Bus Line
	10950 3400 10850 3400
Wire Bus Line
	10850 3450 10950 3450
Wire Bus Line
	10850 3500 10950 3500
Wire Bus Line
	10850 3550 10950 3550
Wire Bus Line
	10950 3600 10850 3600
Wire Bus Line
	10850 3650 10950 3650
Wire Bus Line
	10850 3700 10950 3700
Wire Bus Line
	10850 3750 10950 3750
Entry Bus Bus
	10950 4050 11050 4150
Entry Bus Bus
	10950 4100 11050 4200
Entry Bus Bus
	10950 4150 11050 4250
Entry Bus Bus
	10950 4200 11050 4300
Entry Bus Bus
	10950 4250 11050 4350
Entry Bus Bus
	10950 4300 11050 4400
Entry Bus Bus
	10950 4350 11050 4450
Entry Bus Bus
	10950 4400 11050 4500
Entry Bus Bus
	10950 4450 11050 4550
Entry Bus Bus
	10950 4500 11050 4600
Entry Bus Bus
	10950 4550 11050 4650
Entry Bus Bus
	10950 4600 11050 4700
Entry Bus Bus
	10950 4650 11050 4750
Wire Bus Line
	10850 4050 10950 4050
Wire Bus Line
	10950 4100 10850 4100
Wire Bus Line
	10850 4150 10950 4150
Wire Bus Line
	10850 4200 10950 4200
Wire Bus Line
	10850 4250 10950 4250
Wire Bus Line
	10950 4300 10850 4300
Wire Bus Line
	10850 4350 10950 4350
Wire Bus Line
	10850 4400 10950 4400
Wire Bus Line
	10850 4450 10950 4450
Wire Bus Line
	10950 4500 10850 4500
Wire Bus Line
	10850 4550 10950 4550
Wire Bus Line
	10850 4600 10950 4600
Wire Bus Line
	10850 4650 10950 4650
Wire Bus Line
	1150 3150 1350 3150
Wire Bus Line
	5050 3300 5200 3300
Wire Bus Line
	3900 5250 3750 5250
$Sheet
S 1100 1000 700  450 
U 607AA45D
F0 "group1" 50
F1 "group1.sch" 50
F2 "VIN_g1" I L 1100 1250 50 
F3 "1V4_[1..10]" O L 1100 1050 50 
F4 "3V3_[1..10]" O L 1100 1150 50 
F5 "LREGEN[1..10]" I L 1100 1350 50 
$EndSheet
Wire Bus Line
	1100 1350 1050 1350
$Sheet
S 2400 1000 700  450 
U 607B490E
F0 "group2" 50
F1 "group2.sch" 50
F2 "VIN_g2" I L 2400 1250 50 
F3 "1V4_[11..20]" O L 2400 1050 50 
F4 "3V3_[11..20]" O L 2400 1150 50 
F5 "LREGEN[1..10]" I L 2400 1350 50 
$EndSheet
Text Label 2350 1350 2    50   ~ 0
LREGEN[1..10]
Wire Bus Line
	2400 1350 2350 1350
Text Label 3650 1350 2    50   ~ 0
LREGEN[1..10]
Wire Bus Line
	3700 1350 3650 1350
Text Label 5000 1350 2    50   ~ 0
LREGEN[1..10]
Wire Bus Line
	5050 1350 5000 1350
Text Label 6350 1350 2    50   ~ 0
LREGEN[1..10]
Wire Bus Line
	6400 1350 6350 1350
Text Label 7700 1350 2    50   ~ 0
LREGEN[1..10]
Wire Bus Line
	7750 1350 7700 1350
Text Label 9050 1350 2    50   ~ 0
LREGEN[1..10]
Wire Bus Line
	9100 1350 9050 1350
Text Label 1050 2150 2    50   ~ 0
LREGEN[1..10]
Wire Bus Line
	1100 2150 1050 2150
Text Label 2350 2150 2    50   ~ 0
LREGEN[1..10]
Wire Bus Line
	2400 2150 2350 2150
Text Label 3650 2150 2    50   ~ 0
LREGEN[1..10]
Wire Bus Line
	3700 2150 3650 2150
Text Label 5000 2150 2    50   ~ 0
LREGEN[1..10]
Wire Bus Line
	5050 2150 5000 2150
Text Label 6350 2150 2    50   ~ 0
LREGEN[1..10]
Wire Bus Line
	6400 2150 6350 2150
Text Label 7700 2150 2    50   ~ 0
LREGEN[1..10]
Wire Bus Line
	7750 2150 7700 2150
$Comp
L Mechanical:MountingHole H3
U 1 1 60722A7C
P 8000 5500
F 0 "H3" H 8100 5546 50  0000 L CNN
F 1 "MountingHole" H 8100 5455 50  0000 L CNN
F 2 "MountingHole:MountingHole_4mm" H 8000 5500 50  0001 C CNN
F 3 "~" H 8000 5500 50  0001 C CNN
	1    8000 5500
	1    0    0    -1  
$EndComp
$Comp
L Mechanical:MountingHole H2
U 1 1 60722830
P 8500 5050
F 0 "H2" H 8600 5096 50  0000 L CNN
F 1 "MountingHole" H 8600 5005 50  0000 L CNN
F 2 "MountingHole:MountingHole_4mm" H 8500 5050 50  0001 C CNN
F 3 "~" H 8500 5050 50  0001 C CNN
	1    8500 5050
	1    0    0    -1  
$EndComp
$Comp
L Mechanical:MountingHole H5
U 1 1 60722647
P 8450 6000
F 0 "H5" H 8550 6046 50  0000 L CNN
F 1 "MountingHole" H 8550 5955 50  0000 L CNN
F 2 "MountingHole:MountingHole_4mm" H 8450 6000 50  0001 C CNN
F 3 "~" H 8450 6000 50  0001 C CNN
	1    8450 6000
	1    0    0    -1  
$EndComp
$Comp
L Mechanical:MountingHole H4
U 1 1 60722394
P 7500 5950
F 0 "H4" H 7600 5996 50  0000 L CNN
F 1 "MountingHole" H 7600 5905 50  0000 L CNN
F 2 "MountingHole:MountingHole_4mm" H 7500 5950 50  0001 C CNN
F 3 "~" H 7500 5950 50  0001 C CNN
	1    7500 5950
	1    0    0    -1  
$EndComp
$Comp
L Mechanical:MountingHole H1
U 1 1 6072146F
P 7500 5050
F 0 "H1" H 7600 5096 50  0000 L CNN
F 1 "MountingHole" H 7600 5005 50  0000 L CNN
F 2 "MountingHole:MountingHole_4mm" H 7500 5050 50  0001 C CNN
F 3 "~" H 7500 5050 50  0001 C CNN
	1    7500 5050
	1    0    0    -1  
$EndComp
$Sheet
S 3100 6100 600  400 
U 609E49D6
F0 "I2CMux" 50
F1 "I2CMux.sch" 50
F2 "SCL" I L 3100 6150 50 
F3 "SDA" I L 3100 6250 50 
F4 "SCL0" O R 3700 6150 50 
F5 "SCL1" O R 3700 6250 50 
F6 "SDA0" O R 3700 6350 50 
F7 "SDA1" O R 3700 6450 50 
$EndSheet
Text Label 2900 6250 2    50   ~ 0
SDA
Wire Wire Line
	3100 6250 2900 6250
Text Label 2900 6150 2    50   ~ 0
SCL
Wire Wire Line
	2900 6150 3100 6150
Text Label 3900 6150 0    50   ~ 0
SCL0
Text Label 3900 6250 0    50   ~ 0
SCL1
Text Label 3900 6350 0    50   ~ 0
SDA0
Text Label 3900 6450 0    50   ~ 0
SDA1
Wire Wire Line
	3700 6150 3900 6150
Wire Wire Line
	3900 6250 3700 6250
Wire Wire Line
	3900 6350 3700 6350
Wire Wire Line
	3900 6450 3700 6450
Wire Bus Line
	11050 1300 11050 2750
Wire Bus Line
	11050 3150 11050 3900
Wire Bus Line
	11050 4050 11050 4800
$EndSCHEMATC
