EESchema Schematic File Version 4
EELAYER 30 0
EELAYER END
$Descr A4 11693 8268
encoding utf-8
Sheet 14 20
Title "linPOL qualification board"
Date "2021-04-04"
Rev "v1"
Comp "LBNL"
Comment1 "Zhicai Zhang"
Comment2 ""
Comment3 ""
Comment4 ""
$EndDescr
$Comp
L Device:R R?
U 1 1 5B3EBAD1
P 2100 950
AR Path="/607018B9/5B3EBAD1" Ref="R?"  Part="1" 
AR Path="/607970C6/607990F2/5B3EBAD1" Ref="R?"  Part="1" 
AR Path="/60809D83/5B3EBAD1" Ref="R777"  Part="1" 
F 0 "R777" V 2180 950 50  0000 C CNN
F 1 "5m" V 2100 950 50  0000 C CNN
F 2 "Resistor_SMD:R_2512_6332Metric" V 2030 950 50  0001 C CNN
F 3 "" H 2100 950 50  0001 C CNN
F 4 "CSR2512B0R005F" V 2100 950 50  0001 C CNN "mfg#"
	1    2100 950 
	0    1    1    0   
$EndComp
Wire Wire Line
	2600 1950 2500 1950
Wire Wire Line
	2800 2300 2800 2150
Wire Wire Line
	3200 1850 3250 1850
$Comp
L Device:R R?
U 1 1 5B3ECB50
P 4250 1250
AR Path="/607018B9/5B3ECB50" Ref="R?"  Part="1" 
AR Path="/607970C6/607990F2/5B3ECB50" Ref="R?"  Part="1" 
AR Path="/60809D83/5B3ECB50" Ref="R778"  Part="1" 
F 0 "R778" V 4330 1250 50  0000 C CNN
F 1 "90.9k" V 4250 1250 50  0000 C CNN
F 2 "Resistor_SMD:R_0805_2012Metric" V 4180 1250 50  0001 C CNN
F 3 "" H 4250 1250 50  0001 C CNN
F 4 "CRCW080590K9FKEA" V 4250 1250 50  0001 C CNN "mfg#"
	1    4250 1250
	1    0    0    -1  
$EndComp
$Comp
L Device:R R?
U 1 1 5B3ECBA1
P 4250 2100
AR Path="/607018B9/5B3ECBA1" Ref="R?"  Part="1" 
AR Path="/607970C6/607990F2/5B3ECBA1" Ref="R?"  Part="1" 
AR Path="/60809D83/5B3ECBA1" Ref="R780"  Part="1" 
F 0 "R780" V 4330 2100 50  0000 C CNN
F 1 "23.2k" V 4250 2100 50  0000 C CNN
F 2 "Resistor_SMD:R_0805_2012Metric" V 4180 2100 50  0001 C CNN
F 3 "" H 4250 2100 50  0001 C CNN
F 4 "CRCW080534K8FKEA" V 4250 2100 50  0001 C CNN "mfg#"
	1    4250 2100
	1    0    0    -1  
$EndComp
Wire Wire Line
	4250 1400 4250 1450
Connection ~ 4250 1450
$Comp
L Device:R R?
U 1 1 5B400DC4
P 3250 2100
AR Path="/607018B9/5B400DC4" Ref="R?"  Part="1" 
AR Path="/607970C6/607990F2/5B400DC4" Ref="R?"  Part="1" 
AR Path="/60809D83/5B400DC4" Ref="R779"  Part="1" 
F 0 "R779" V 3330 2100 50  0000 C CNN
F 1 "140k" V 3250 2100 50  0000 C CNN
F 2 "Resistor_SMD:R_0805_2012Metric" V 3180 2100 50  0001 C CNN
F 3 "" H 3250 2100 50  0001 C CNN
F 4 "CRCW0805249KFKEA" V 3250 2100 50  0001 C CNN "mfg#"
	1    3250 2100
	1    0    0    -1  
$EndComp
Wire Wire Line
	3250 1950 3250 1850
Connection ~ 3250 1850
Wire Wire Line
	3250 2250 3250 2300
$Comp
L power:GND #PWR?
U 1 1 5B400F1D
P 3250 2500
AR Path="/607018B9/5B400F1D" Ref="#PWR?"  Part="1" 
AR Path="/607970C6/607990F2/5B400F1D" Ref="#PWR?"  Part="1" 
AR Path="/60809D83/5B400F1D" Ref="#PWR0151"  Part="1" 
F 0 "#PWR0151" H 3250 2250 50  0001 C CNN
F 1 "GND" H 3250 2350 50  0000 C CNN
F 2 "" H 3250 2500 50  0001 C CNN
F 3 "" H 3250 2500 50  0001 C CNN
	1    3250 2500
	1    0    0    -1  
$EndComp
$Comp
L Amplifier_Current:INA138 U?
U 1 1 5CA51E1F
P 2900 1850
AR Path="/607018B9/5CA51E1F" Ref="U?"  Part="1" 
AR Path="/607970C6/607990F2/5CA51E1F" Ref="U?"  Part="1" 
AR Path="/60809D83/5CA51E1F" Ref="U134"  Part="1" 
F 0 "U134" H 2900 2100 50  0000 L CNN
F 1 "INA168" H 2900 2000 50  0000 L CNN
F 2 "Package_TO_SOT_SMD:SOT-23-5" H 2900 1850 50  0001 C CNN
F 3 "http://www.ti.com/lit/ds/symlink/ina138.pdf" H 2900 1855 50  0001 C CNN
F 4 "INA168NA/250G4" H 2900 1850 50  0001 C CNN "mfg#"
	1    2900 1850
	1    0    0    -1  
$EndComp
$Comp
L Device:C C?
U 1 1 5D1F86B5
P 3550 2100
AR Path="/607018B9/5D1F86B5" Ref="C?"  Part="1" 
AR Path="/607970C6/607990F2/5D1F86B5" Ref="C?"  Part="1" 
AR Path="/60809D83/5D1F86B5" Ref="C391"  Part="1" 
F 0 "C391" H 3665 2146 50  0000 L CNN
F 1 "1uF" H 3665 2055 50  0000 L CNN
F 2 "Capacitor_SMD:C_0805_2012Metric" H 3588 1950 50  0001 C CNN
F 3 "~" H 3550 2100 50  0001 C CNN
F 4 "CL21B105KAFNNNE" H 3550 2100 50  0001 C CNN "mfg#"
	1    3550 2100
	1    0    0    -1  
$EndComp
Wire Wire Line
	3550 2300 3550 2250
$Comp
L Device:C C?
U 1 1 5D2003AB
P 4650 2100
AR Path="/607018B9/5D2003AB" Ref="C?"  Part="1" 
AR Path="/607970C6/607990F2/5D2003AB" Ref="C?"  Part="1" 
AR Path="/60809D83/5D2003AB" Ref="C392"  Part="1" 
F 0 "C392" H 4765 2146 50  0000 L CNN
F 1 "1uF" H 4765 2055 50  0000 L CNN
F 2 "Capacitor_SMD:C_0805_2012Metric" H 4688 1950 50  0001 C CNN
F 3 "~" H 4650 2100 50  0001 C CNN
	1    4650 2100
	1    0    0    -1  
$EndComp
Wire Wire Line
	4650 2300 4650 2250
Wire Wire Line
	1950 950  1800 950 
Wire Wire Line
	1800 1750 1800 950 
Wire Wire Line
	1800 1750 2600 1750
Connection ~ 1800 950 
Wire Wire Line
	1800 950  1600 950 
Wire Wire Line
	2500 1950 2500 950 
Wire Wire Line
	2500 950  2250 950 
Wire Wire Line
	4250 950  4250 1100
Connection ~ 2500 950 
Wire Wire Line
	2500 950  4250 950 
Wire Wire Line
	2800 2300 3250 2300
Connection ~ 3250 2300
Wire Wire Line
	3250 2300 3550 2300
Wire Wire Line
	3250 2300 3250 2500
Wire Wire Line
	3550 1850 3550 1950
Wire Wire Line
	3250 1850 3550 1850
Connection ~ 3550 2300
Text HLabel 4800 1450 2    50   Output ~ 0
VIN_volt
Wire Wire Line
	4250 1450 4800 1450
Wire Wire Line
	3550 2300 4250 2300
Wire Wire Line
	4250 2300 4250 2250
Connection ~ 4250 2300
Wire Wire Line
	4250 2300 4650 2300
Wire Wire Line
	4250 1450 4250 1700
Wire Wire Line
	4650 1950 4650 1700
Wire Wire Line
	4650 1700 4250 1700
Connection ~ 4250 1700
Wire Wire Line
	4250 1700 4250 1950
Text HLabel 3700 1850 2    50   Output ~ 0
VIN_curr
Wire Wire Line
	3700 1850 3550 1850
Connection ~ 3550 1850
$Comp
L power:GND #PWR?
U 1 1 607D50DF
P 800 1250
AR Path="/607018B9/607D50DF" Ref="#PWR?"  Part="1" 
AR Path="/607970C6/607990F2/607D50DF" Ref="#PWR?"  Part="1" 
AR Path="/60809D83/607D50DF" Ref="#PWR0147"  Part="1" 
F 0 "#PWR0147" H 800 1000 50  0001 C CNN
F 1 "GND" H 805 1077 50  0000 C CNN
F 2 "" H 800 1250 50  0001 C CNN
F 3 "" H 800 1250 50  0001 C CNN
	1    800  1250
	1    0    0    -1  
$EndComp
Wire Wire Line
	1100 950  800  950 
Wire Wire Line
	800  950  800  1250
Wire Wire Line
	2800 1300 2800 1550
$Comp
L Device:C C?
U 1 1 607A2D02
P 1500 3250
AR Path="/607018B9/607A2D02" Ref="C?"  Part="1" 
AR Path="/607970C6/607990F2/607A2D02" Ref="C?"  Part="1" 
AR Path="/60809D83/607A2D02" Ref="C394"  Part="1" 
F 0 "C394" H 1500 3350 50  0000 L CNN
F 1 "1uF" H 1500 3150 50  0000 L CNN
F 2 "Capacitor_SMD:C_0805_2012Metric" H 1538 3100 50  0001 C CNN
F 3 "~" H 1500 3250 50  0001 C CNN
	1    1500 3250
	1    0    0    -1  
$EndComp
$Comp
L power:GND #PWR?
U 1 1 607A2D08
P 1500 3550
AR Path="/607018B9/607A2D08" Ref="#PWR?"  Part="1" 
AR Path="/607970C6/607990F2/607A2D08" Ref="#PWR?"  Part="1" 
AR Path="/60809D83/607A2D08" Ref="#PWR0154"  Part="1" 
F 0 "#PWR0154" H 1500 3300 50  0001 C CNN
F 1 "GND" H 1505 3377 50  0000 C CNN
F 2 "" H 1500 3550 50  0001 C CNN
F 3 "" H 1500 3550 50  0001 C CNN
	1    1500 3550
	1    0    0    -1  
$EndComp
Wire Wire Line
	1500 3550 1500 3400
Wire Wire Line
	1500 3100 1500 3000
Text Notes 2850 1500 0    50   ~ 0
VIN_curr = 128*0.12A*5m*140k/5k\n         = 2.15 V
Text Notes 4350 1700 0    50   ~ 0
VIN_volt = 11 V * 23.2/(23.2+90.9) \n         = 2.24 V
Text Label 4750 950  0    50   ~ 0
VIN
Wire Wire Line
	4750 950  4250 950 
Connection ~ 4250 950 
Text Label 7950 5550 2    50   ~ 0
VIN
$Comp
L Connector_Generic:Conn_02x13_Odd_Even J?
U 1 1 6087C5C6
P 8450 5550
AR Path="/607018B9/6087C5C6" Ref="J?"  Part="1" 
AR Path="/607970C6/607990F2/6087C5C6" Ref="J?"  Part="1" 
AR Path="/60809D83/6087C5C6" Ref="J69"  Part="1" 
F 0 "J69" H 8500 6367 50  0000 C CNN
F 1 "Conn_02x13_Odd_Even" H 8500 6276 50  0000 C CNN
F 2 "Connector_PinHeader_2.54mm:PinHeader_2x13_P2.54mm_Vertical_SMD" H 8450 5550 50  0001 C CNN
F 3 "~" H 8450 5550 50  0001 C CNN
	1    8450 5550
	1    0    0    -1  
$EndComp
Wire Wire Line
	8250 4950 8250 5050
Wire Wire Line
	8250 5050 8250 5150
Connection ~ 8250 5050
Wire Wire Line
	8250 5150 8250 5250
Connection ~ 8250 5150
Wire Wire Line
	8250 5250 8250 5350
Connection ~ 8250 5250
Wire Wire Line
	8250 5350 8250 5450
Connection ~ 8250 5350
Wire Wire Line
	8250 5450 8250 5550
Connection ~ 8250 5450
Wire Wire Line
	8250 5550 8250 5650
Connection ~ 8250 5550
Wire Wire Line
	8250 5650 8250 5750
Connection ~ 8250 5650
Wire Wire Line
	8250 5750 8250 5850
Connection ~ 8250 5750
Wire Wire Line
	8250 5850 8250 5950
Connection ~ 8250 5850
Wire Wire Line
	8250 5950 8250 6050
Connection ~ 8250 5950
Wire Wire Line
	8250 6050 8250 6150
Connection ~ 8250 6050
Wire Wire Line
	7950 5550 8250 5550
Text Label 8950 4950 0    50   ~ 0
VIN_g1
Wire Wire Line
	8950 4950 8750 4950
Text Label 8950 5050 0    50   ~ 0
VIN_g2
Wire Wire Line
	8950 5050 8750 5050
Text Label 8950 5150 0    50   ~ 0
VIN_g3
Wire Wire Line
	8950 5150 8750 5150
Text Label 8950 5250 0    50   ~ 0
VIN_g4
Wire Wire Line
	8950 5250 8750 5250
Text Label 8950 5350 0    50   ~ 0
VIN_g5
Wire Wire Line
	8950 5350 8750 5350
Text Label 8950 5450 0    50   ~ 0
VIN_g6
Wire Wire Line
	8950 5450 8750 5450
Text Label 8950 5650 0    50   ~ 0
VIN_g7
Wire Wire Line
	8950 5650 8750 5650
Text Label 8950 5750 0    50   ~ 0
VIN_g8
Wire Wire Line
	8950 5750 8750 5750
Text Label 8950 5850 0    50   ~ 0
VIN_g9
Wire Wire Line
	8950 5850 8750 5850
Text Label 8950 5950 0    50   ~ 0
VIN_g10
Wire Wire Line
	8950 5950 8750 5950
Text Label 8950 6050 0    50   ~ 0
VIN_g11
Wire Wire Line
	8950 6050 8750 6050
Text Label 8950 6150 0    50   ~ 0
VIN_g12
Wire Wire Line
	8950 6150 8750 6150
Text Label 8950 5550 0    50   ~ 0
VIN_g13
Wire Wire Line
	8950 5550 8750 5550
Entry Wire Line
	10300 3950 10400 4050
Entry Wire Line
	10300 4100 10400 4200
Entry Wire Line
	10300 4250 10400 4350
Entry Wire Line
	10300 4400 10400 4500
Entry Wire Line
	10300 4550 10400 4650
Entry Wire Line
	10300 4700 10400 4800
Entry Wire Line
	10300 4850 10400 4950
Entry Wire Line
	10300 5000 10400 5100
Entry Wire Line
	10300 5150 10400 5250
Entry Wire Line
	10300 5300 10400 5400
Entry Wire Line
	10300 5450 10400 5550
Entry Wire Line
	10300 5600 10400 5700
Entry Wire Line
	10300 5750 10400 5850
Text Label 10150 3950 2    50   ~ 0
VIN_g1
Wire Wire Line
	10150 3950 10300 3950
Text Label 10150 4100 2    50   ~ 0
VIN_g2
Wire Wire Line
	10150 4100 10300 4100
Text Label 10150 4250 2    50   ~ 0
VIN_g3
Wire Wire Line
	10150 4250 10300 4250
Text Label 10150 4400 2    50   ~ 0
VIN_g4
Wire Wire Line
	10150 4400 10300 4400
Text Label 10150 4550 2    50   ~ 0
VIN_g5
Wire Wire Line
	10150 4550 10300 4550
Text Label 10150 4700 2    50   ~ 0
VIN_g6
Wire Wire Line
	10150 4700 10300 4700
Text Label 10150 4850 2    50   ~ 0
VIN_g7
Wire Wire Line
	10150 4850 10300 4850
Text Label 10150 5000 2    50   ~ 0
VIN_g8
Wire Wire Line
	10150 5000 10300 5000
Text Label 10150 5150 2    50   ~ 0
VIN_g9
Wire Wire Line
	10150 5150 10300 5150
Text Label 10150 5300 2    50   ~ 0
VIN_g10
Wire Wire Line
	10150 5300 10300 5300
Text Label 10150 5450 2    50   ~ 0
VIN_g11
Wire Wire Line
	10150 5450 10300 5450
Text Label 10150 5600 2    50   ~ 0
VIN_g12
Wire Wire Line
	10150 5600 10300 5600
Text Label 10150 5750 2    50   ~ 0
VIN_g13
Wire Wire Line
	10150 5750 10300 5750
Text HLabel 10200 6050 0    50   Output ~ 0
VIN_g[1..13]
Wire Bus Line
	10400 6050 10200 6050
$Comp
L power:+3V3 #PWR?
U 1 1 6098CDD4
P 1500 2900
AR Path="/607018B9/6098CDD4" Ref="#PWR?"  Part="1" 
AR Path="/607970C6/607990F2/6098CDD4" Ref="#PWR?"  Part="1" 
AR Path="/60809D83/6098CDD4" Ref="#PWR0152"  Part="1" 
F 0 "#PWR0152" H 1500 2750 50  0001 C CNN
F 1 "+3V3" H 1515 3073 50  0000 C CNN
F 2 "" H 1500 2900 50  0001 C CNN
F 3 "" H 1500 2900 50  0001 C CNN
	1    1500 2900
	1    0    0    -1  
$EndComp
$Comp
L power:+3V3 #PWR?
U 1 1 609A1C72
P 2800 1300
AR Path="/607018B9/609A1C72" Ref="#PWR?"  Part="1" 
AR Path="/607970C6/607990F2/609A1C72" Ref="#PWR?"  Part="1" 
AR Path="/60809D83/609A1C72" Ref="#PWR0148"  Part="1" 
F 0 "#PWR0148" H 2800 1150 50  0001 C CNN
F 1 "+3V3" H 2815 1473 50  0000 C CNN
F 2 "" H 2800 1300 50  0001 C CNN
F 3 "" H 2800 1300 50  0001 C CNN
	1    2800 1300
	1    0    0    -1  
$EndComp
$Comp
L power:+3V3 #PWR?
U 1 1 60A7A8AA
P 3300 6600
AR Path="/60A7A8AA" Ref="#PWR?"  Part="1" 
AR Path="/607018B9/60A7A8AA" Ref="#PWR?"  Part="1" 
AR Path="/607970C6/607990F2/60A7A8AA" Ref="#PWR?"  Part="1" 
AR Path="/60809D83/60A7A8AA" Ref="#PWR0146"  Part="1" 
F 0 "#PWR0146" H 3300 6450 50  0001 C CNN
F 1 "+3V3" H 3315 6773 50  0000 C CNN
F 2 "" H 3300 6600 50  0001 C CNN
F 3 "" H 3300 6600 50  0001 C CNN
	1    3300 6600
	1    0    0    -1  
$EndComp
Text Notes 8050 6350 0    50   ~ 0
Toggle groups of linPOLs
$Comp
L Device:C C?
U 1 1 60B47BD5
P 1150 3250
AR Path="/607018B9/60B47BD5" Ref="C?"  Part="1" 
AR Path="/607970C6/607990F2/60B47BD5" Ref="C?"  Part="1" 
AR Path="/60809D83/60B47BD5" Ref="C393"  Part="1" 
F 0 "C393" H 1150 3350 50  0000 L CNN
F 1 "0.1uF" H 1150 3150 50  0000 L CNN
F 2 "Capacitor_SMD:C_0805_2012Metric" H 1188 3100 50  0001 C CNN
F 3 "~" H 1150 3250 50  0001 C CNN
	1    1150 3250
	1    0    0    -1  
$EndComp
Wire Wire Line
	1150 3400 1500 3400
Connection ~ 1500 3400
Wire Wire Line
	1150 3100 1150 3000
Wire Wire Line
	1500 3000 1150 3000
Connection ~ 1500 3000
Wire Wire Line
	1500 3000 1500 2900
$Comp
L power:GND #PWR?
U 1 1 60B58786
P 2000 3750
AR Path="/607018B9/60B58786" Ref="#PWR?"  Part="1" 
AR Path="/607970C6/607990F2/60B58786" Ref="#PWR?"  Part="1" 
AR Path="/60809D83/60B58786" Ref="#PWR0155"  Part="1" 
F 0 "#PWR0155" H 2000 3500 50  0001 C CNN
F 1 "GND" H 2005 3577 50  0000 C CNN
F 2 "" H 2000 3750 50  0001 C CNN
F 3 "" H 2000 3750 50  0001 C CNN
	1    2000 3750
	1    0    0    -1  
$EndComp
$Comp
L Device:C C?
U 1 1 60B65DD1
P 2800 3450
AR Path="/607018B9/60B65DD1" Ref="C?"  Part="1" 
AR Path="/607970C6/607990F2/60B65DD1" Ref="C?"  Part="1" 
AR Path="/60809D83/60B65DD1" Ref="C395"  Part="1" 
F 0 "C395" H 2800 3550 50  0000 L CNN
F 1 "1uF" H 2800 3350 50  0000 L CNN
F 2 "Capacitor_SMD:C_0805_2012Metric" H 2838 3300 50  0001 C CNN
F 3 "~" H 2800 3450 50  0001 C CNN
	1    2800 3450
	1    0    0    -1  
$EndComp
$Comp
L power:GND #PWR?
U 1 1 60B69022
P 2800 3800
AR Path="/607018B9/60B69022" Ref="#PWR?"  Part="1" 
AR Path="/607970C6/607990F2/60B69022" Ref="#PWR?"  Part="1" 
AR Path="/60809D83/60B69022" Ref="#PWR0156"  Part="1" 
F 0 "#PWR0156" H 2800 3550 50  0001 C CNN
F 1 "GND" H 2805 3627 50  0000 C CNN
F 2 "" H 2800 3800 50  0001 C CNN
F 3 "" H 2800 3800 50  0001 C CNN
	1    2800 3800
	1    0    0    -1  
$EndComp
Wire Wire Line
	2800 3800 2800 3600
$Comp
L power:+2V5 #PWR?
U 1 1 60B73D07
P 2800 3000
AR Path="/607018B9/60B73D07" Ref="#PWR?"  Part="1" 
AR Path="/607970C6/607990F2/60B73D07" Ref="#PWR?"  Part="1" 
AR Path="/60809D83/60B73D07" Ref="#PWR0153"  Part="1" 
F 0 "#PWR0153" H 2800 2850 50  0001 C CNN
F 1 "+2V5" H 2815 3173 50  0000 C CNN
F 2 "" H 2800 3000 50  0001 C CNN
F 3 "" H 2800 3000 50  0001 C CNN
	1    2800 3000
	1    0    0    -1  
$EndComp
$Comp
L power:+3V3 #PWR?
U 1 1 6091B36E
P 5150 5100
AR Path="/607018B9/6091B36E" Ref="#PWR?"  Part="1" 
AR Path="/607970C6/607990F2/6091B36E" Ref="#PWR?"  Part="1" 
AR Path="/60809D83/6091B36E" Ref="#PWR0157"  Part="1" 
F 0 "#PWR0157" H 5150 4950 50  0001 C CNN
F 1 "+3V3" H 5165 5273 50  0000 C CNN
F 2 "" H 5150 5100 50  0001 C CNN
F 3 "" H 5150 5100 50  0001 C CNN
	1    5150 5100
	1    0    0    -1  
$EndComp
$Comp
L Device:R R?
U 1 1 6091BC52
P 5150 5500
AR Path="/607018B9/6091BC52" Ref="R?"  Part="1" 
AR Path="/607970C6/607990F2/6091BC52" Ref="R?"  Part="1" 
AR Path="/60809D83/6091BC52" Ref="R781"  Part="1" 
F 0 "R781" V 5250 5450 50  0000 L CNN
F 1 "3.24k" V 5150 5400 50  0000 L CNN
F 2 "Resistor_SMD:R_0805_2012Metric" V 5080 5500 50  0001 C CNN
F 3 "~" H 5150 5500 50  0001 C CNN
	1    5150 5500
	1    0    0    -1  
$EndComp
$Comp
L power:GND #PWR?
U 1 1 6091C750
P 5150 6300
AR Path="/607018B9/6091C750" Ref="#PWR?"  Part="1" 
AR Path="/607970C6/607990F2/6091C750" Ref="#PWR?"  Part="1" 
AR Path="/60809D83/6091C750" Ref="#PWR0164"  Part="1" 
F 0 "#PWR0164" H 5150 6050 50  0001 C CNN
F 1 "GND" H 5155 6127 50  0000 C CNN
F 2 "" H 5150 6300 50  0001 C CNN
F 3 "" H 5150 6300 50  0001 C CNN
	1    5150 6300
	1    0    0    -1  
$EndComp
$Comp
L Device:LED D?
U 1 1 6092418F
P 5150 6000
AR Path="/607018B9/6092418F" Ref="D?"  Part="1" 
AR Path="/607970C6/607990F2/6092418F" Ref="D?"  Part="1" 
AR Path="/60809D83/6092418F" Ref="D1"  Part="1" 
F 0 "D1" V 5189 5882 50  0000 R CNN
F 1 "LED" V 5098 5882 50  0000 R CNN
F 2 "LED_SMD:LED_1206_3216Metric_Pad1.42x1.75mm_HandSolder" H 5150 6000 50  0001 C CNN
F 3 "~" H 5150 6000 50  0001 C CNN
	1    5150 6000
	0    -1   -1   0   
$EndComp
Wire Wire Line
	5150 5100 5150 5300
Wire Wire Line
	5150 5650 5150 5850
Wire Wire Line
	5150 6150 5150 6300
$Comp
L Device:R R?
U 1 1 60937BE2
P 5550 5500
AR Path="/607018B9/60937BE2" Ref="R?"  Part="1" 
AR Path="/607970C6/607990F2/60937BE2" Ref="R?"  Part="1" 
AR Path="/60809D83/60937BE2" Ref="R782"  Part="1" 
F 0 "R782" V 5650 5450 50  0000 L CNN
F 1 "3.24k" V 5550 5400 50  0000 L CNN
F 2 "Resistor_SMD:R_0805_2012Metric" V 5480 5500 50  0001 C CNN
F 3 "~" H 5550 5500 50  0001 C CNN
	1    5550 5500
	1    0    0    -1  
$EndComp
$Comp
L power:GND #PWR?
U 1 1 60937BE8
P 5550 6300
AR Path="/607018B9/60937BE8" Ref="#PWR?"  Part="1" 
AR Path="/607970C6/607990F2/60937BE8" Ref="#PWR?"  Part="1" 
AR Path="/60809D83/60937BE8" Ref="#PWR0165"  Part="1" 
F 0 "#PWR0165" H 5550 6050 50  0001 C CNN
F 1 "GND" H 5555 6127 50  0000 C CNN
F 2 "" H 5550 6300 50  0001 C CNN
F 3 "" H 5550 6300 50  0001 C CNN
	1    5550 6300
	1    0    0    -1  
$EndComp
$Comp
L Device:LED D?
U 1 1 60937BEE
P 5550 6000
AR Path="/607018B9/60937BEE" Ref="D?"  Part="1" 
AR Path="/607970C6/607990F2/60937BEE" Ref="D?"  Part="1" 
AR Path="/60809D83/60937BEE" Ref="D2"  Part="1" 
F 0 "D2" V 5589 5882 50  0000 R CNN
F 1 "LED" V 5498 5882 50  0000 R CNN
F 2 "LED_SMD:LED_1206_3216Metric_Pad1.42x1.75mm_HandSolder" H 5550 6000 50  0001 C CNN
F 3 "~" H 5550 6000 50  0001 C CNN
	1    5550 6000
	0    -1   -1   0   
$EndComp
Wire Wire Line
	5550 5100 5550 5350
Wire Wire Line
	5550 5650 5550 5850
Wire Wire Line
	5550 6150 5550 6300
$Comp
L Device:R R?
U 1 1 6093CF43
P 5900 5500
AR Path="/607018B9/6093CF43" Ref="R?"  Part="1" 
AR Path="/607970C6/607990F2/6093CF43" Ref="R?"  Part="1" 
AR Path="/60809D83/6093CF43" Ref="R783"  Part="1" 
F 0 "R783" V 6000 5450 50  0000 L CNN
F 1 "3.24k" V 5900 5400 50  0000 L CNN
F 2 "Resistor_SMD:R_0805_2012Metric" V 5830 5500 50  0001 C CNN
F 3 "~" H 5900 5500 50  0001 C CNN
	1    5900 5500
	1    0    0    -1  
$EndComp
$Comp
L power:GND #PWR?
U 1 1 6093CF49
P 5900 6300
AR Path="/607018B9/6093CF49" Ref="#PWR?"  Part="1" 
AR Path="/607970C6/607990F2/6093CF49" Ref="#PWR?"  Part="1" 
AR Path="/60809D83/6093CF49" Ref="#PWR0166"  Part="1" 
F 0 "#PWR0166" H 5900 6050 50  0001 C CNN
F 1 "GND" H 5905 6127 50  0000 C CNN
F 2 "" H 5900 6300 50  0001 C CNN
F 3 "" H 5900 6300 50  0001 C CNN
	1    5900 6300
	1    0    0    -1  
$EndComp
$Comp
L Device:LED D?
U 1 1 6093CF4F
P 5900 6000
AR Path="/607018B9/6093CF4F" Ref="D?"  Part="1" 
AR Path="/607970C6/607990F2/6093CF4F" Ref="D?"  Part="1" 
AR Path="/60809D83/6093CF4F" Ref="D3"  Part="1" 
F 0 "D3" V 5939 5882 50  0000 R CNN
F 1 "LED" V 5848 5882 50  0000 R CNN
F 2 "LED_SMD:LED_1206_3216Metric_Pad1.42x1.75mm_HandSolder" H 5900 6000 50  0001 C CNN
F 3 "~" H 5900 6000 50  0001 C CNN
	1    5900 6000
	0    -1   -1   0   
$EndComp
Wire Wire Line
	5900 5100 5900 5350
Wire Wire Line
	5900 5650 5900 5850
Wire Wire Line
	5900 6150 5900 6300
$Comp
L power:+3V0 #PWR?
U 1 1 60942603
P 5550 5100
AR Path="/607018B9/60942603" Ref="#PWR?"  Part="1" 
AR Path="/607970C6/607990F2/60942603" Ref="#PWR?"  Part="1" 
AR Path="/60809D83/60942603" Ref="#PWR0158"  Part="1" 
F 0 "#PWR0158" H 5550 4950 50  0001 C CNN
F 1 "+3V0" H 5565 5273 50  0000 C CNN
F 2 "" H 5550 5100 50  0001 C CNN
F 3 "" H 5550 5100 50  0001 C CNN
	1    5550 5100
	1    0    0    -1  
$EndComp
$Comp
L power:+2V5 #PWR?
U 1 1 60942FF1
P 5900 5100
AR Path="/607018B9/60942FF1" Ref="#PWR?"  Part="1" 
AR Path="/607970C6/607990F2/60942FF1" Ref="#PWR?"  Part="1" 
AR Path="/60809D83/60942FF1" Ref="#PWR0159"  Part="1" 
F 0 "#PWR0159" H 5900 4950 50  0001 C CNN
F 1 "+2V5" H 5915 5273 50  0000 C CNN
F 2 "" H 5900 5100 50  0001 C CNN
F 3 "" H 5900 5100 50  0001 C CNN
	1    5900 5100
	1    0    0    -1  
$EndComp
Text Notes 4750 6800 0    50   ~ 0
ADR3425/30 output current max = 10 mA
$Comp
L Reference_Voltage:ADR4525 U135
U 1 1 60B9C9DA
P 2100 3300
F 0 "U135" H 2200 3550 50  0000 R CNN
F 1 "ADR4525" H 2350 3000 50  0000 R CNN
F 2 "Package_SO:SOIC-8_3.9x4.9mm_P1.27mm" H 2200 3000 50  0001 C CIN
F 3 "https://www.analog.com/media/en/technical-documentation/data-sheets/ADR4520_4525_4530_4533_4540_4550.pdf" H 2200 2950 50  0001 C CIN
	1    2100 3300
	1    0    0    -1  
$EndComp
Wire Wire Line
	2800 3300 2400 3300
Wire Wire Line
	2800 3300 2800 3150
Connection ~ 2800 3300
Wire Wire Line
	2000 3600 2000 3750
Wire Wire Line
	1500 3000 2000 3000
$Comp
L Reference_Voltage:ADR4530 U136
U 1 1 60C1667A
P 2100 4950
F 0 "U136" H 2200 5200 50  0000 R CNN
F 1 "ADR4530" H 2350 4700 50  0000 R CNN
F 2 "Package_SO:SOIC-8_3.9x4.9mm_P1.27mm" H 2200 4650 50  0001 C CIN
F 3 "https://www.analog.com/media/en/technical-documentation/data-sheets/ADR4520_4525_4530_4533_4540_4550.pdf" H 2200 4600 50  0001 C CIN
	1    2100 4950
	1    0    0    -1  
$EndComp
$Comp
L Device:C C?
U 1 1 60C216AF
P 2800 5100
AR Path="/607018B9/60C216AF" Ref="C?"  Part="1" 
AR Path="/607970C6/607990F2/60C216AF" Ref="C?"  Part="1" 
AR Path="/60809D83/60C216AF" Ref="C398"  Part="1" 
F 0 "C398" H 2800 5200 50  0000 L CNN
F 1 "0.1uF" H 2800 5000 50  0000 L CNN
F 2 "Capacitor_SMD:C_0805_2012Metric" H 2838 4950 50  0001 C CNN
F 3 "~" H 2800 5100 50  0001 C CNN
	1    2800 5100
	1    0    0    -1  
$EndComp
$Comp
L power:GND #PWR?
U 1 1 60C216B5
P 2800 5450
AR Path="/607018B9/60C216B5" Ref="#PWR?"  Part="1" 
AR Path="/607970C6/607990F2/60C216B5" Ref="#PWR?"  Part="1" 
AR Path="/60809D83/60C216B5" Ref="#PWR0163"  Part="1" 
F 0 "#PWR0163" H 2800 5200 50  0001 C CNN
F 1 "GND" H 2805 5277 50  0000 C CNN
F 2 "" H 2800 5450 50  0001 C CNN
F 3 "" H 2800 5450 50  0001 C CNN
	1    2800 5450
	1    0    0    -1  
$EndComp
Wire Wire Line
	2800 5450 2800 5350
Wire Wire Line
	2800 4950 2400 4950
Wire Wire Line
	2800 4950 2800 4700
Connection ~ 2800 4950
$Comp
L power:+3V0 #PWR0161
U 1 1 60C2561A
P 2800 4650
F 0 "#PWR0161" H 2800 4500 50  0001 C CNN
F 1 "+3V0" H 2815 4823 50  0000 C CNN
F 2 "" H 2800 4650 50  0001 C CNN
F 3 "" H 2800 4650 50  0001 C CNN
	1    2800 4650
	1    0    0    -1  
$EndComp
$Comp
L Device:C C?
U 1 1 60C2BBD2
P 1500 4900
AR Path="/607018B9/60C2BBD2" Ref="C?"  Part="1" 
AR Path="/607970C6/607990F2/60C2BBD2" Ref="C?"  Part="1" 
AR Path="/60809D83/60C2BBD2" Ref="C397"  Part="1" 
F 0 "C397" H 1500 5000 50  0000 L CNN
F 1 "1uF" H 1500 4800 50  0000 L CNN
F 2 "Capacitor_SMD:C_0805_2012Metric" H 1538 4750 50  0001 C CNN
F 3 "~" H 1500 4900 50  0001 C CNN
	1    1500 4900
	1    0    0    -1  
$EndComp
$Comp
L power:GND #PWR?
U 1 1 60C2BBD8
P 1500 5200
AR Path="/607018B9/60C2BBD8" Ref="#PWR?"  Part="1" 
AR Path="/607970C6/607990F2/60C2BBD8" Ref="#PWR?"  Part="1" 
AR Path="/60809D83/60C2BBD8" Ref="#PWR0162"  Part="1" 
F 0 "#PWR0162" H 1500 4950 50  0001 C CNN
F 1 "GND" H 1505 5027 50  0000 C CNN
F 2 "" H 1500 5200 50  0001 C CNN
F 3 "" H 1500 5200 50  0001 C CNN
	1    1500 5200
	1    0    0    -1  
$EndComp
Wire Wire Line
	1500 5200 1500 5050
Wire Wire Line
	1500 4750 1500 4650
$Comp
L power:+3V3 #PWR?
U 1 1 60C2BBE0
P 1500 4550
AR Path="/607018B9/60C2BBE0" Ref="#PWR?"  Part="1" 
AR Path="/607970C6/607990F2/60C2BBE0" Ref="#PWR?"  Part="1" 
AR Path="/60809D83/60C2BBE0" Ref="#PWR0160"  Part="1" 
F 0 "#PWR0160" H 1500 4400 50  0001 C CNN
F 1 "+3V3" H 1515 4723 50  0000 C CNN
F 2 "" H 1500 4550 50  0001 C CNN
F 3 "" H 1500 4550 50  0001 C CNN
	1    1500 4550
	1    0    0    -1  
$EndComp
$Comp
L Device:C C?
U 1 1 60C2BBE6
P 1150 4900
AR Path="/607018B9/60C2BBE6" Ref="C?"  Part="1" 
AR Path="/607970C6/607990F2/60C2BBE6" Ref="C?"  Part="1" 
AR Path="/60809D83/60C2BBE6" Ref="C396"  Part="1" 
F 0 "C396" H 1150 5000 50  0000 L CNN
F 1 "0.1uF" H 1150 4800 50  0000 L CNN
F 2 "Capacitor_SMD:C_0805_2012Metric" H 1188 4750 50  0001 C CNN
F 3 "~" H 1150 4900 50  0001 C CNN
	1    1150 4900
	1    0    0    -1  
$EndComp
Wire Wire Line
	1150 5050 1500 5050
Connection ~ 1500 5050
Wire Wire Line
	1150 4750 1150 4650
Wire Wire Line
	1500 4650 1150 4650
Connection ~ 1500 4650
Wire Wire Line
	1500 4650 1500 4550
Wire Wire Line
	1500 4650 2000 4650
$Comp
L Connector_Generic:Conn_01x01 J68
U 1 1 60913EAA
P 3350 3150
F 0 "J68" H 3430 3192 50  0000 L CNN
F 1 "Conn_01x01" H 3430 3101 50  0000 L CNN
F 2 "linpol:BigPad" H 3350 3150 50  0001 C CNN
F 3 "~" H 3350 3150 50  0001 C CNN
	1    3350 3150
	1    0    0    -1  
$EndComp
Wire Wire Line
	2800 3150 3150 3150
Connection ~ 2800 3150
Wire Wire Line
	2800 3150 2800 3000
$Comp
L Connector_Generic:Conn_01x01 J71
U 1 1 60917F71
P 3400 4700
F 0 "J71" H 3480 4742 50  0000 L CNN
F 1 "Conn_01x01" H 3480 4651 50  0000 L CNN
F 2 "linpol:BigPad" H 3400 4700 50  0001 C CNN
F 3 "~" H 3400 4700 50  0001 C CNN
	1    3400 4700
	1    0    0    -1  
$EndComp
Wire Wire Line
	3200 4700 2800 4700
Connection ~ 2800 4700
Wire Wire Line
	2800 4700 2800 4650
Wire Wire Line
	5150 5300 4600 5300
Connection ~ 5150 5300
Wire Wire Line
	5150 5300 5150 5350
Wire Wire Line
	3200 5350 2800 5350
Connection ~ 2800 5350
Wire Wire Line
	2800 5350 2800 5250
$Comp
L Connector_Generic:Conn_02x03_Top_Bottom J65
U 1 1 610BF46D
P 1300 950
F 0 "J65" H 1350 1267 50  0000 C CNN
F 1 "Conn_02x03_Top_Bottom" H 1350 1176 50  0000 C CNN
F 2 "Connector_Molex:Molex_Mini-Fit_Jr_5569-06A2_2x03_P4.20mm_Horizontal" H 1300 950 50  0001 C CNN
F 3 "~" H 1300 950 50  0001 C CNN
	1    1300 950 
	1    0    0    -1  
$EndComp
Wire Wire Line
	1100 850  1100 950 
Connection ~ 1100 950 
Wire Wire Line
	1100 1050 1100 950 
Wire Wire Line
	1600 850  1600 950 
Connection ~ 1600 950 
Wire Wire Line
	1600 950  1600 1050
Text Notes 1000 7250 0    50   ~ 0
Two Qwiic connectors to allow daisy chain of multiple devices
Text HLabel 3000 6500 2    50   BiDi ~ 0
SDA
Text HLabel 3000 6400 2    50   Output ~ 0
SCL
Wire Wire Line
	3000 6700 3000 6850
Wire Wire Line
	2850 6700 3000 6700
$Comp
L power:GND #PWR?
U 1 1 60A7A8B1
P 3000 6850
AR Path="/60A7A8B1" Ref="#PWR?"  Part="1" 
AR Path="/607018B9/60A7A8B1" Ref="#PWR?"  Part="1" 
AR Path="/607970C6/607990F2/60A7A8B1" Ref="#PWR?"  Part="1" 
AR Path="/60809D83/60A7A8B1" Ref="#PWR0150"  Part="1" 
F 0 "#PWR0150" H 3000 6600 50  0001 C CNN
F 1 "GND" H 3005 6677 50  0000 C CNN
F 2 "" H 3000 6850 50  0001 C CNN
F 3 "" H 3000 6850 50  0001 C CNN
	1    3000 6850
	1    0    0    -1  
$EndComp
Wire Wire Line
	3300 6600 2850 6600
Wire Wire Line
	3000 6500 2850 6500
Wire Wire Line
	3000 6400 2850 6400
$Comp
L linpol:I2C_STANDARDQWIIC J?
U 1 1 60A7A8A2
P 2750 6700
AR Path="/60A7A8A2" Ref="J?"  Part="1" 
AR Path="/607018B9/60A7A8A2" Ref="J?"  Part="1" 
AR Path="/607970C6/607990F2/60A7A8A2" Ref="J?"  Part="1" 
AR Path="/60809D83/60A7A8A2" Ref="J67"  Part="1" 
F 0 "J67" H 2708 7310 45  0000 C CNN
F 1 "QWIIC" H 2708 7226 45  0000 C CNN
F 2 "linpol:1X04_1MM_RA" H 2750 7200 20  0001 C CNN
F 3 "" H 2750 6700 50  0001 C CNN
F 4 "CONN-13729" H 2708 7131 60  0000 C CNN "Field4"
	1    2750 6700
	1    0    0    -1  
$EndComp
Text HLabel 1850 6500 2    50   BiDi ~ 0
SDA
Text HLabel 1850 6400 2    50   Output ~ 0
SCL
Wire Wire Line
	1850 6700 1850 6850
Wire Wire Line
	1700 6700 1850 6700
$Comp
L power:GND #PWR?
U 1 1 60FC17DE
P 1850 6850
AR Path="/60FC17DE" Ref="#PWR?"  Part="1" 
AR Path="/607018B9/60FC17DE" Ref="#PWR?"  Part="1" 
AR Path="/607970C6/607990F2/60FC17DE" Ref="#PWR?"  Part="1" 
AR Path="/60809D83/60FC17DE" Ref="#PWR0149"  Part="1" 
F 0 "#PWR0149" H 1850 6600 50  0001 C CNN
F 1 "GND" H 1855 6677 50  0000 C CNN
F 2 "" H 1850 6850 50  0001 C CNN
F 3 "" H 1850 6850 50  0001 C CNN
	1    1850 6850
	1    0    0    -1  
$EndComp
Wire Wire Line
	2150 6600 1700 6600
$Comp
L power:+3V3 #PWR?
U 1 1 60FC17D7
P 2150 6600
AR Path="/60FC17D7" Ref="#PWR?"  Part="1" 
AR Path="/607018B9/60FC17D7" Ref="#PWR?"  Part="1" 
AR Path="/607970C6/607990F2/60FC17D7" Ref="#PWR?"  Part="1" 
AR Path="/60809D83/60FC17D7" Ref="#PWR0145"  Part="1" 
F 0 "#PWR0145" H 2150 6450 50  0001 C CNN
F 1 "+3V3" H 2165 6773 50  0000 C CNN
F 2 "" H 2150 6600 50  0001 C CNN
F 3 "" H 2150 6600 50  0001 C CNN
	1    2150 6600
	1    0    0    -1  
$EndComp
Wire Wire Line
	1850 6500 1700 6500
Wire Wire Line
	1850 6400 1700 6400
$Comp
L linpol:I2C_STANDARDQWIIC J?
U 1 1 60FC17CD
P 1600 6700
AR Path="/60FC17CD" Ref="J?"  Part="1" 
AR Path="/607018B9/60FC17CD" Ref="J?"  Part="1" 
AR Path="/607970C6/607990F2/60FC17CD" Ref="J?"  Part="1" 
AR Path="/60809D83/60FC17CD" Ref="J66"  Part="1" 
F 0 "J66" H 1558 7310 45  0000 C CNN
F 1 "QWIIC" H 1558 7226 45  0000 C CNN
F 2 "linpol:1X04_1MM_RA" H 1600 7200 20  0001 C CNN
F 3 "" H 1600 6700 50  0001 C CNN
F 4 "CONN-13729" H 1558 7131 60  0000 C CNN "Field4"
	1    1600 6700
	1    0    0    -1  
$EndComp
$Comp
L Device:R R?
U 1 1 60892476
P 6100 1550
AR Path="/607018B9/60892476" Ref="R?"  Part="1" 
AR Path="/607970C6/607990F2/60892476" Ref="R?"  Part="1" 
AR Path="/60809D83/60892476" Ref="R801"  Part="1" 
F 0 "R801" V 6200 1500 50  0000 L CNN
F 1 "10k" V 6100 1450 50  0000 L CNN
F 2 "Resistor_SMD:R_0805_2012Metric" V 6030 1550 50  0001 C CNN
F 3 "~" H 6100 1550 50  0001 C CNN
	1    6100 1550
	1    0    0    -1  
$EndComp
$Comp
L power:GND #PWR?
U 1 1 6089247C
P 6100 2350
AR Path="/607018B9/6089247C" Ref="#PWR?"  Part="1" 
AR Path="/607970C6/607990F2/6089247C" Ref="#PWR?"  Part="1" 
AR Path="/60809D83/6089247C" Ref="#PWR0237"  Part="1" 
F 0 "#PWR0237" H 6100 2100 50  0001 C CNN
F 1 "GND" H 6105 2177 50  0000 C CNN
F 2 "" H 6100 2350 50  0001 C CNN
F 3 "" H 6100 2350 50  0001 C CNN
	1    6100 2350
	1    0    0    -1  
$EndComp
$Comp
L Device:LED D?
U 1 1 60892482
P 6100 2050
AR Path="/607018B9/60892482" Ref="D?"  Part="1" 
AR Path="/607970C6/607990F2/60892482" Ref="D?"  Part="1" 
AR Path="/60809D83/60892482" Ref="D4"  Part="1" 
F 0 "D4" V 6139 1932 50  0000 R CNN
F 1 "LED" V 6048 1932 50  0000 R CNN
F 2 "LED_SMD:LED_1206_3216Metric_Pad1.42x1.75mm_HandSolder" H 6100 2050 50  0001 C CNN
F 3 "~" H 6100 2050 50  0001 C CNN
	1    6100 2050
	0    -1   -1   0   
$EndComp
Wire Wire Line
	6100 1700 6100 1900
Wire Wire Line
	6100 2200 6100 2350
Text Label 6100 1250 1    50   ~ 0
VIN_g1
Wire Wire Line
	6100 1400 6100 1250
$Comp
L Device:R R?
U 1 1 608AE3EC
P 6450 1550
AR Path="/607018B9/608AE3EC" Ref="R?"  Part="1" 
AR Path="/607970C6/607990F2/608AE3EC" Ref="R?"  Part="1" 
AR Path="/60809D83/608AE3EC" Ref="R802"  Part="1" 
F 0 "R802" V 6550 1500 50  0000 L CNN
F 1 "10k" V 6450 1450 50  0000 L CNN
F 2 "Resistor_SMD:R_0805_2012Metric" V 6380 1550 50  0001 C CNN
F 3 "~" H 6450 1550 50  0001 C CNN
	1    6450 1550
	1    0    0    -1  
$EndComp
$Comp
L power:GND #PWR?
U 1 1 608AE3F2
P 6450 2350
AR Path="/607018B9/608AE3F2" Ref="#PWR?"  Part="1" 
AR Path="/607970C6/607990F2/608AE3F2" Ref="#PWR?"  Part="1" 
AR Path="/60809D83/608AE3F2" Ref="#PWR0238"  Part="1" 
F 0 "#PWR0238" H 6450 2100 50  0001 C CNN
F 1 "GND" H 6455 2177 50  0000 C CNN
F 2 "" H 6450 2350 50  0001 C CNN
F 3 "" H 6450 2350 50  0001 C CNN
	1    6450 2350
	1    0    0    -1  
$EndComp
$Comp
L Device:LED D?
U 1 1 608AE3F8
P 6450 2050
AR Path="/607018B9/608AE3F8" Ref="D?"  Part="1" 
AR Path="/607970C6/607990F2/608AE3F8" Ref="D?"  Part="1" 
AR Path="/60809D83/608AE3F8" Ref="D5"  Part="1" 
F 0 "D5" V 6489 1932 50  0000 R CNN
F 1 "LED" V 6398 1932 50  0000 R CNN
F 2 "LED_SMD:LED_1206_3216Metric_Pad1.42x1.75mm_HandSolder" H 6450 2050 50  0001 C CNN
F 3 "~" H 6450 2050 50  0001 C CNN
	1    6450 2050
	0    -1   -1   0   
$EndComp
Wire Wire Line
	6450 1700 6450 1900
Wire Wire Line
	6450 2200 6450 2350
Text Label 6450 1250 1    50   ~ 0
VIN_g2
Wire Wire Line
	6450 1400 6450 1250
$Comp
L Device:R R?
U 1 1 608B3368
P 6850 1550
AR Path="/607018B9/608B3368" Ref="R?"  Part="1" 
AR Path="/607970C6/607990F2/608B3368" Ref="R?"  Part="1" 
AR Path="/60809D83/608B3368" Ref="R803"  Part="1" 
F 0 "R803" V 6950 1500 50  0000 L CNN
F 1 "10k" V 6850 1450 50  0000 L CNN
F 2 "Resistor_SMD:R_0805_2012Metric" V 6780 1550 50  0001 C CNN
F 3 "~" H 6850 1550 50  0001 C CNN
	1    6850 1550
	1    0    0    -1  
$EndComp
$Comp
L power:GND #PWR?
U 1 1 608B336E
P 6850 2350
AR Path="/607018B9/608B336E" Ref="#PWR?"  Part="1" 
AR Path="/607970C6/607990F2/608B336E" Ref="#PWR?"  Part="1" 
AR Path="/60809D83/608B336E" Ref="#PWR0239"  Part="1" 
F 0 "#PWR0239" H 6850 2100 50  0001 C CNN
F 1 "GND" H 6855 2177 50  0000 C CNN
F 2 "" H 6850 2350 50  0001 C CNN
F 3 "" H 6850 2350 50  0001 C CNN
	1    6850 2350
	1    0    0    -1  
$EndComp
$Comp
L Device:LED D?
U 1 1 608B3374
P 6850 2050
AR Path="/607018B9/608B3374" Ref="D?"  Part="1" 
AR Path="/607970C6/607990F2/608B3374" Ref="D?"  Part="1" 
AR Path="/60809D83/608B3374" Ref="D6"  Part="1" 
F 0 "D6" V 6889 1932 50  0000 R CNN
F 1 "LED" V 6798 1932 50  0000 R CNN
F 2 "LED_SMD:LED_1206_3216Metric_Pad1.42x1.75mm_HandSolder" H 6850 2050 50  0001 C CNN
F 3 "~" H 6850 2050 50  0001 C CNN
	1    6850 2050
	0    -1   -1   0   
$EndComp
Wire Wire Line
	6850 1700 6850 1900
Wire Wire Line
	6850 2200 6850 2350
Text Label 6850 1250 1    50   ~ 0
VIN_g3
Wire Wire Line
	6850 1400 6850 1250
$Comp
L Device:R R?
U 1 1 608B8FF4
P 7250 1550
AR Path="/607018B9/608B8FF4" Ref="R?"  Part="1" 
AR Path="/607970C6/607990F2/608B8FF4" Ref="R?"  Part="1" 
AR Path="/60809D83/608B8FF4" Ref="R804"  Part="1" 
F 0 "R804" V 7350 1500 50  0000 L CNN
F 1 "10k" V 7250 1450 50  0000 L CNN
F 2 "Resistor_SMD:R_0805_2012Metric" V 7180 1550 50  0001 C CNN
F 3 "~" H 7250 1550 50  0001 C CNN
	1    7250 1550
	1    0    0    -1  
$EndComp
$Comp
L power:GND #PWR?
U 1 1 608B8FFA
P 7250 2350
AR Path="/607018B9/608B8FFA" Ref="#PWR?"  Part="1" 
AR Path="/607970C6/607990F2/608B8FFA" Ref="#PWR?"  Part="1" 
AR Path="/60809D83/608B8FFA" Ref="#PWR0240"  Part="1" 
F 0 "#PWR0240" H 7250 2100 50  0001 C CNN
F 1 "GND" H 7255 2177 50  0000 C CNN
F 2 "" H 7250 2350 50  0001 C CNN
F 3 "" H 7250 2350 50  0001 C CNN
	1    7250 2350
	1    0    0    -1  
$EndComp
$Comp
L Device:LED D?
U 1 1 608B9000
P 7250 2050
AR Path="/607018B9/608B9000" Ref="D?"  Part="1" 
AR Path="/607970C6/607990F2/608B9000" Ref="D?"  Part="1" 
AR Path="/60809D83/608B9000" Ref="D7"  Part="1" 
F 0 "D7" V 7289 1932 50  0000 R CNN
F 1 "LED" V 7198 1932 50  0000 R CNN
F 2 "LED_SMD:LED_1206_3216Metric_Pad1.42x1.75mm_HandSolder" H 7250 2050 50  0001 C CNN
F 3 "~" H 7250 2050 50  0001 C CNN
	1    7250 2050
	0    -1   -1   0   
$EndComp
Wire Wire Line
	7250 1700 7250 1900
Wire Wire Line
	7250 2200 7250 2350
Text Label 7250 1250 1    50   ~ 0
VIN_g4
Wire Wire Line
	7250 1400 7250 1250
$Comp
L Device:R R?
U 1 1 608BF01D
P 7650 1550
AR Path="/607018B9/608BF01D" Ref="R?"  Part="1" 
AR Path="/607970C6/607990F2/608BF01D" Ref="R?"  Part="1" 
AR Path="/60809D83/608BF01D" Ref="R805"  Part="1" 
F 0 "R805" V 7750 1500 50  0000 L CNN
F 1 "10k" V 7650 1450 50  0000 L CNN
F 2 "Resistor_SMD:R_0805_2012Metric" V 7580 1550 50  0001 C CNN
F 3 "~" H 7650 1550 50  0001 C CNN
	1    7650 1550
	1    0    0    -1  
$EndComp
$Comp
L power:GND #PWR?
U 1 1 608BF023
P 7650 2350
AR Path="/607018B9/608BF023" Ref="#PWR?"  Part="1" 
AR Path="/607970C6/607990F2/608BF023" Ref="#PWR?"  Part="1" 
AR Path="/60809D83/608BF023" Ref="#PWR0241"  Part="1" 
F 0 "#PWR0241" H 7650 2100 50  0001 C CNN
F 1 "GND" H 7655 2177 50  0000 C CNN
F 2 "" H 7650 2350 50  0001 C CNN
F 3 "" H 7650 2350 50  0001 C CNN
	1    7650 2350
	1    0    0    -1  
$EndComp
$Comp
L Device:LED D?
U 1 1 608BF029
P 7650 2050
AR Path="/607018B9/608BF029" Ref="D?"  Part="1" 
AR Path="/607970C6/607990F2/608BF029" Ref="D?"  Part="1" 
AR Path="/60809D83/608BF029" Ref="D8"  Part="1" 
F 0 "D8" V 7689 1932 50  0000 R CNN
F 1 "LED" V 7598 1932 50  0000 R CNN
F 2 "LED_SMD:LED_1206_3216Metric_Pad1.42x1.75mm_HandSolder" H 7650 2050 50  0001 C CNN
F 3 "~" H 7650 2050 50  0001 C CNN
	1    7650 2050
	0    -1   -1   0   
$EndComp
Wire Wire Line
	7650 1700 7650 1900
Wire Wire Line
	7650 2200 7650 2350
Text Label 7650 1250 1    50   ~ 0
VIN_g5
Wire Wire Line
	7650 1400 7650 1250
$Comp
L Device:R R?
U 1 1 608CC5B2
P 8000 1550
AR Path="/607018B9/608CC5B2" Ref="R?"  Part="1" 
AR Path="/607970C6/607990F2/608CC5B2" Ref="R?"  Part="1" 
AR Path="/60809D83/608CC5B2" Ref="R806"  Part="1" 
F 0 "R806" V 8100 1500 50  0000 L CNN
F 1 "10k" V 8000 1450 50  0000 L CNN
F 2 "Resistor_SMD:R_0805_2012Metric" V 7930 1550 50  0001 C CNN
F 3 "~" H 8000 1550 50  0001 C CNN
	1    8000 1550
	1    0    0    -1  
$EndComp
$Comp
L power:GND #PWR?
U 1 1 608CC5B8
P 8000 2350
AR Path="/607018B9/608CC5B8" Ref="#PWR?"  Part="1" 
AR Path="/607970C6/607990F2/608CC5B8" Ref="#PWR?"  Part="1" 
AR Path="/60809D83/608CC5B8" Ref="#PWR0242"  Part="1" 
F 0 "#PWR0242" H 8000 2100 50  0001 C CNN
F 1 "GND" H 8005 2177 50  0000 C CNN
F 2 "" H 8000 2350 50  0001 C CNN
F 3 "" H 8000 2350 50  0001 C CNN
	1    8000 2350
	1    0    0    -1  
$EndComp
$Comp
L Device:LED D?
U 1 1 608CC5BE
P 8000 2050
AR Path="/607018B9/608CC5BE" Ref="D?"  Part="1" 
AR Path="/607970C6/607990F2/608CC5BE" Ref="D?"  Part="1" 
AR Path="/60809D83/608CC5BE" Ref="D9"  Part="1" 
F 0 "D9" V 8039 1932 50  0000 R CNN
F 1 "LED" V 7948 1932 50  0000 R CNN
F 2 "LED_SMD:LED_1206_3216Metric_Pad1.42x1.75mm_HandSolder" H 8000 2050 50  0001 C CNN
F 3 "~" H 8000 2050 50  0001 C CNN
	1    8000 2050
	0    -1   -1   0   
$EndComp
Wire Wire Line
	8000 1700 8000 1900
Wire Wire Line
	8000 2200 8000 2350
Text Label 8000 1250 1    50   ~ 0
VIN_g6
Wire Wire Line
	8000 1400 8000 1250
$Comp
L Device:R R?
U 1 1 608CC5C8
P 8350 1550
AR Path="/607018B9/608CC5C8" Ref="R?"  Part="1" 
AR Path="/607970C6/607990F2/608CC5C8" Ref="R?"  Part="1" 
AR Path="/60809D83/608CC5C8" Ref="R807"  Part="1" 
F 0 "R807" V 8450 1500 50  0000 L CNN
F 1 "10k" V 8350 1450 50  0000 L CNN
F 2 "Resistor_SMD:R_0805_2012Metric" V 8280 1550 50  0001 C CNN
F 3 "~" H 8350 1550 50  0001 C CNN
	1    8350 1550
	1    0    0    -1  
$EndComp
$Comp
L power:GND #PWR?
U 1 1 608CC5CE
P 8350 2350
AR Path="/607018B9/608CC5CE" Ref="#PWR?"  Part="1" 
AR Path="/607970C6/607990F2/608CC5CE" Ref="#PWR?"  Part="1" 
AR Path="/60809D83/608CC5CE" Ref="#PWR0243"  Part="1" 
F 0 "#PWR0243" H 8350 2100 50  0001 C CNN
F 1 "GND" H 8355 2177 50  0000 C CNN
F 2 "" H 8350 2350 50  0001 C CNN
F 3 "" H 8350 2350 50  0001 C CNN
	1    8350 2350
	1    0    0    -1  
$EndComp
$Comp
L Device:LED D?
U 1 1 608CC5D4
P 8350 2050
AR Path="/607018B9/608CC5D4" Ref="D?"  Part="1" 
AR Path="/607970C6/607990F2/608CC5D4" Ref="D?"  Part="1" 
AR Path="/60809D83/608CC5D4" Ref="D10"  Part="1" 
F 0 "D10" V 8389 1932 50  0000 R CNN
F 1 "LED" V 8298 1932 50  0000 R CNN
F 2 "LED_SMD:LED_1206_3216Metric_Pad1.42x1.75mm_HandSolder" H 8350 2050 50  0001 C CNN
F 3 "~" H 8350 2050 50  0001 C CNN
	1    8350 2050
	0    -1   -1   0   
$EndComp
Wire Wire Line
	8350 1700 8350 1900
Wire Wire Line
	8350 2200 8350 2350
Text Label 8350 1250 1    50   ~ 0
VIN_g7
Wire Wire Line
	8350 1400 8350 1250
$Comp
L Device:R R?
U 1 1 608CC5DE
P 8750 1550
AR Path="/607018B9/608CC5DE" Ref="R?"  Part="1" 
AR Path="/607970C6/607990F2/608CC5DE" Ref="R?"  Part="1" 
AR Path="/60809D83/608CC5DE" Ref="R808"  Part="1" 
F 0 "R808" V 8850 1500 50  0000 L CNN
F 1 "10k" V 8750 1450 50  0000 L CNN
F 2 "Resistor_SMD:R_0805_2012Metric" V 8680 1550 50  0001 C CNN
F 3 "~" H 8750 1550 50  0001 C CNN
	1    8750 1550
	1    0    0    -1  
$EndComp
$Comp
L power:GND #PWR?
U 1 1 608CC5E4
P 8750 2350
AR Path="/607018B9/608CC5E4" Ref="#PWR?"  Part="1" 
AR Path="/607970C6/607990F2/608CC5E4" Ref="#PWR?"  Part="1" 
AR Path="/60809D83/608CC5E4" Ref="#PWR0244"  Part="1" 
F 0 "#PWR0244" H 8750 2100 50  0001 C CNN
F 1 "GND" H 8755 2177 50  0000 C CNN
F 2 "" H 8750 2350 50  0001 C CNN
F 3 "" H 8750 2350 50  0001 C CNN
	1    8750 2350
	1    0    0    -1  
$EndComp
$Comp
L Device:LED D?
U 1 1 608CC5EA
P 8750 2050
AR Path="/607018B9/608CC5EA" Ref="D?"  Part="1" 
AR Path="/607970C6/607990F2/608CC5EA" Ref="D?"  Part="1" 
AR Path="/60809D83/608CC5EA" Ref="D11"  Part="1" 
F 0 "D11" V 8789 1932 50  0000 R CNN
F 1 "LED" V 8698 1932 50  0000 R CNN
F 2 "LED_SMD:LED_1206_3216Metric_Pad1.42x1.75mm_HandSolder" H 8750 2050 50  0001 C CNN
F 3 "~" H 8750 2050 50  0001 C CNN
	1    8750 2050
	0    -1   -1   0   
$EndComp
Wire Wire Line
	8750 1700 8750 1900
Wire Wire Line
	8750 2200 8750 2350
Text Label 8750 1250 1    50   ~ 0
VIN_g8
Wire Wire Line
	8750 1400 8750 1250
$Comp
L Device:R R?
U 1 1 608CC5F4
P 9150 1550
AR Path="/607018B9/608CC5F4" Ref="R?"  Part="1" 
AR Path="/607970C6/607990F2/608CC5F4" Ref="R?"  Part="1" 
AR Path="/60809D83/608CC5F4" Ref="R809"  Part="1" 
F 0 "R809" V 9250 1500 50  0000 L CNN
F 1 "10k" V 9150 1450 50  0000 L CNN
F 2 "Resistor_SMD:R_0805_2012Metric" V 9080 1550 50  0001 C CNN
F 3 "~" H 9150 1550 50  0001 C CNN
	1    9150 1550
	1    0    0    -1  
$EndComp
$Comp
L power:GND #PWR?
U 1 1 608CC5FA
P 9150 2350
AR Path="/607018B9/608CC5FA" Ref="#PWR?"  Part="1" 
AR Path="/607970C6/607990F2/608CC5FA" Ref="#PWR?"  Part="1" 
AR Path="/60809D83/608CC5FA" Ref="#PWR0245"  Part="1" 
F 0 "#PWR0245" H 9150 2100 50  0001 C CNN
F 1 "GND" H 9155 2177 50  0000 C CNN
F 2 "" H 9150 2350 50  0001 C CNN
F 3 "" H 9150 2350 50  0001 C CNN
	1    9150 2350
	1    0    0    -1  
$EndComp
$Comp
L Device:LED D?
U 1 1 608CC600
P 9150 2050
AR Path="/607018B9/608CC600" Ref="D?"  Part="1" 
AR Path="/607970C6/607990F2/608CC600" Ref="D?"  Part="1" 
AR Path="/60809D83/608CC600" Ref="D12"  Part="1" 
F 0 "D12" V 9189 1932 50  0000 R CNN
F 1 "LED" V 9098 1932 50  0000 R CNN
F 2 "LED_SMD:LED_1206_3216Metric_Pad1.42x1.75mm_HandSolder" H 9150 2050 50  0001 C CNN
F 3 "~" H 9150 2050 50  0001 C CNN
	1    9150 2050
	0    -1   -1   0   
$EndComp
Wire Wire Line
	9150 1700 9150 1900
Wire Wire Line
	9150 2200 9150 2350
Text Label 9150 1250 1    50   ~ 0
VIN_g9
Wire Wire Line
	9150 1400 9150 1250
$Comp
L Device:R R?
U 1 1 608CC60A
P 9550 1550
AR Path="/607018B9/608CC60A" Ref="R?"  Part="1" 
AR Path="/607970C6/607990F2/608CC60A" Ref="R?"  Part="1" 
AR Path="/60809D83/608CC60A" Ref="R810"  Part="1" 
F 0 "R810" V 9650 1500 50  0000 L CNN
F 1 "10k" V 9550 1450 50  0000 L CNN
F 2 "Resistor_SMD:R_0805_2012Metric" V 9480 1550 50  0001 C CNN
F 3 "~" H 9550 1550 50  0001 C CNN
	1    9550 1550
	1    0    0    -1  
$EndComp
$Comp
L power:GND #PWR?
U 1 1 608CC610
P 9550 2350
AR Path="/607018B9/608CC610" Ref="#PWR?"  Part="1" 
AR Path="/607970C6/607990F2/608CC610" Ref="#PWR?"  Part="1" 
AR Path="/60809D83/608CC610" Ref="#PWR0246"  Part="1" 
F 0 "#PWR0246" H 9550 2100 50  0001 C CNN
F 1 "GND" H 9555 2177 50  0000 C CNN
F 2 "" H 9550 2350 50  0001 C CNN
F 3 "" H 9550 2350 50  0001 C CNN
	1    9550 2350
	1    0    0    -1  
$EndComp
$Comp
L Device:LED D?
U 1 1 608CC616
P 9550 2050
AR Path="/607018B9/608CC616" Ref="D?"  Part="1" 
AR Path="/607970C6/607990F2/608CC616" Ref="D?"  Part="1" 
AR Path="/60809D83/608CC616" Ref="D13"  Part="1" 
F 0 "D13" V 9589 1932 50  0000 R CNN
F 1 "LED" V 9498 1932 50  0000 R CNN
F 2 "LED_SMD:LED_1206_3216Metric_Pad1.42x1.75mm_HandSolder" H 9550 2050 50  0001 C CNN
F 3 "~" H 9550 2050 50  0001 C CNN
	1    9550 2050
	0    -1   -1   0   
$EndComp
Wire Wire Line
	9550 1700 9550 1900
Wire Wire Line
	9550 2200 9550 2350
Text Label 9550 1250 1    50   ~ 0
VIN_g10
Wire Wire Line
	9550 1400 9550 1250
$Comp
L Device:R R?
U 1 1 60911143
P 9950 1550
AR Path="/607018B9/60911143" Ref="R?"  Part="1" 
AR Path="/607970C6/607990F2/60911143" Ref="R?"  Part="1" 
AR Path="/60809D83/60911143" Ref="R811"  Part="1" 
F 0 "R811" V 10050 1500 50  0000 L CNN
F 1 "10k" V 9950 1450 50  0000 L CNN
F 2 "Resistor_SMD:R_0805_2012Metric" V 9880 1550 50  0001 C CNN
F 3 "~" H 9950 1550 50  0001 C CNN
	1    9950 1550
	1    0    0    -1  
$EndComp
$Comp
L power:GND #PWR?
U 1 1 60911149
P 9950 2350
AR Path="/607018B9/60911149" Ref="#PWR?"  Part="1" 
AR Path="/607970C6/607990F2/60911149" Ref="#PWR?"  Part="1" 
AR Path="/60809D83/60911149" Ref="#PWR0247"  Part="1" 
F 0 "#PWR0247" H 9950 2100 50  0001 C CNN
F 1 "GND" H 9955 2177 50  0000 C CNN
F 2 "" H 9950 2350 50  0001 C CNN
F 3 "" H 9950 2350 50  0001 C CNN
	1    9950 2350
	1    0    0    -1  
$EndComp
$Comp
L Device:LED D?
U 1 1 6091114F
P 9950 2050
AR Path="/607018B9/6091114F" Ref="D?"  Part="1" 
AR Path="/607970C6/607990F2/6091114F" Ref="D?"  Part="1" 
AR Path="/60809D83/6091114F" Ref="D14"  Part="1" 
F 0 "D14" V 9989 1932 50  0000 R CNN
F 1 "LED" V 9898 1932 50  0000 R CNN
F 2 "LED_SMD:LED_1206_3216Metric_Pad1.42x1.75mm_HandSolder" H 9950 2050 50  0001 C CNN
F 3 "~" H 9950 2050 50  0001 C CNN
	1    9950 2050
	0    -1   -1   0   
$EndComp
Wire Wire Line
	9950 1700 9950 1900
Wire Wire Line
	9950 2200 9950 2350
Text Label 9950 1250 1    50   ~ 0
VIN_g11
Wire Wire Line
	9950 1400 9950 1250
$Comp
L Device:R R?
U 1 1 60917EF2
P 10350 1550
AR Path="/607018B9/60917EF2" Ref="R?"  Part="1" 
AR Path="/607970C6/607990F2/60917EF2" Ref="R?"  Part="1" 
AR Path="/60809D83/60917EF2" Ref="R812"  Part="1" 
F 0 "R812" V 10450 1500 50  0000 L CNN
F 1 "10k" V 10350 1450 50  0000 L CNN
F 2 "Resistor_SMD:R_0805_2012Metric" V 10280 1550 50  0001 C CNN
F 3 "~" H 10350 1550 50  0001 C CNN
	1    10350 1550
	1    0    0    -1  
$EndComp
$Comp
L power:GND #PWR?
U 1 1 60917EF8
P 10350 2350
AR Path="/607018B9/60917EF8" Ref="#PWR?"  Part="1" 
AR Path="/607970C6/607990F2/60917EF8" Ref="#PWR?"  Part="1" 
AR Path="/60809D83/60917EF8" Ref="#PWR0248"  Part="1" 
F 0 "#PWR0248" H 10350 2100 50  0001 C CNN
F 1 "GND" H 10355 2177 50  0000 C CNN
F 2 "" H 10350 2350 50  0001 C CNN
F 3 "" H 10350 2350 50  0001 C CNN
	1    10350 2350
	1    0    0    -1  
$EndComp
$Comp
L Device:LED D?
U 1 1 60917EFE
P 10350 2050
AR Path="/607018B9/60917EFE" Ref="D?"  Part="1" 
AR Path="/607970C6/607990F2/60917EFE" Ref="D?"  Part="1" 
AR Path="/60809D83/60917EFE" Ref="D15"  Part="1" 
F 0 "D15" V 10389 1932 50  0000 R CNN
F 1 "LED" V 10298 1932 50  0000 R CNN
F 2 "LED_SMD:LED_1206_3216Metric_Pad1.42x1.75mm_HandSolder" H 10350 2050 50  0001 C CNN
F 3 "~" H 10350 2050 50  0001 C CNN
	1    10350 2050
	0    -1   -1   0   
$EndComp
Wire Wire Line
	10350 1700 10350 1900
Wire Wire Line
	10350 2200 10350 2350
Text Label 10350 1250 1    50   ~ 0
VIN_g12
Wire Wire Line
	10350 1400 10350 1250
$Comp
L Device:R R?
U 1 1 6091F67D
P 10800 1550
AR Path="/607018B9/6091F67D" Ref="R?"  Part="1" 
AR Path="/607970C6/607990F2/6091F67D" Ref="R?"  Part="1" 
AR Path="/60809D83/6091F67D" Ref="R813"  Part="1" 
F 0 "R813" V 10900 1500 50  0000 L CNN
F 1 "10k" V 10800 1450 50  0000 L CNN
F 2 "Resistor_SMD:R_0805_2012Metric" V 10730 1550 50  0001 C CNN
F 3 "~" H 10800 1550 50  0001 C CNN
	1    10800 1550
	1    0    0    -1  
$EndComp
$Comp
L power:GND #PWR?
U 1 1 6091F683
P 10800 2350
AR Path="/607018B9/6091F683" Ref="#PWR?"  Part="1" 
AR Path="/607970C6/607990F2/6091F683" Ref="#PWR?"  Part="1" 
AR Path="/60809D83/6091F683" Ref="#PWR0249"  Part="1" 
F 0 "#PWR0249" H 10800 2100 50  0001 C CNN
F 1 "GND" H 10805 2177 50  0000 C CNN
F 2 "" H 10800 2350 50  0001 C CNN
F 3 "" H 10800 2350 50  0001 C CNN
	1    10800 2350
	1    0    0    -1  
$EndComp
$Comp
L Device:LED D?
U 1 1 6091F689
P 10800 2050
AR Path="/607018B9/6091F689" Ref="D?"  Part="1" 
AR Path="/607970C6/607990F2/6091F689" Ref="D?"  Part="1" 
AR Path="/60809D83/6091F689" Ref="D16"  Part="1" 
F 0 "D16" V 10839 1932 50  0000 R CNN
F 1 "LED" V 10748 1932 50  0000 R CNN
F 2 "LED_SMD:LED_1206_3216Metric_Pad1.42x1.75mm_HandSolder" H 10800 2050 50  0001 C CNN
F 3 "~" H 10800 2050 50  0001 C CNN
	1    10800 2050
	0    -1   -1   0   
$EndComp
Wire Wire Line
	10800 1700 10800 1900
Wire Wire Line
	10800 2200 10800 2350
Text Label 10800 1250 1    50   ~ 0
VIN_g13
Wire Wire Line
	10800 1400 10800 1250
$Comp
L Connector_Generic:Conn_01x04 J72
U 1 1 609A4622
P 4400 5500
F 0 "J72" H 4318 5075 50  0000 C CNN
F 1 "Conn_01x04" H 4318 5166 50  0000 C CNN
F 2 "Connector_PinHeader_2.54mm:PinHeader_1x04_P2.54mm_Vertical_SMD_Pin1Left" H 4400 5500 50  0001 C CNN
F 3 "~" H 4400 5500 50  0001 C CNN
	1    4400 5500
	-1   0    0    1   
$EndComp
$Comp
L Connector_Generic:Conn_01x04 J70
U 1 1 609A7F63
P 3400 5450
F 0 "J70" H 3480 5442 50  0000 L CNN
F 1 "Conn_01x04" H 3480 5351 50  0000 L CNN
F 2 "Connector_PinHeader_2.54mm:PinHeader_1x04_P2.54mm_Vertical_SMD_Pin1Left" H 3400 5450 50  0001 C CNN
F 3 "~" H 3400 5450 50  0001 C CNN
	1    3400 5450
	1    0    0    -1  
$EndComp
Wire Wire Line
	4600 5300 4600 5400
Connection ~ 4600 5300
Connection ~ 4600 5400
Wire Wire Line
	4600 5400 4600 5500
Connection ~ 4600 5500
Wire Wire Line
	4600 5500 4600 5600
Wire Wire Line
	3200 5350 3200 5450
Connection ~ 3200 5350
Connection ~ 3200 5450
Wire Wire Line
	3200 5450 3200 5550
Connection ~ 3200 5550
Wire Wire Line
	3200 5550 3200 5650
Wire Bus Line
	10400 3900 10400 6050
$EndSCHEMATC
