(module 1X04_1MM_RA (layer F.Cu) (tedit 200000)
  (descr "SMD- 4 PIN RIGHT ANGLE")
  (tags "SMD- 4 PIN RIGHT ANGLE")
  (attr smd)
  (fp_text reference >NAME (at -3.683 0.889 90) (layer F.SilkS)
    (effects (font (size 0.6096 0.6096) (thickness 0.127)))
  )
  (fp_text value >VALUE (at 3.683 0.889 90) (layer F.SilkS)
    (effects (font (size 0.6096 0.6096) (thickness 0.127)))
  )
  (fp_line (start -1.4986 4.59994) (end 1.4986 4.59994) (layer F.SilkS) (width 0.254))
  (fp_line (start -2.99974 1.99898) (end -2.99974 0.34798) (layer F.SilkS) (width 0.254))
  (fp_line (start 2.2479 0.34798) (end 2.99974 0.34798) (layer F.SilkS) (width 0.254))
  (fp_line (start 2.99974 0.34798) (end 2.99974 1.99898) (layer F.SilkS) (width 0.254))
  (fp_line (start -2.99974 0.34798) (end -2.2479 0.34798) (layer F.SilkS) (width 0.254))
  (fp_circle (center -2.49936 -0.29972) (end -2.49936 -0.43942) (layer F.SilkS) (width 0.39878))
  (pad 1 smd rect (at -1.4986 0) (size 0.59944 1.34874) (layers F.Cu F.Paste F.Mask)
    (solder_mask_margin 0.1016))
  (pad 2 smd rect (at -0.49784 0) (size 0.59944 1.34874) (layers F.Cu F.Paste F.Mask)
    (solder_mask_margin 0.1016))
  (pad 3 smd rect (at 0.49784 0) (size 0.59944 1.34874) (layers F.Cu F.Paste F.Mask)
    (solder_mask_margin 0.1016))
  (pad 4 smd rect (at 1.4986 0) (size 0.59944 1.34874) (layers F.Cu F.Paste F.Mask)
    (solder_mask_margin 0.1016))
  (pad NC1 smd rect (at 2.79908 3.67284) (size 1.19888 1.99898) (layers F.Cu F.Paste F.Mask)
    (solder_mask_margin 0.1016))
  (pad NC2 smd rect (at -2.79908 3.67284) (size 1.19888 1.99898) (layers F.Cu F.Paste F.Mask)
    (solder_mask_margin 0.1016))
)

