(module RJ_6_ADI (layer F.Cu)
  (fp_text reference REF** (at 0 0) (layer F.SilkS)
    (effects (font (size 1 1) (thickness .15)))
  )
  (fp_text value RJ_6_ADI (at 0 0) (layer F.SilkS)
    (effects (font (size 1 1) (thickness .15)))
  )
  (fp_text user "Copyright 2016 Accelerated Designs. All rights reserved." (at 0 0) (layer Cmts.User)
    (effects (font (size .127 .127) (thickness .002)))
  )
  (fp_text user "*" (at -1.4732 -2.601) (layer F.SilkS)
    (effects (font (size 1 1) (thickness .15)))
  )
  (fp_text user "*" (at -.5969 -1.6358) (layer F.Fab)
    (effects (font (size 1 1) (thickness .15)))
  )
  (fp_text user "0.096in/2.438mm" (at 0 -5.8166) (layer Dwgs.User)
    (effects (font (size 1 1) (thickness .15)))
  )
  (fp_text user "0.037in/0.95mm" (at -4.2672 -.475) (layer Dwgs.User)
    (effects (font (size 1 1) (thickness .15)))
  )
  (fp_text user "0.05in/1.27mm" (at -1.2192 3.9116) (layer Dwgs.User)
    (effects (font (size 1 1) (thickness .15)))
  )
  (fp_text user "*" (at -.5969 -1.6358) (layer F.Fab)
    (effects (font (size 1 1) (thickness .15)))
  )
  (fp_text user "*" (at -1.4732 -2.601) (layer F.SilkS)
    (effects (font (size 1 1) (thickness .15)))
  )
  (fp_line (start -.9779 1.6256) (end .9779 1.6256) (layer F.SilkS) (width .1524))
  (fp_line (start .9779 -1.6256) (end -.9779 -1.6256) (layer F.SilkS) (width .1524))
  (fp_line (start -.8509 1.4986) (end .8509 1.4986) (layer F.Fab) (width .1524))
  (fp_line (start .8509 1.4986) (end .8509 -1.4986) (layer F.Fab) (width .1524))
  (fp_line (start .8509 -1.4986) (end -.8509 -1.4986) (layer F.Fab) (width .1524))
  (fp_line (start -.8509 -1.4986) (end -.8509 1.4986) (layer F.Fab) (width .1524))
  (fp_line (start -.8509 -.696) (end -.8509 -1.204) (layer F.Fab) (width .1524))
  (fp_line (start -.8509 -1.204) (end -1.4986 -1.204) (layer F.Fab) (width .1524))
  (fp_line (start -1.4986 -1.204) (end -1.4986 -.696) (layer F.Fab) (width .1524))
  (fp_line (start -1.4986 -.696) (end -.8509 -.696) (layer F.Fab) (width .1524))
  (fp_line (start -.8509 .254) (end -.8509 -.254) (layer F.Fab) (width .1524))
  (fp_line (start -.8509 -.254) (end -1.4986 -.254) (layer F.Fab) (width .1524))
  (fp_line (start -1.4986 -.254) (end -1.4986 .254) (layer F.Fab) (width .1524))
  (fp_line (start -1.4986 .254) (end -.8509 .254) (layer F.Fab) (width .1524))
  (fp_line (start -.8509 1.204) (end -.8509 .696) (layer F.Fab) (width .1524))
  (fp_line (start -.8509 .696) (end -1.4986 .696) (layer F.Fab) (width .1524))
  (fp_line (start -1.4986 .696) (end -1.4986 1.204) (layer F.Fab) (width .1524))
  (fp_line (start -1.4986 1.204) (end -.8509 1.204) (layer F.Fab) (width .1524))
  (fp_line (start .8509 .696) (end .8509 1.204) (layer F.Fab) (width .1524))
  (fp_line (start .8509 1.204) (end 1.4986 1.204) (layer F.Fab) (width .1524))
  (fp_line (start 1.4986 1.204) (end 1.4986 .696) (layer F.Fab) (width .1524))
  (fp_line (start 1.4986 .696) (end .8509 .696) (layer F.Fab) (width .1524))
  (fp_line (start .8509 -.254) (end .8509 .254) (layer F.Fab) (width .1524))
  (fp_line (start .8509 .254) (end 1.4986 .254) (layer F.Fab) (width .1524))
  (fp_line (start 1.4986 .254) (end 1.4986 -.254) (layer F.Fab) (width .1524))
  (fp_line (start 1.4986 -.254) (end .8509 -.254) (layer F.Fab) (width .1524))
  (fp_line (start .8509 -1.204) (end .8509 -.696) (layer F.Fab) (width .1524))
  (fp_line (start .8509 -.696) (end 1.4986 -.696) (layer F.Fab) (width .1524))
  (fp_line (start 1.4986 -.696) (end 1.4986 -1.204) (layer F.Fab) (width .1524))
  (fp_line (start 1.4986 -1.204) (end .8509 -1.204) (layer F.Fab) (width .1524))
  (fp_line (start -1.1049 1.7526) (end -1.1049 1.458) (layer F.CrtYd) (width .1524))
  (fp_line (start -1.1049 1.458) (end -2.1082 1.458) (layer F.CrtYd) (width .1524))
  (fp_line (start -2.1082 1.458) (end -2.1082 -1.458) (layer F.CrtYd) (width .1524))
  (fp_line (start -2.1082 -1.458) (end -1.1049 -1.458) (layer F.CrtYd) (width .1524))
  (fp_line (start -1.1049 -1.458) (end -1.1049 -1.7526) (layer F.CrtYd) (width .1524))
  (fp_line (start -1.1049 -1.7526) (end 1.1049 -1.7526) (layer F.CrtYd) (width .1524))
  (fp_line (start 1.1049 -1.7526) (end 1.1049 -1.458) (layer F.CrtYd) (width .1524))
  (fp_line (start 1.1049 -1.458) (end 2.1082 -1.458) (layer F.CrtYd) (width .1524))
  (fp_line (start 2.1082 -1.458) (end 2.1082 1.458) (layer F.CrtYd) (width .1524))
  (fp_line (start 2.1082 1.458) (end 1.1049 1.458) (layer F.CrtYd) (width .1524))
  (fp_line (start 1.1049 1.458) (end 1.1049 1.7526) (layer F.CrtYd) (width .1524))
  (fp_line (start 1.1049 1.7526) (end -1.1049 1.7526) (layer F.CrtYd) (width .1524))
  (fp_arc (start 0 -1.4986) (end .3048 -1.4986) (angle 180)(layer F.Fab) (width .1524))
  (pad 1 smd rect (at -1.2192 -.950001) (size 1.27 .508) (layers F.Cu F.Paste F.Mask))
  (pad 2 smd rect (at -1.2192 0) (size 1.27 .508) (layers F.Cu F.Paste F.Mask))
  (pad 3 smd rect (at -1.2192 .950001) (size 1.27 .508) (layers F.Cu F.Paste F.Mask))
  (pad 4 smd rect (at 1.2192 .950001) (size 1.27 .508) (layers F.Cu F.Paste F.Mask))
  (pad 5 smd rect (at 1.2192 0) (size 1.27 .508) (layers F.Cu F.Paste F.Mask))
  (pad 6 smd rect (at 1.2192 -.950001) (size 1.27 .508) (layers F.Cu F.Paste F.Mask))
)
