%TF.GenerationSoftware,KiCad,Pcbnew,(6.0.5-0)*%
%TF.CreationDate,2022-08-09T12:05:49-07:00*%
%TF.ProjectId,linPOL_board,6c696e50-4f4c-45f6-926f-6172642e6b69,v1*%
%TF.SameCoordinates,Original*%
%TF.FileFunction,Profile,NP*%
%FSLAX46Y46*%
G04 Gerber Fmt 4.6, Leading zero omitted, Abs format (unit mm)*
G04 Created by KiCad (PCBNEW (6.0.5-0)) date 2022-08-09 12:05:49*
%MOMM*%
%LPD*%
G01*
G04 APERTURE LIST*
%TA.AperFunction,Profile*%
%ADD10C,0.150000*%
%TD*%
G04 APERTURE END LIST*
D10*
X15240000Y-12192000D02*
X248158000Y-12192000D01*
X15240000Y-182372000D02*
X15240000Y-12192000D01*
X248158000Y-182372000D02*
X15240000Y-182372000D01*
X248158000Y-12192000D02*
X248158000Y-182372000D01*
M02*
