%!PS-Adobe-3.0
%%Creator: PCBNEW
%%CreationDate: Tue Aug  9 01:49:41 2022
%%Title: ()
%%Pages: 1
%%PageOrder: Ascend
%%BoundingBox: 0 0 596 842
%%DocumentMedia: A4 595 842 0 () ()
%%Orientation: Landscape
%%EndComments
%%BeginProlog
/line { newpath moveto lineto stroke } bind def
/cir0 { newpath 0 360 arc stroke } bind def
/cir1 { newpath 0 360 arc gsave fill grestore stroke } bind def
/cir2 { newpath 0 360 arc gsave fill grestore stroke } bind def
/arc0 { newpath arc stroke } bind def
/arc1 { newpath 4 index 4 index moveto arc closepath gsave fill
    grestore stroke } bind def
/arc2 { newpath 4 index 4 index moveto arc closepath gsave fill
    grestore stroke } bind def
/poly0 { stroke } bind def
/poly1 { closepath gsave fill grestore stroke } bind def
/poly2 { closepath gsave fill grestore stroke } bind def
/rect0 { rectstroke } bind def
/rect1 { rectfill } bind def
/rect2 { rectfill } bind def
/linemode0 { 0 setlinecap 0 setlinejoin 0 setlinewidth } bind def
/linemode1 { 1 setlinecap 1 setlinejoin } bind def
/dashedline { [200] 100 setdash } bind def
/solidline { [] 0 setdash } bind def
/phantomshow { moveto
    /KicadFont findfont 0.000001 scalefont setfont
    show } bind def
/textshow { gsave
    findfont exch scalefont setfont concat 1 scale 0 0 moveto show
    } bind def
/reencodefont {
  findfont dup length dict begin
  { 1 index /FID ne
    { def }
    { pop pop } ifelse
  } forall
  /Encoding ISOLatin1Encoding def
  currentdict
  end } bind def
/KicadFont /Helvetica reencodefont definefont pop
/KicadFont-Bold /Helvetica-Bold reencodefont definefont pop
/KicadFont-Oblique /Helvetica-Oblique reencodefont definefont pop
/KicadFont-BoldOblique /Helvetica-BoldOblique reencodefont definefont pop
%%EndProlog
%%Page: 1 1
%%BeginPageSetup
gsave
0.0072 0.0072 scale
linemode1
82680 0 translate 90 rotate
53.6265 setlinewidth
%%EndPageSetup
0 0 0 setrgbcolor
40.2199 setlinewidth
newpath
27238.6 80691.4 moveto
89691.4 80691.4 lineto
stroke
0 0 0 setrgbcolor
newpath
27238.6 35060.6 moveto
27238.6 80691.4 lineto
stroke
0 0 0 setrgbcolor
newpath
89691.4 35060.6 moveto
27238.6 35060.6 lineto
stroke
0 0 0 setrgbcolor
newpath
89691.4 80691.4 moveto
89691.4 35060.6 lineto
stroke
53.6265 setlinewidth
80.4397 setlinewidth
newpath
27739.4 67273 moveto
28543.8 66468.6 lineto
stroke
newpath
28543.8 67273 moveto
27739.4 66468.6 lineto
stroke
newpath
27739.4 65020.7 moveto
28543.8 64216.3 lineto
stroke
newpath
28543.8 65020.7 moveto
27739.4 64216.3 lineto
stroke
107.253 setlinewidth
41540.8 69726.4 536.265 cir0
41540.8 48205 536.265 cir0
66467.4 58761.4 536.265 cir0
88193.1 69726.4 536.265 cir0
88193.1 48205 536.265 cir0
53.6265 setlinewidth
0 0 0 setrgbcolor
0 0 0 setrgbcolor
newpath
27909.2 34208 moveto
27909.2 34744.3 lineto
28036.9 34744.3 lineto
28113.5 34718.7 lineto
28164.6 34667.7 lineto
28190.1 34616.6 lineto
28215.7 34514.5 lineto
28215.7 34437.8 lineto
28190.1 34335.7 lineto
28164.6 34284.6 lineto
28113.5 34233.6 lineto
28036.9 34208 lineto
27909.2 34208 lineto
stroke
newpath
28445.5 34208 moveto
28445.5 34565.5 lineto
stroke
newpath
28445.5 34463.4 moveto
28471 34514.5 lineto
28496.6 34540 lineto
28547.6 34565.5 lineto
28598.7 34565.5 lineto
stroke
newpath
28777.5 34208 moveto
28777.5 34565.5 lineto
stroke
newpath
28777.5 34744.3 moveto
28751.9 34718.7 lineto
28777.5 34693.2 lineto
28803 34718.7 lineto
28777.5 34744.3 lineto
28777.5 34693.2 lineto
stroke
newpath
29109.4 34208 moveto
29058.4 34233.6 lineto
29032.8 34284.6 lineto
29032.8 34744.3 lineto
stroke
newpath
29390.3 34208 moveto
29339.3 34233.6 lineto
29313.7 34284.6 lineto
29313.7 34744.3 lineto
stroke
newpath
30003.2 34208 moveto
30003.2 34744.3 lineto
30182 34361.2 lineto
30360.7 34744.3 lineto
30360.7 34208 lineto
stroke
newpath
30845.9 34208 moveto
30845.9 34488.9 lineto
30820.4 34540 lineto
30769.3 34565.5 lineto
30667.2 34565.5 lineto
30616.1 34540 lineto
stroke
newpath
30845.9 34233.6 moveto
30794.8 34208 lineto
30667.2 34208 lineto
30616.1 34233.6 lineto
30590.5 34284.6 lineto
30590.5 34335.7 lineto
30616.1 34386.8 lineto
30667.2 34412.3 lineto
30794.8 34412.3 lineto
30845.9 34437.8 lineto
stroke
newpath
31101.3 34565.5 moveto
31101.3 34029.3 lineto
stroke
newpath
31101.3 34540 moveto
31152.3 34565.5 lineto
31254.5 34565.5 lineto
31305.6 34540 lineto
31331.1 34514.5 lineto
31356.6 34463.4 lineto
31356.6 34310.2 lineto
31331.1 34259.1 lineto
31305.6 34233.6 lineto
31254.5 34208 lineto
31152.3 34208 lineto
31101.3 34233.6 lineto
stroke
newpath
31586.5 34259.1 moveto
31612 34233.6 lineto
31586.5 34208 lineto
31560.9 34233.6 lineto
31586.5 34259.1 lineto
31586.5 34208 lineto
stroke
newpath
31586.5 34540 moveto
31612 34514.5 lineto
31586.5 34488.9 lineto
31560.9 34514.5 lineto
31586.5 34540 lineto
31586.5 34488.9 lineto
stroke
newpath
26682.2 33592.6 moveto
27218.5 33056.3 lineto
stroke
newpath
27218.5 33592.6 moveto
26682.2 33056.3 lineto
stroke
0 0 0 setrgbcolor
0 0 0 setrgbcolor
newpath
27858.1 33618.1 moveto
28190.1 33618.1 lineto
28011.4 33413.8 lineto
28088 33413.8 lineto
28139 33388.3 lineto
28164.6 33362.8 lineto
28190.1 33311.7 lineto
28190.1 33184 lineto
28164.6 33132.9 lineto
28139 33107.4 lineto
28088 33081.9 lineto
27934.8 33081.9 lineto
27883.7 33107.4 lineto
27858.1 33132.9 lineto
stroke
newpath
28419.9 33132.9 moveto
28445.5 33107.4 lineto
28419.9 33081.9 lineto
28394.4 33107.4 lineto
28419.9 33132.9 lineto
28419.9 33081.9 lineto
stroke
newpath
28777.5 33618.1 moveto
28828.5 33618.1 lineto
28879.6 33592.6 lineto
28905.1 33567.1 lineto
28930.7 33516 lineto
28956.2 33413.8 lineto
28956.2 33286.2 lineto
28930.7 33184 lineto
28905.1 33132.9 lineto
28879.6 33107.4 lineto
28828.5 33081.9 lineto
28777.5 33081.9 lineto
28726.4 33107.4 lineto
28700.8 33132.9 lineto
28675.3 33184 lineto
28649.8 33286.2 lineto
28649.8 33413.8 lineto
28675.3 33516 lineto
28700.8 33567.1 lineto
28726.4 33592.6 lineto
28777.5 33618.1 lineto
stroke
newpath
29288.2 33618.1 moveto
29339.3 33618.1 lineto
29390.3 33592.6 lineto
29415.9 33567.1 lineto
29441.4 33516 lineto
29466.9 33413.8 lineto
29466.9 33286.2 lineto
29441.4 33184 lineto
29415.9 33132.9 lineto
29390.3 33107.4 lineto
29339.3 33081.9 lineto
29288.2 33081.9 lineto
29237.1 33107.4 lineto
29211.6 33132.9 lineto
29186 33184 lineto
29160.5 33286.2 lineto
29160.5 33413.8 lineto
29186 33516 lineto
29211.6 33567.1 lineto
29237.1 33592.6 lineto
29288.2 33618.1 lineto
stroke
newpath
29798.9 33618.1 moveto
29850 33618.1 lineto
29901.1 33592.6 lineto
29926.6 33567.1 lineto
29952.1 33516 lineto
29977.7 33413.8 lineto
29977.7 33286.2 lineto
29952.1 33184 lineto
29926.6 33132.9 lineto
29901.1 33107.4 lineto
29850 33081.9 lineto
29798.9 33081.9 lineto
29747.8 33107.4 lineto
29722.3 33132.9 lineto
29696.8 33184 lineto
29671.2 33286.2 lineto
29671.2 33413.8 lineto
29696.8 33516 lineto
29722.3 33567.1 lineto
29747.8 33592.6 lineto
29798.9 33618.1 lineto
stroke
newpath
30207.5 33081.9 moveto
30207.5 33439.4 lineto
stroke
newpath
30207.5 33388.3 moveto
30233 33413.8 lineto
30284.1 33439.4 lineto
30360.7 33439.4 lineto
30411.8 33413.8 lineto
30437.3 33362.8 lineto
30437.3 33081.9 lineto
stroke
newpath
30437.3 33362.8 moveto
30462.9 33413.8 lineto
30513.9 33439.4 lineto
30590.5 33439.4 lineto
30641.6 33413.8 lineto
30667.2 33362.8 lineto
30667.2 33081.9 lineto
stroke
newpath
30922.5 33081.9 moveto
30922.5 33439.4 lineto
stroke
newpath
30922.5 33388.3 moveto
30948.1 33413.8 lineto
30999.1 33439.4 lineto
31075.7 33439.4 lineto
31126.8 33413.8 lineto
31152.3 33362.8 lineto
31152.3 33081.9 lineto
stroke
newpath
31152.3 33362.8 moveto
31177.9 33413.8 lineto
31229 33439.4 lineto
31305.6 33439.4 lineto
31356.6 33413.8 lineto
31382.2 33362.8 lineto
31382.2 33081.9 lineto
stroke
newpath
32429.2 33643.7 moveto
31969.5 32954.2 lineto
stroke
newpath
33118.6 33618.1 moveto
33169.7 33618.1 lineto
33220.8 33592.6 lineto
33246.3 33567.1 lineto
33271.9 33516 lineto
33297.4 33413.8 lineto
33297.4 33286.2 lineto
33271.9 33184 lineto
33246.3 33132.9 lineto
33220.8 33107.4 lineto
33169.7 33081.9 lineto
33118.6 33081.9 lineto
33067.6 33107.4 lineto
33042 33132.9 lineto
33016.5 33184 lineto
32991 33286.2 lineto
32991 33413.8 lineto
33016.5 33516 lineto
33042 33567.1 lineto
33067.6 33592.6 lineto
33118.6 33618.1 lineto
stroke
newpath
33527.2 33132.9 moveto
33552.8 33107.4 lineto
33527.2 33081.9 lineto
33501.7 33107.4 lineto
33527.2 33132.9 lineto
33527.2 33081.9 lineto
stroke
newpath
34063.5 33081.9 moveto
33757.1 33081.9 lineto
stroke
newpath
33910.3 33081.9 moveto
33910.3 33618.1 lineto
33859.2 33541.5 lineto
33808.1 33490.4 lineto
33757.1 33464.9 lineto
stroke
newpath
34574.2 33081.9 moveto
34267.8 33081.9 lineto
stroke
newpath
34421 33081.9 moveto
34421 33618.1 lineto
34369.9 33541.5 lineto
34318.9 33490.4 lineto
34267.8 33464.9 lineto
stroke
newpath
34880.7 33388.3 moveto
34829.6 33413.8 lineto
34804.1 33439.4 lineto
34778.5 33490.4 lineto
34778.5 33516 lineto
34804.1 33567.1 lineto
34829.6 33592.6 lineto
34880.7 33618.1 lineto
34982.8 33618.1 lineto
35033.9 33592.6 lineto
35059.4 33567.1 lineto
35085 33516 lineto
35085 33490.4 lineto
35059.4 33439.4 lineto
35033.9 33413.8 lineto
34982.8 33388.3 lineto
34880.7 33388.3 lineto
34829.6 33362.8 lineto
34804.1 33337.2 lineto
34778.5 33286.2 lineto
34778.5 33184 lineto
34804.1 33132.9 lineto
34829.6 33107.4 lineto
34880.7 33081.9 lineto
34982.8 33081.9 lineto
35033.9 33107.4 lineto
35059.4 33132.9 lineto
35085 33184 lineto
35085 33286.2 lineto
35059.4 33337.2 lineto
35033.9 33362.8 lineto
34982.8 33388.3 lineto
stroke
newpath
35595.7 33081.9 moveto
35289.2 33081.9 lineto
stroke
newpath
35442.5 33081.9 moveto
35442.5 33618.1 lineto
35391.4 33541.5 lineto
35340.3 33490.4 lineto
35289.2 33464.9 lineto
stroke
newpath
35800 33618.1 moveto
35800 33516 lineto
stroke
newpath
36004.3 33618.1 moveto
36004.3 33516 lineto
stroke
newpath
36795.9 32877.6 moveto
36770.4 32903.1 lineto
36719.3 32979.7 lineto
36693.7 33030.8 lineto
36668.2 33107.4 lineto
36642.7 33235.1 lineto
36642.7 33337.2 lineto
36668.2 33464.9 lineto
36693.7 33541.5 lineto
36719.3 33592.6 lineto
36770.4 33669.2 lineto
36795.9 33694.7 lineto
stroke
newpath
36974.6 33567.1 moveto
37000.2 33592.6 lineto
37051.3 33618.1 lineto
37178.9 33618.1 lineto
37230 33592.6 lineto
37255.5 33567.1 lineto
37281.1 33516 lineto
37281.1 33464.9 lineto
37255.5 33388.3 lineto
36949.1 33081.9 lineto
37281.1 33081.9 lineto
stroke
newpath
37919.5 33081.9 moveto
37919.5 33618.1 lineto
stroke
newpath
38149.3 33081.9 moveto
38149.3 33362.8 lineto
38123.8 33413.8 lineto
38072.7 33439.4 lineto
37996.1 33439.4 lineto
37945 33413.8 lineto
37919.5 33388.3 lineto
stroke
newpath
38481.3 33081.9 moveto
38430.2 33107.4 lineto
38404.7 33132.9 lineto
38379.2 33184 lineto
38379.2 33337.2 lineto
38404.7 33388.3 lineto
38430.2 33413.8 lineto
38481.3 33439.4 lineto
38557.9 33439.4 lineto
38609 33413.8 lineto
38634.5 33388.3 lineto
38660.1 33337.2 lineto
38660.1 33184 lineto
38634.5 33132.9 lineto
38609 33107.4 lineto
38557.9 33081.9 lineto
38481.3 33081.9 lineto
stroke
newpath
38966.5 33081.9 moveto
38915.4 33107.4 lineto
38889.9 33158.5 lineto
38889.9 33618.1 lineto
stroke
newpath
39375.1 33107.4 moveto
39324 33081.9 lineto
39221.9 33081.9 lineto
39170.8 33107.4 lineto
39145.2 33158.5 lineto
39145.2 33362.8 lineto
39170.8 33413.8 lineto
39221.9 33439.4 lineto
39324 33439.4 lineto
39375.1 33413.8 lineto
39400.6 33362.8 lineto
39400.6 33311.7 lineto
39145.2 33260.6 lineto
stroke
newpath
39604.9 33107.4 moveto
39656 33081.9 lineto
39758.1 33081.9 lineto
39809.2 33107.4 lineto
39834.7 33158.5 lineto
39834.7 33184 lineto
39809.2 33235.1 lineto
39758.1 33260.6 lineto
39681.5 33260.6 lineto
39630.4 33286.2 lineto
39604.9 33337.2 lineto
39604.9 33362.8 lineto
39630.4 33413.8 lineto
39681.5 33439.4 lineto
39758.1 33439.4 lineto
39809.2 33413.8 lineto
stroke
newpath
40013.5 32877.6 moveto
40039 32903.1 lineto
40090.1 32979.7 lineto
40115.6 33030.8 lineto
40141.2 33107.4 lineto
40166.7 33235.1 lineto
40166.7 33337.2 lineto
40141.2 33464.9 lineto
40115.6 33541.5 lineto
40090.1 33592.6 lineto
40039 33669.2 lineto
40013.5 33694.7 lineto
stroke
newpath
40983.9 32877.6 moveto
40958.3 32903.1 lineto
40907.3 32979.7 lineto
40881.7 33030.8 lineto
40856.2 33107.4 lineto
40830.6 33235.1 lineto
40830.6 33337.2 lineto
40856.2 33464.9 lineto
40881.7 33541.5 lineto
40907.3 33592.6 lineto
40958.3 33669.2 lineto
40983.9 33694.7 lineto
stroke
newpath
41188.2 33439.4 moveto
41188.2 33081.9 lineto
stroke
newpath
41188.2 33388.3 moveto
41213.7 33413.8 lineto
41264.8 33439.4 lineto
41341.4 33439.4 lineto
41392.4 33413.8 lineto
41418 33362.8 lineto
41418 33081.9 lineto
stroke
newpath
41750 33081.9 moveto
41698.9 33107.4 lineto
41673.3 33132.9 lineto
41647.8 33184 lineto
41647.8 33337.2 lineto
41673.3 33388.3 lineto
41698.9 33413.8 lineto
41750 33439.4 lineto
41826.6 33439.4 lineto
41877.6 33413.8 lineto
41903.2 33388.3 lineto
41928.7 33337.2 lineto
41928.7 33184 lineto
41903.2 33132.9 lineto
41877.6 33107.4 lineto
41826.6 33081.9 lineto
41750 33081.9 lineto
stroke
newpath
42081.9 33439.4 moveto
42286.2 33439.4 lineto
stroke
newpath
42158.5 33618.1 moveto
42158.5 33158.5 lineto
42184.1 33107.4 lineto
42235.1 33081.9 lineto
42286.2 33081.9 lineto
stroke
newpath
42873.6 33439.4 moveto
42873.6 32903.1 lineto
stroke
newpath
42873.6 33413.8 moveto
42924.6 33439.4 lineto
43026.8 33439.4 lineto
43077.9 33413.8 lineto
43103.4 33388.3 lineto
43128.9 33337.2 lineto
43128.9 33184 lineto
43103.4 33132.9 lineto
43077.9 33107.4 lineto
43026.8 33081.9 lineto
42924.6 33081.9 lineto
42873.6 33107.4 lineto
stroke
newpath
43435.4 33081.9 moveto
43384.3 33107.4 lineto
43358.8 33158.5 lineto
43358.8 33618.1 lineto
stroke
newpath
43869.5 33081.9 moveto
43869.5 33362.8 lineto
43843.9 33413.8 lineto
43792.9 33439.4 lineto
43690.7 33439.4 lineto
43639.7 33413.8 lineto
stroke
newpath
43869.5 33107.4 moveto
43818.4 33081.9 lineto
43690.7 33081.9 lineto
43639.7 33107.4 lineto
43614.1 33158.5 lineto
43614.1 33209.5 lineto
43639.7 33260.6 lineto
43690.7 33286.2 lineto
43818.4 33286.2 lineto
43869.5 33311.7 lineto
stroke
newpath
44048.2 33439.4 moveto
44252.5 33439.4 lineto
stroke
newpath
44124.8 33618.1 moveto
44124.8 33158.5 lineto
44150.4 33107.4 lineto
44201.5 33081.9 lineto
44252.5 33081.9 lineto
stroke
newpath
44635.6 33107.4 moveto
44584.5 33081.9 lineto
44482.4 33081.9 lineto
44431.3 33107.4 lineto
44405.7 33158.5 lineto
44405.7 33362.8 lineto
44431.3 33413.8 lineto
44482.4 33439.4 lineto
44584.5 33439.4 lineto
44635.6 33413.8 lineto
44661.1 33362.8 lineto
44661.1 33311.7 lineto
44405.7 33260.6 lineto
stroke
newpath
45120.8 33081.9 moveto
45120.8 33618.1 lineto
stroke
newpath
45120.8 33107.4 moveto
45069.7 33081.9 lineto
44967.5 33081.9 lineto
44916.5 33107.4 lineto
44890.9 33132.9 lineto
44865.4 33184 lineto
44865.4 33337.2 lineto
44890.9 33388.3 lineto
44916.5 33413.8 lineto
44967.5 33439.4 lineto
45069.7 33439.4 lineto
45120.8 33413.8 lineto
stroke
newpath
45325.1 32877.6 moveto
45350.6 32903.1 lineto
45401.7 32979.7 lineto
45427.2 33030.8 lineto
45452.7 33107.4 lineto
45478.3 33235.1 lineto
45478.3 33337.2 lineto
45452.7 33464.9 lineto
45427.2 33541.5 lineto
45401.7 33592.6 lineto
45350.6 33669.2 lineto
45325.1 33694.7 lineto
stroke
26950.3 32340.9 268.132 cir0
0 0 0 setrgbcolor
0 0 0 setrgbcolor
newpath
28139 32455.8 moveto
28139 32098.3 lineto
stroke
newpath
28011.4 32660.1 moveto
27883.7 32277 lineto
28215.7 32277 lineto
stroke
newpath
28419.9 32149.3 moveto
28445.5 32123.8 lineto
28419.9 32098.3 lineto
28394.4 32123.8 lineto
28419.9 32149.3 lineto
28419.9 32098.3 lineto
stroke
newpath
28777.5 32634.5 moveto
28828.5 32634.5 lineto
28879.6 32609 lineto
28905.1 32583.5 lineto
28930.7 32532.4 lineto
28956.2 32430.2 lineto
28956.2 32302.6 lineto
28930.7 32200.4 lineto
28905.1 32149.3 lineto
28879.6 32123.8 lineto
28828.5 32098.3 lineto
28777.5 32098.3 lineto
28726.4 32123.8 lineto
28700.8 32149.3 lineto
28675.3 32200.4 lineto
28649.8 32302.6 lineto
28649.8 32430.2 lineto
28675.3 32532.4 lineto
28700.8 32583.5 lineto
28726.4 32609 lineto
28777.5 32634.5 lineto
stroke
newpath
29288.2 32634.5 moveto
29339.3 32634.5 lineto
29390.3 32609 lineto
29415.9 32583.5 lineto
29441.4 32532.4 lineto
29466.9 32430.2 lineto
29466.9 32302.6 lineto
29441.4 32200.4 lineto
29415.9 32149.3 lineto
29390.3 32123.8 lineto
29339.3 32098.3 lineto
29288.2 32098.3 lineto
29237.1 32123.8 lineto
29211.6 32149.3 lineto
29186 32200.4 lineto
29160.5 32302.6 lineto
29160.5 32430.2 lineto
29186 32532.4 lineto
29211.6 32583.5 lineto
29237.1 32609 lineto
29288.2 32634.5 lineto
stroke
newpath
29798.9 32634.5 moveto
29850 32634.5 lineto
29901.1 32609 lineto
29926.6 32583.5 lineto
29952.1 32532.4 lineto
29977.7 32430.2 lineto
29977.7 32302.6 lineto
29952.1 32200.4 lineto
29926.6 32149.3 lineto
29901.1 32123.8 lineto
29850 32098.3 lineto
29798.9 32098.3 lineto
29747.8 32123.8 lineto
29722.3 32149.3 lineto
29696.8 32200.4 lineto
29671.2 32302.6 lineto
29671.2 32430.2 lineto
29696.8 32532.4 lineto
29722.3 32583.5 lineto
29747.8 32609 lineto
29798.9 32634.5 lineto
stroke
newpath
30207.5 32098.3 moveto
30207.5 32455.8 lineto
stroke
newpath
30207.5 32404.7 moveto
30233 32430.2 lineto
30284.1 32455.8 lineto
30360.7 32455.8 lineto
30411.8 32430.2 lineto
30437.3 32379.2 lineto
30437.3 32098.3 lineto
stroke
newpath
30437.3 32379.2 moveto
30462.9 32430.2 lineto
30513.9 32455.8 lineto
30590.5 32455.8 lineto
30641.6 32430.2 lineto
30667.2 32379.2 lineto
30667.2 32098.3 lineto
stroke
newpath
30922.5 32098.3 moveto
30922.5 32455.8 lineto
stroke
newpath
30922.5 32404.7 moveto
30948.1 32430.2 lineto
30999.1 32455.8 lineto
31075.7 32455.8 lineto
31126.8 32430.2 lineto
31152.3 32379.2 lineto
31152.3 32098.3 lineto
stroke
newpath
31152.3 32379.2 moveto
31177.9 32430.2 lineto
31229 32455.8 lineto
31305.6 32455.8 lineto
31356.6 32430.2 lineto
31382.2 32379.2 lineto
31382.2 32098.3 lineto
stroke
newpath
32429.2 32660.1 moveto
31969.5 31970.6 lineto
stroke
newpath
33118.6 32634.5 moveto
33169.7 32634.5 lineto
33220.8 32609 lineto
33246.3 32583.5 lineto
33271.9 32532.4 lineto
33297.4 32430.2 lineto
33297.4 32302.6 lineto
33271.9 32200.4 lineto
33246.3 32149.3 lineto
33220.8 32123.8 lineto
33169.7 32098.3 lineto
33118.6 32098.3 lineto
33067.6 32123.8 lineto
33042 32149.3 lineto
33016.5 32200.4 lineto
32991 32302.6 lineto
32991 32430.2 lineto
33016.5 32532.4 lineto
33042 32583.5 lineto
33067.6 32609 lineto
33118.6 32634.5 lineto
stroke
newpath
33527.2 32149.3 moveto
33552.8 32123.8 lineto
33527.2 32098.3 lineto
33501.7 32123.8 lineto
33527.2 32149.3 lineto
33527.2 32098.3 lineto
stroke
newpath
34063.5 32098.3 moveto
33757.1 32098.3 lineto
stroke
newpath
33910.3 32098.3 moveto
33910.3 32634.5 lineto
33859.2 32557.9 lineto
33808.1 32506.9 lineto
33757.1 32481.3 lineto
stroke
newpath
34548.7 32634.5 moveto
34293.3 32634.5 lineto
34267.8 32379.2 lineto
34293.3 32404.7 lineto
34344.4 32430.2 lineto
34472.1 32430.2 lineto
34523.2 32404.7 lineto
34548.7 32379.2 lineto
34574.2 32328.1 lineto
34574.2 32200.4 lineto
34548.7 32149.3 lineto
34523.2 32123.8 lineto
34472.1 32098.3 lineto
34344.4 32098.3 lineto
34293.3 32123.8 lineto
34267.8 32149.3 lineto
stroke
newpath
34753 32634.5 moveto
35110.5 32634.5 lineto
34880.7 32098.3 lineto
stroke
newpath
35570.1 32634.5 moveto
35314.8 32634.5 lineto
35289.2 32379.2 lineto
35314.8 32404.7 lineto
35365.9 32430.2 lineto
35493.5 32430.2 lineto
35544.6 32404.7 lineto
35570.1 32379.2 lineto
35595.7 32328.1 lineto
35595.7 32200.4 lineto
35570.1 32149.3 lineto
35544.6 32123.8 lineto
35493.5 32098.3 lineto
35365.9 32098.3 lineto
35314.8 32123.8 lineto
35289.2 32149.3 lineto
stroke
newpath
35800 32634.5 moveto
35800 32532.4 lineto
stroke
newpath
36004.3 32634.5 moveto
36004.3 32532.4 lineto
stroke
newpath
36795.9 31894 moveto
36770.4 31919.5 lineto
36719.3 31996.1 lineto
36693.7 32047.2 lineto
36668.2 32123.8 lineto
36642.7 32251.5 lineto
36642.7 32353.6 lineto
36668.2 32481.3 lineto
36693.7 32557.9 lineto
36719.3 32609 lineto
36770.4 32685.6 lineto
36795.9 32711.1 lineto
stroke
newpath
37255.5 32634.5 moveto
37000.2 32634.5 lineto
36974.6 32379.2 lineto
37000.2 32404.7 lineto
37051.3 32430.2 lineto
37178.9 32430.2 lineto
37230 32404.7 lineto
37255.5 32379.2 lineto
37281.1 32328.1 lineto
37281.1 32200.4 lineto
37255.5 32149.3 lineto
37230 32123.8 lineto
37178.9 32098.3 lineto
37051.3 32098.3 lineto
37000.2 32123.8 lineto
36974.6 32149.3 lineto
stroke
newpath
37919.5 32098.3 moveto
37919.5 32634.5 lineto
stroke
newpath
38149.3 32098.3 moveto
38149.3 32379.2 lineto
38123.8 32430.2 lineto
38072.7 32455.8 lineto
37996.1 32455.8 lineto
37945 32430.2 lineto
37919.5 32404.7 lineto
stroke
newpath
38481.3 32098.3 moveto
38430.2 32123.8 lineto
38404.7 32149.3 lineto
38379.2 32200.4 lineto
38379.2 32353.6 lineto
38404.7 32404.7 lineto
38430.2 32430.2 lineto
38481.3 32455.8 lineto
38557.9 32455.8 lineto
38609 32430.2 lineto
38634.5 32404.7 lineto
38660.1 32353.6 lineto
38660.1 32200.4 lineto
38634.5 32149.3 lineto
38609 32123.8 lineto
38557.9 32098.3 lineto
38481.3 32098.3 lineto
stroke
newpath
38966.5 32098.3 moveto
38915.4 32123.8 lineto
38889.9 32174.9 lineto
38889.9 32634.5 lineto
stroke
newpath
39375.1 32123.8 moveto
39324 32098.3 lineto
39221.9 32098.3 lineto
39170.8 32123.8 lineto
39145.2 32174.9 lineto
39145.2 32379.2 lineto
39170.8 32430.2 lineto
39221.9 32455.8 lineto
39324 32455.8 lineto
39375.1 32430.2 lineto
39400.6 32379.2 lineto
39400.6 32328.1 lineto
39145.2 32277 lineto
stroke
newpath
39604.9 32123.8 moveto
39656 32098.3 lineto
39758.1 32098.3 lineto
39809.2 32123.8 lineto
39834.7 32174.9 lineto
39834.7 32200.4 lineto
39809.2 32251.5 lineto
39758.1 32277 lineto
39681.5 32277 lineto
39630.4 32302.6 lineto
39604.9 32353.6 lineto
39604.9 32379.2 lineto
39630.4 32430.2 lineto
39681.5 32455.8 lineto
39758.1 32455.8 lineto
39809.2 32430.2 lineto
stroke
newpath
40013.5 31894 moveto
40039 31919.5 lineto
40090.1 31996.1 lineto
40115.6 32047.2 lineto
40141.2 32123.8 lineto
40166.7 32251.5 lineto
40166.7 32353.6 lineto
40141.2 32481.3 lineto
40115.6 32557.9 lineto
40090.1 32609 lineto
40039 32685.6 lineto
40013.5 32711.1 lineto
stroke
newpath
40983.9 31894 moveto
40958.3 31919.5 lineto
40907.3 31996.1 lineto
40881.7 32047.2 lineto
40856.2 32123.8 lineto
40830.6 32251.5 lineto
40830.6 32353.6 lineto
40856.2 32481.3 lineto
40881.7 32557.9 lineto
40907.3 32609 lineto
40958.3 32685.6 lineto
40983.9 32711.1 lineto
stroke
newpath
41188.2 32455.8 moveto
41188.2 32098.3 lineto
stroke
newpath
41188.2 32404.7 moveto
41213.7 32430.2 lineto
41264.8 32455.8 lineto
41341.4 32455.8 lineto
41392.4 32430.2 lineto
41418 32379.2 lineto
41418 32098.3 lineto
stroke
newpath
41750 32098.3 moveto
41698.9 32123.8 lineto
41673.3 32149.3 lineto
41647.8 32200.4 lineto
41647.8 32353.6 lineto
41673.3 32404.7 lineto
41698.9 32430.2 lineto
41750 32455.8 lineto
41826.6 32455.8 lineto
41877.6 32430.2 lineto
41903.2 32404.7 lineto
41928.7 32353.6 lineto
41928.7 32200.4 lineto
41903.2 32149.3 lineto
41877.6 32123.8 lineto
41826.6 32098.3 lineto
41750 32098.3 lineto
stroke
newpath
42081.9 32455.8 moveto
42286.2 32455.8 lineto
stroke
newpath
42158.5 32634.5 moveto
42158.5 32174.9 lineto
42184.1 32123.8 lineto
42235.1 32098.3 lineto
42286.2 32098.3 lineto
stroke
newpath
42873.6 32455.8 moveto
42873.6 31919.5 lineto
stroke
newpath
42873.6 32430.2 moveto
42924.6 32455.8 lineto
43026.8 32455.8 lineto
43077.9 32430.2 lineto
43103.4 32404.7 lineto
43128.9 32353.6 lineto
43128.9 32200.4 lineto
43103.4 32149.3 lineto
43077.9 32123.8 lineto
43026.8 32098.3 lineto
42924.6 32098.3 lineto
42873.6 32123.8 lineto
stroke
newpath
43435.4 32098.3 moveto
43384.3 32123.8 lineto
43358.8 32174.9 lineto
43358.8 32634.5 lineto
stroke
newpath
43869.5 32098.3 moveto
43869.5 32379.2 lineto
43843.9 32430.2 lineto
43792.9 32455.8 lineto
43690.7 32455.8 lineto
43639.7 32430.2 lineto
stroke
newpath
43869.5 32123.8 moveto
43818.4 32098.3 lineto
43690.7 32098.3 lineto
43639.7 32123.8 lineto
43614.1 32174.9 lineto
43614.1 32226 lineto
43639.7 32277 lineto
43690.7 32302.6 lineto
43818.4 32302.6 lineto
43869.5 32328.1 lineto
stroke
newpath
44048.2 32455.8 moveto
44252.5 32455.8 lineto
stroke
newpath
44124.8 32634.5 moveto
44124.8 32174.9 lineto
44150.4 32123.8 lineto
44201.5 32098.3 lineto
44252.5 32098.3 lineto
stroke
newpath
44635.6 32123.8 moveto
44584.5 32098.3 lineto
44482.4 32098.3 lineto
44431.3 32123.8 lineto
44405.7 32174.9 lineto
44405.7 32379.2 lineto
44431.3 32430.2 lineto
44482.4 32455.8 lineto
44584.5 32455.8 lineto
44635.6 32430.2 lineto
44661.1 32379.2 lineto
44661.1 32328.1 lineto
44405.7 32277 lineto
stroke
newpath
45120.8 32098.3 moveto
45120.8 32634.5 lineto
stroke
newpath
45120.8 32123.8 moveto
45069.7 32098.3 lineto
44967.5 32098.3 lineto
44916.5 32123.8 lineto
44890.9 32149.3 lineto
44865.4 32200.4 lineto
44865.4 32353.6 lineto
44890.9 32404.7 lineto
44916.5 32430.2 lineto
44967.5 32455.8 lineto
45069.7 32455.8 lineto
45120.8 32430.2 lineto
stroke
newpath
45325.1 31894 moveto
45350.6 31919.5 lineto
45401.7 31996.1 lineto
45427.2 32047.2 lineto
45452.7 32123.8 lineto
45478.3 32251.5 lineto
45478.3 32353.6 lineto
45452.7 32481.3 lineto
45427.2 32557.9 lineto
45401.7 32609 lineto
45350.6 32685.6 lineto
45325.1 32711.1 lineto
stroke
showpage
grestore
%%EOF
